1192
1354
583
1868
655
3273
823
2798
3709
443
811
457
3764
1035
2236
2567
268
1231
2282
3448
629
3947
2086
1807
64
1558
1948
3071
3125
2456
1207
3089
2924
2299
426
3723
3671
2691
1398
1203
2048
2820
2274
2762
4348
966
4150
4049
1008
241
2838
1374
2615
2885
1058
296
1325
4197
2863
2912
434
2299
621
2004
4068
795
1263
2930
2284
2973
2545
2166
2536
1822
3576
141
3023
1310
3218
2630
424
3128
1593
2523
1637
1484
1809
3521
736
906
3590
1289
596
481
3454
4043
4307
1798
3065
4225
3779
4050
2944
2954
1364
2663
2453
4001
581
3592
2814
3624
2819
1548
3923
254
3615
2872
4378
3221
4126
1665
3662
3534
3787
514
103
1358
3390
4280
3277
3933
3693
2495
2759
3442
2680
2177
3881
1643
4374
929
1967
3929
1426
3450
1442
2920
4136
2767
84
2135
3618
4187
3110
550
99
3894
1242
1497
2979
2366
271
954
3940
552
3691
2360
2537
791
1891
2483
1694
2448
3054
1531
983
4077
252
1212
1858
948
2358
565
1616
3955
1627
1258
1520
3588
1137
144
2357
1359
1898
815
1261
1241
1415
1979
3858
142
3972
2283
2196
1431
4274
3752
3426
4245
1933
2211
1851
1850
1505
1274
437
3061
3189
1013
526
30
3527
4055
4173
3692
1599
3569
3120
2090
2823
2486
3172
1049
3376
1646
1654
2271
1699
67
2586
3119
4387
4389
1473
2606
2674
2954
3005
350
455
3803
1592
2266
300
1895
4193
2971
3294
2047
2581
2482
3431
1411
290
640
1954
90
4374
1412
2749
855
891
2514
3895
3569
770
1267
2810
52
1806
4376
762
3418
140
3124
1276
4226
441
3362
954
4254
1972
1690
3615
149
1980
1563
3771
4103
194
54
1004
58
1434
1718
3408
2619
855
1319
0
2102
4411
133
310
4231
188
1162
3516
4373
4268
3761
2540
3597
3724
4054
3335
2540
3747
4075
1398
3354
3788
1153
1457
3883
2374
1723
576
3096
169
1908
431
543
3553
597
582
1481
649
1298
1234
3632
3890
3394
3684
673
2535
2866
2955
2612
1091
991
3708
3147
2693
3332
2935
718
1303
3370
3728
108
422
511
538
1039
2618
3930
2879
514
3035
614
2952
2703
948
2007
2085
2805
1263
2597
1640
3257
1230
3751
3309
441
890
2088
665
2794
922
874
568
4226
1467
4056
1466
2010
1194
3422
2161
458
1574
555
1233
3027
3953
4299
540
1022
2658
1001
1973
4151
2558
1012
3156
1577
1137
3409
2705
1769
4366
1359
159
4226
2192
79
3032
3808
1939
1596
2563
4122
2558
1040
1033
1754
1429
1526
2956
3707
1182
1992
2674
750
435
1261
1131
1114
2674
2534
78
3742
1856
121
862
821
2704
1871
4249
4145
16
1149
646
253
347
2516
2304
918
3593
1557
3039
3361
313
1155
1191
2430
1260
3798
1951
3784
579
1013
297
2725
4071
2717
3625
4343
53
878
883
1297
1894
316
433
2716
4065
3050
274
1265
949
471
1191
676
4185
1005
4116
3987
625
59
4355
1605
4135
1772
692
562
2340
3678
1511
351
2402
1666
1576
1624
4375
681
4130
1171
4040
4151
2248
1196
4043
2104
444
987
1723
540
1998
1905
43
929
4269
3834
170
2836
3029
1681
4190
3597
941
4106
1382
4311
2743
274
3627
712
4327
3773
2195
2387
1097
3492
1933
2261
947
1486
1411
642
4247
1264
2677
2343
2526
3778
939
253
3542
746
1797
3784
846
2891
3195
3315
4264
155
300
3145
4032
4382
2880
2486
3004
3247
783
3188
3520
454
2237
944
713
3616
1659
1737
2181
3490
1744
2798
2033
2729
2410
545
15
79
3983
3752
4268
695
2325
2781
3470
1499
3009
3615
435
3203
2760
155
2291
1031
4008
309
4039
3821
1730
2943
2043
1977
1887
3109
3553
1546
3520
711
1108
1622
2371
1047
873
2386
2183
1515
1441
192
4272
2723
3646
414
3956
4118
1195
1136
4126
751
753
3723
2010
442
1908
489
261
112
647
1813
991
1303
3593
446
91
1360
3717
3089
1644
4040
3361
3488
1139
1742
3007
4226
3196
999
981
926
2786
2476
1591
3719
2741
169
3747
2766
2003
3511
201
2110
2664
60
3217
2058
119
151
3558
1918
600
615
3313
3928
1571
912
3903
858
3603
3628
852
432
2455
2625
677
1555
458
4049
2249
2337
283
3220
40
2405
3939
142
709
3840
1999
208
418
2710
2669
1356
70
963
788
517
1663
413
1806
1400
2581
1350
3163
2562
2744
348
2950
2000
3402
3129
3638
3542
1417
2774
1055
1885
4264
768
3003
3926
2672
4122
3878
775
511
3977
98
1488
1774
333
2376
1960
2100
3434
1536
791
2638
2371
827
4348
4245
1007
2944
3728
1799
1810
560
2242
2507
171
1667
2970
1593
1796
720
1652
2821
684
2301
2442
2363
837
1457
2443
856
1377
2183
3267
2701
2446
3588
1888
1563
27
2760
1135
2738
3107
302
2607
934
3645
1591
412
59
3305
9
740
4108
2805
2633
3271
632
2345
4214
2965
1383
1810
2012
2679
620
2990
706
1461
2036
572
12
1863
1174
2866
2610
3515
2821
2821
958
3731
3200
3654
4165
2474
3688
4227
869
618
433
2104
2754
3226
4178
867
1047
363
871
1244
1636
2697
2975
1135
1155
3839
4403
751
2648
1755
4355
647
2
1805
2602
3085
2063
3743
1132
4320
131
4325
3636
3992
1774
2602
1556
1212
3352
2247
1443
3846
451
1654
1553
4195
4360
2824
3370
3715
1143
1785
1044
912
2129
896
863
3008
1375
2241
3625
3824
4105
530
151
360
129
3150
855
858
4415
483
4270
4126
698
1408
366
2756
1741
1031
4213
4076
4271
3424
4314
2204
2952
309
3314
1813
1190
1766
3934
1400
2125
1918
2068
3440
1167
337
3432
608
4128
2454
702
3642
1649
1809
2989
2691
908
2789
4242
1108
4224
2940
2179
4314
2896
1291
2107
1998
1063
2721
680
1487
129
1829
809
3444
2241
3208
4306
471
2318
3321
3029
2400
3589
4407
555
116
3286
4381
792
3793
743
1626
1088
375
655
3196
1467
649
3518
391
1583
4262
598
715
873
3252
4394
1086
1518
1435
1047
1008
2685
1606
2929
433
1359
1750
3168
2234
1331
2592
2180
1364
3768
526
4026
2590
1472
204
3976
2055
2962
749
1213
3147
2596
2664
1231
387
3660
1655
4249
1811
1
1366
282
2396
3383
1718
4248
3355
151
2710
1994
3529
1044
512
4417
1726
272
1801
905
2097
582
635
68
4086
3159
372
3591
3679
2403
379
1150
4197
1438
1823
2779
3778
232
563
3995
1609
1017
2857
697
3450
1448
4164
435
1896
2038
2382
3135
1581
3139
3876
2835
1624
1044
3340
1894
1774
792
2240
3968
3271
4266
900
720
153
1489
3318
1453
296
1083
1443
3230
1097
43
295
1562
1980
1325
3530
2956
616
2721
1482
3876
653
4341
2016
3305
3517
2751
2890
4120
4241
866
2415
4258
1689
2620
1815
1513
575
3735
399
32
3673
2086
781
2361
4365
3480
3748
4340
3093
311
3294
1514
1820
2968
548
607
1091
767
628
10
3767
2955
3487
856
4256
3506
2349
3869
1348
1788
1584
3363
4002
565
4032
2819
2936
2608
2358
3814
4208
1269
2138
141
4150
3231
3224
525
2941
3457
2763
774
1773
4072
2955
4111
556
3823
3508
2588
3221
1846
576
636
4260
2363
575
3394
1301
1302
2455
78
2209
581
578
2156
2047
2405
504
26
2209
65
1270
4376
226
3445
4089
1758
3648
3090
3789
4193
3371
2753
4226
2902
1976
4269
1376
2364
84
935
1531
465
2917
3481
685
509
4163
411
2560
4135
301
586
134
4184
291
2706
4216
2858
3397
3844
691
62
3457
401
1277
1002
3825
1846
3739
2614
557
2246
2106
2590
3887
237
2872
82
3218
523
1561
1847
4077
3733
2762
1990
4384
1207
1644
2613
2517
1408
2563
1009
2605
571
315
467
1952
2924
3913
3685
3727
3538
667
4174
1648
4367
3730
416
1891
1051
805
338
783
4266
2975
4157
2957
1469
1485
1786
2834
3951
3357
3583
3949
1305
75
2842
3963
4377
2218
3247
15
458
2068
1184
1958
3429
2040
2471
4335
69
1753
4017
2201
4328
2752
2755
2313
3491
3023
1710
164
3525
2864
2148
2854
3629
4093
3621
3992
1073
1465
1021
2749
27
3132
1272
3883
803
517
4268
982
3871
573
3503
990
2784
1334
1950
2178
3752
1294
231
893
3142
2357
2624
1316
2302
2564
4191
2498
266
2063
3531
889
2062
823
3179
3926
602
1702
1097
2568
3376
1834
2272
158
4189
3648
1720
3406
2166
3650
2893
1967
789
1123
2075
3011
4020
3858
3481
3138
3249
3415
616
410
3944
1717
4048
1268
4386
4007
2922
2689
4156
4178
4353
3994
3648
3615
1323
2858
200
2947
1091
2429
1810
1010
1917
450
3683
2554
746
147
1697
2517
4410
2853
1907
2866
384
1347
4055
871
2417
1296
1428
4299
161
2301
2773
167
4164
4385
2023
3637
3601
4123
2127
596
3374
370
1880
276
3035
505
1344
3655
2608
786
3717
4010
3146
1717
3200
2690
4001
1694
326
3959
2173
3859
2552
2043
2383
3593
2781
1156
4384
4046
3214
3442
2601
295
1897
3856
746
2024
4171
1654
597
4149
2881
789
1518
3658
298
3625
378
1919
3252
3224
2316
2845
928
2399
3124
2484
1620
2876
623
3653
3880
2855
2524
4357
4008
766
654
645
898
4301
367
3954
3515
208
4361
1000
745
2120
4375
3562
1821
2948
2579
1265
1626
676
2187
1663
2854
2609
3350
4376
292
1796
1853
3040
1380
538
4404
2659
4032
1274
1712
1456
1819
3965
2662
4197
2840
2558
2530
2873
3209
653
2057
1253
2061
1838
1148
322
569
3851
938
1648
3223
720
2486
1019
4201
284
927
610
78
2929
1721
1716
650
1165
66
1688
4160
3051
3241
2438
4028
717
398
461
1083
2528
1778
1196
888
2790
4343
2411
2177
3521
1001
343
3807
2560
916
1206
3535
3891
286
2550
47
2752
1936
330
68
1260
2637
470
1222
918
991
4395
3349
2322
119
442
1531
1351
631
83
2913
371
3727
1024
3779
2554
2270
764
3156
2839
1971
4050
745
2494
368
2993
1850
2617
810
2721
779
718
4283
3233
3890
1898
1666
32
3859
2228
1525
3812
4
2247
28
146
1671
3982
993
3183
2305
278
2832
619
2478
2052
1463
4243
3803
2893
1804
1238
1072
443
1743
1442
364
4321
978
1418
134
3534
90
4108
3442
1340
2716
440
565
1169
3786
2495
3078
100
497
3314
2765
708
436
2104
4170
77
2479
2019
4312
4268
2358
1635
3056
3261
724
3140
2118
1058
480
469
2070
4371
1847
3991
3084
2965
3000
513
2082
1236
1690
3895
1963
2615
3924
998
1793
1796
4139
4250
3787
64
72
2219
1341
966
2960
2057
678
4158
534
1878
2401
752
565
2019
512
4407
1400
1284
4093
2842
359
634
1754
682
3522
739
3437
1579
416
3536
3249
1293
3294
2446
4048
4192
707
3971
2346
1819
2201
4296
3615
3906
2574
2832
3957
1107
3321
740
3173
3479
1611
1067
4327
4363
1450
3078
1397
2293
1690
1288
2218
3610
663
3196
421
1281
2999
968
1058
3450
1856
2782
347
4190
2354
2305
2835
3526
3107
2413
104
947
3252
2009
447
1180
585
3283
1547
4131
3544
2868
1330
3779
3176
2409
3176
1048
21
2872
4354
4213
112
4112
582
1051
3680
3036
3006
2182
2083
1568
4207
3669
1024
453
4073
507
2799
303
84
1529
1368
3058
506
3380
4376
3294
436
19
3608
957
4243
2498
3760
2670
740
3481
3097
235
2223
2444
4224
204
1393
2441
4368
3699
2853
2766
2478
665
1371
425
2028
1351
1981
577
3771
4050
1357
2774
2850
2025
2779
3795
3644
4173
2772
3374
3230
155
645
1929
843
2713
3195
3629
360
3427
771
2775
464
929
2658
262
1621
3671
3786
1017
1358
1138
241
1078
3514
205
3132
1706
2513
815
1331
1019
13
964
940
2627
1423
3268
157
3634
37
2173
3572
1720
1953
3656
2222
2014
1100
1377
1875
138
1816
4105
4158
1678
251
1049
3729
3453
94
3223
3976
4410
3291
449
1172
4404
3440
2864
1642
3107
1065
92
1470
623
2340
3085
18
2553
335
2627
3511
1895
3714
2079
3797
411
1435
893
1194
50
2144
822
3905
611
1032
3071
1873
2662
4043
33
1211
2965
1221
2165
3667
2306
1745
424
919
892
3415
1487
2863
3456
2931
48
517
41
540
1228
787
4096
106
1506
4036
2334
852
3686
2507
3255
103
2115
1508
4291
596
4008
1157
3947
2801
1213
481
359
3528
4342
1429
561
2423
1872
2887
411
4199
180
1168
2054
1776
4266
1181
541
2155
2710
3023
1013
3609
1615
972
2655
932
3056
178
2296
2527
3285
707
1069
3933
1484
919
1635
1487
1204
3011
2674
2125
1183
3578
3058
4267
2494
625
971
613
2247
3252
2426
204
4056
156
341
1240
4119
2782
2488
1936
1646
3670
55
2380
1180
4064
1452
74
2735
3816
2229
3692
3317
4180
3851
2214
3983
3660
2806
3974
1948
3873
3480
3012
3498
548
134
799
3727
2315
243
498
1771
3162
1544
2000
1243
2424
2445
4197
3886
3395
544
1729
516
1598
1512
4074
2027
2922
2274
137
3510
296
1917
2142
74
387
2325
3635
3577
3094
3544
1936
1953
578
1653
3200
3345
2687
494
3207
1503
2120
1909
3348
1434
2540
603
2950
3653
326
1304
2348
233
4109
392
3774
927
2078
2507
1282
2129
2196
3677
1668
350
3655
2445
834
1346
4341
1443
564
2948
310
1901
2136
613
1170
3451
1503
3622
841
2087
3221
3145
882
360
158
2061
1669
528
3029
2802
3128
797
638
2665
1073
4313
604
3914
2838
824
2453
1205
4010
579
3367
2262
896
2804
3367
2568
3362
108
1085
2801
1592
7
3708
292
47
1391
760
4114
589
704
1442
2370
879
948
2635
2972
1463
3658
4090
2228
3635
2956
3312
3672
2218
1314
1709
2614
1378
615
1457
2755
3104
3584
2644
1033
497
1056
1196
3011
2429
3246
1749
4242
3210
2535
3128
461
327
3295
3957
3703
1151
775
626
3822
773
3981
326
1636
4245
1335
2427
2981
3769
1355
2701
2755
4335
4092
3751
970
4368
3239
3779
3772
1982
1641
3465
2513
2269
4248
1196
3293
4416
1906
983
4091
824
789
1084
1402
1695
3185
4064
784
2463
92
3531
3550
4304
4255
953
2086
1788
3455
2242
672
1846
703
1667
4232
1331
410
867
3142
1390
3053
985
2600
3079
2118
2179
1089
843
1504
1468
4307
3990
1434
4215
2434
269
4352
3016
413
3303
1626
965
3870
447
3412
902
1270
365
651
957
3451
1122
4269
4345
1845
138
2596
1994
3396
3546
3493
2095
1132
4014
631
796
4044
685
1468
2007
3105
1311
2520
4053
3659
3493
757
4121
4242
3273
1744
782
1523
2960
2505
1071
2533
2189
2275
281
3028
2063
1575
3996
2125
1820
3222
3578
1803
2170
454
214
4187
2818
3265
1160
2658
3011
1294
3146
381
4300
78
1123
1990
712
1486
4028
1494
513
447
1277
775
4111
2366
3389
4123
2206
1119
2886
3496
2313
2647
3988
1175
2959
349
1282
159
3542
3030
3772
2519
1719
2067
1347
1441
3813
3244
526
1662
1652
2200
753
4003
1594
3628
2917
1857
758
710
2820
77
973
1006
1710
3632
978
40
3569
3451
3953
189
486
595
3889
529
3579
2286
1008
3738
2093
6
1896
2418
757
4115
1907
4207
239
2437
1807
3183
3474
3284
2968
2112
1461
480
4267
2630
4064
3409
546
2948
598
883
1618
1634
4246
11
1892
1208
2039
918
3532
201
4382
2304
935
2387
4221
929
2729
106
3179
4380
31
3336
3551
1933
3495
2719
164
1413
2982
2755
1366
2453
90
3416
1768
812
23
4192
3067
3121
1456
3349
3628
3825
426
197
245
2442
2352
659
952
2470
4193
779
1057
1568
1457
2976
851
1811
920
393
787
634
2681
765
4246
3391
4278
3135
668
3464
2332
2411
3345
3350
627
284
336
1528
1448
519
2327
1033
1812
4012
343
4304
652
119
3577
2924
922
1219
4045
1698
2712
2455
631
2054
888
3431
4220
3888
1484
709
3432
3867
339
425
3394
2511
1202
3596
3803
293
3101
3692
2901
523
258
2445
3297
935
1325
1652
2504
2784
1585
3421
3259
2956
1259
844
2129
1834
925
4072
442
1033
734
3084
4235
2198
2600
2215
589
1498
75
3311
2251
1295
58
1382
4047
2060
749
1069
1152
1890
2774
902
4351
3426
3176
545
3573
4405
2665
2288
2997
1199
4355
3772
1147
1027
4316
2712
1672
2357
1028
2792
129
2709
1153
595
4303
3404
3169
1425
137
2878
3682
1848
3743
3531
2058
3659
3206
4364
4026
1418
1972
473
975
3941
106
1700
485
375
1621
476
1741
2667
2886
2853
3761
142
2823
3806
3214
3713
283
1809
957
1406
358
1279
3730
3589
3633
2242
2435
3632
2588
1235
4298
3316
2584
1669
3367
3077
2251
582
4405
5
412
4326
2315
2445
1132
1698
3251
2396
558
126
3419
2708
848
3538
4296
2896
886
3432
3248
3704
1548
3458
1787
1705
392
3540
1911
1488
1654
4236
1449
626
1298
3754
772
3986
3636
212
2501
3327
2225
3327
1489
4090
685
2140
1311
3700
1909
3785
1830
3356
1477
2541
3451
491
2356
3167
4131
353
1515
2064
2541
4237
2547
1799
1447
4274
1494
3333
3656
2873
914
1774
409
3327
1638
1450
3389
823
4414
2731
2347
1334
3718
1348
4006
2078
1078
2475
3289
509
3757
2029
3620
2847
736
694
1708
1822
2095
3156
747
1159
3559
3424
2029
1785
3815
2531
1015
2660
3809
1756
4037
2612
4223
2880
3959
1840
2735
480
2640
2690
3253
4031
4044
587
745
4335
3715
1040
3162
857
3099
1757
1046
589
1628
3479
523
2396
1340
1349
3557
3121
1314
3712
3165
3372
1151
242
2408
1854
1459
1485
1570
3711
858
1078
3934
957
1205
3018
3999
2112
3376
1673
1465
1740
4406
409
226
4300
2198
594
3608
2138
3500
3816
3863
1520
2458
2039
3347
1392
1400
1843
2624
1435
1149
443
1836
2829
1676
2791
4163
1386
1570
3922
2545
1263
2699
531
2440
2187
3457
3172
3848
3059
3754
3394
3978
3712
1147
656
4397
564
639
2854
3236
1358
1135
395
3352
560
2630
538
898
2166
1976
910
1062
1240
399
4265
854
3469
2575
1627
1835
1243
1833
312
1769
1441
23
2948
922
216
2910
3712
1206
985
2044
3077
1561
1451
65
2749
4170
1341
1090
4050
3940
2644
2778
391
2396
3214
306
402
3243
2452
2447
872
3972
1286
1117
3780
1610
1728
2231
703
1944
2658
1326
2530
2910
1181
2919
667
2238
3181
1278
117
1707
3590
4257
2277
2933
1347
3634
997
457
3740
1913
1813
4288
2223
1646
731
1965
4054
3708
169
4000
2024
3463
65
2487
3136
972
2123
2011
2528
1586
527
74
2356
3583
3883
381
2579
4137
1010
521
2640
2932
3639
4032
1613
202
2947
4358
3500
2743
1037
3830
2455
943
2747
3495
1890
58
4015
1763
2385
2098
2373
999
4064
3312
1209
573
1639
1925
4302
1627
4327
871
1897
2377
2319
4277
552
3995
2152
959
2926
2969
2811
1224
3376
4004
1457
1914
738
901
333
1452
675
2981
299
2748
460
2560
3757
350
1503
3079
2242
682
2669
2106
913
554
3235
2858
3144
1088
490
2745
1665
2768
3791
2660
2749
3857
4372
1018
639
1094
792
2475
1009
4331
2994
3838
4319
2730
1413
2549
1794
2565
3902
3920
1355
1034
4144
3857
164
4379
3448
1263
2160
3183
2256
1724
2308
3054
3712
1985
3899
1684
4029
2182
3974
1122
3004
1408
117
1031
1283
417
601
584
1980
2353
2326
3176
4254
1626
2046
598
3335
154
1241
4414
3344
2804
900
3976
712
1943
405
1052
957
2255
3817
343
3166
645
2941
2709
3590
4406
2087
1920
1615
164
1705
4033
1825
1638
3472
3483
1565
982
2254
3073
3623
164
1430
401
3447
919
2794
2992
3977
3056
591
608
1701
2586
293
1017
3130
2550
3038
2508
4271
4018
3980
3669
1782
1378
387
3897
1621
1552
3725
2940
100
1456
3070
2997
277
4177
2989
1488
349
706
2424
908
2851
2290
4196
4023
3437
1979
1624
739
4204
2269
1884
560
173
4112
3151
656
431
443
1381
3634
2143
2848
2252
2702
4174
2550
4042
890
1023
329
2372
3067
2809
1234
2162
567
1614
175
2138
3423
1278
3081
991
2033
1301
2932
1960
952
1335
684
2479
4024
2869
3940
3783
1542
4126
1757
2021
3816
1878
2673
2246
2529
3352
865
4080
944
3879
964
3940
1967
577
3133
3499
1833
715
2324
2141
945
605
62
342
2882
3522
3468
2569
1839
3621
655
3783
4082
4360
3118
1296
3034
1174
195
857
1395
1076
2759
370
332
2657
2141
1396
2383
1762
1543
443
3663
3248
3058
978
887
1101
587
2612
603
1695
2839
3119
3409
2345
2939
1816
1183
264
1589
2461
2628
150
4128
2423
3084
1286
1378
3692
4176
1143
1369
2434
1635
3654
4235
559
8
3103
2059
2844
3297
4368
1649
2141
4125
1890
3814
435
202
743
3034
3221
2754
3461
3831
776
1929
4172
3551
1309
720
725
4249
1586
3680
1218
617
2102
448
959
1186
127
245
4396
4358
3790
2402
1875
3817
1900
2957
233
2390
1279
2494
3652
1664
2089
3305
2695
2128
2403
2106
465
2201
110
3053
1376
4417
1202
3428
506
646
1923
1435
124
3365
1213
2071
367
4082
221
1683
144
2406
3413
1319
987
1327
2506
4178
115
1682
412
2515
4330
2555
832
2244
3641
638
1107
2052
4104
3673
1317
2120
842
2595
278
2069
378
163
500
900
1355
38
2267
934
2671
1351
1610
1463
2812
1541
3842
2475
4189
1300
3402
2885
1687
3552
1777
1260
11
1672
1485
4187
275
1787
2829
168
922
337
2938
2076
393
3696
3131
1103
2936
1570
791
1916
3319
2259
3692
1705
1685
2981
761
2798
1003
4116
985
2615
146
2379
3019
2663
3511
3385
2383
2427
3020
1961
1775
3404
1540
4247
4059
1278
3597
1422
2535
3654
754
1283
1470
2646
3915
2472
504
2877
481
3638
3866
1138
3031
3966
1054
962
2843
702
1167
2559
3522
969
3730
210
3410
4100
4186
146
1735
1185
4255
743
562
2326
1889
2378
1039
3710
2297
1876
4317
3660
1208
524
2826
93
2200
991
3913
1425
461
3523
3740
1978
2776
2148
1213
189
365
980
417
3365
4126
3373
3543
1330
1248
3936
4172
3947
574
2961
2787
3565
4300
3898
228
1108
2647
4327
1158
695
3186
1604
3645
3935
3358
1117
2496
3450
2399
235
64
4015
3762
1659
3846
3942
4243
2121
66
3106
368
3363
115
2362
21
1492
2113
3110
112
872
1891
4191
2920
934
3658
1554
1929
677
2259
2573
3660
1296
2735
2019
3553
1849
3413
1123
2766
3369
1430
897
1731
3606
3530
4173
2019
158
3708
3337
1422
31
1210
22
3750
1385
2495
26
36
1000
2369
785
2596
2247
3271
2333
3816
3283
546
3440
810
1027
8
3715
930
486
1438
1890
543
675
953
3443
2566
493
244
2466
2901
3776
2990
1830
3250
4251
2452
4315
3511
3215
1043
2609
4307
1757
2731
1906
466
3016
2807
3671
155
4292
4196
1995
4063
747
2813
1522
3913
2525
2250
706
1071
4339
3354
3176
1618
3560
743
693
2578
2669
2724
3303
3965
839
1098
1404
4115
2016
2027
2007
3432
4034
3405
4255
249
952
2544
3724
2053
3723
3290
2271
2063
4384
2605
1798
3173
249
2546
4291
3984
3293
2874
2703
3323
1354
4113
2630
3587
1434
722
589
2994
1250
2763
2955
1553
2676
1697
1494
290
375
174
1663
3473
2873
3679
1134
4107
221
609
1619
622
2651
2884
1285
3618
1701
2222
3841
3200
2735
3989
1542
604
907
3072
97
921
44
2945
4024
3698
590
2320
898
69
811
4329
3366
3551
104
1276
656
3231
3038
3578
84
3759
876
183
2744
3369
3067
4155
2251
1780
3941
1074
2405
2519
2459
1831
1598
851
2490
3554
3967
60
1801
227
3907
4159
3686
3855
1371
1223
4330
809
3978
1957
1311
3090
2184
415
4405
1301
3038
516
1356
3559
1202
2990
4178
384
816
3414
1089
1131
582
505
1672
3860
889
2837
2727
2638
342
146
261
3841
913
1279
1666
3401
2580
628
906
750
744
3337
1789
3669
4204
3274
773
2871
442
3799
1541
1850
3904
2776
1436
3820
2308
3926
1840
1645
3685
3832
1633
3817
242
1416
3597
194
1172
630
3909
1436
4201
4199
1510
3158
1683
2164
2139
1069
3772
794
2340
1033
1900
4330
88
4136
2956
4337
1531
1480
3731
1186
3330
3133
1397
2465
3417
272
1529
53
3128
1395
4408
3133
2437
3768
437
2987
3229
30
1286
342
2954
4119
3367
4390
1905
88
3717
1520
590
4099
1184
1107
3566
722
207
4258
1637
3579
2571
4019
2576
2224
2867
1501
3517
3305
2499
1007
715
2292
195
3836
4141
440
848
3240
55
3639
906
3557
4356
3846
1204
56
4395
3776
566
1566
2976
3718
2788
2866
3068
1110
1913
2609
3610
3111
3175
2401
2608
1658
1793
384
754
1843
2463
2553
4109
3818
4077
341
3713
3705
4365
2555
3233
1790
2382
2855
2292
4227
1918
141
2242
2150
1193
1178
1000
2940
3380
1976
3485
1958
2698
1746
3214
1526
2993
3615
312
1244
2788
424
773
268
1448
1498
2026
4073
3461
3135
1261
3065
2885
164
1503
3000
604
272
4015
2939
2287
668
1926
164
2519
2326
2719
3288
873
1920
844
2078
729
4026
3105
260
2775
1525
943
4340
