5959
3710
1964
2836
2381
2844
1782
2667
306
7608
2467
7706
7009
5464
867
4288
3337
6054
6040
4833
0
2071
219
3643
7004
91
403
962
4038
6831
4
4665
311
6531
6147
9699
3080
7116
164
9187
1154
3875
2348
1764
9061
6301
5082
8270
2677
2214
6686
338
3649
9279
2412
7108
3173
376
3503
2156
7421
1127
7442
630
4949
1260
7129
4031
7040
5350
8549
1061
6992
6555
4921
8263
5968
4908
3724
3151
4548
3048
5485
5381
8426
1372
3062
9085
6326
9663
6198
3784
2217
4096
3682
8612
4639
1377
4577
1438
7863
2290
217
2506
5288
139
6534
2770
1437
4123
8687
9248
1227
7628
2960
7562
3227
4348
2797
9363
8583
7390
7886
108
5290
4997
3996
3960
5099
6421
6536
5729
1011
1572
1616
2993
1783
6037
1698
1615
8810
345
8161
1820
7657
1914
6783
8140
5668
5665
6698
5285
7541
3795
239
8134
711
2809
8048
6325
5673
6865
8033
9641
2589
5561
1862
9471
7664
5783
1917
7416
5505
5962
5620
4071
6790
3309
1531
1425
2748
9154
7315
1903
6707
8739
9502
779
5193
9117
854
8404
183
5484
1221
3244
433
8688
9675
4915
7800
9261
8024
6834
3623
9427
623
1782
6943
5382
8868
1748
8525
1459
6865
3042
1821
937
6870
5071
5616
650
1518
9140
7679
771
2488
4731
5207
2892
9396
8966
8557
2512
6899
7301
3428
3018
9065
7864
5231
5524
8925
4732
4141
6209
9640
7829
8847
3166
8824
1839
267
4673
5492
3425
3764
4778
1909
6102
4967
1515
47
8434
4081
6932
5345
8841
9051
405
904
1425
286
1336
1275
783
9361
3246
852
9052
4930
9390
276
897
5092
2256
5844
4860
4178
3877
1672
7269
2256
1040
4885
8886
3628
2377
71
6206
5366
5358
867
1074
6212
198
4921
5915
9724
4620
2370
5652
8292
8592
5248
41
525
2805
367
6480
4298
867
7614
6291
6815
5960
8483
891
2764
6922
6332
8420
3495
443
8637
5119
3922
3986
88
809
7132
9662
8212
8965
8504
4397
8899
3605
9307
7127
2251
4722
8879
8209
7551
9010
1304
5981
5315
7323
4715
9476
117
8567
8651
7427
7780
9231
9647
5919
9667
3873
4335
4192
2764
1558
5047
233
927
1908
3578
1470
5237
793
8709
3686
9530
9301
3522
3056
7714
2306
4692
5114
4157
8775
3733
2430
3
62
8372
6489
703
383
9626
5838
2472
67
4583
8807
8369
9678
781
1306
9837
3141
8064
7063
5335
3815
1259
2266
3529
7555
7496
8009
529
2919
6135
801
1770
4816
7879
4466
8451
271
5013
1084
6957
6236
1315
5024
2684
3958
8710
7164
7472
2239
3245
3832
6155
2294
3489
6202
7150
2410
5853
7533
6205
629
1671
1358
1268
3682
4774
7572
6824
4865
3015
5987
2592
2202
8227
5847
3284
7342
403
2731
136
2046
7147
8480
1118
1552
9333
7420
4531
2452
4137
5781
6560
3183
6842
2363
83
2644
4344
8384
2006
4869
7194
2473
91
6829
8828
8442
8443
1668
4409
4698
3527
5263
1158
4432
8903
6130
4026
6956
2618
648
5203
8731
150
994
5836
3243
3114
8593
7522
7693
9299
1442
5712
7576
1764
8667
7273
1787
1338
4521
1559
5923
6815
6557
9723
8420
8747
7388
5002
4311
6397
4490
2572
4844
640
9475
1964
6182
885
5273
2982
8912
7246
2342
1906
7791
9054
7
190
7170
6232
6829
7915
365
5217
2180
649
3455
1577
4034
7859
5287
8166
5875
2963
6371
4481
4588
5388
8696
2276
6160
4626
7801
2941
7543
1391
2614
9040
38
4003
4220
3450
6624
8891
4116
8338
4121
3244
8342
6858
1416
4550
3686
5275
4686
7256
7282
9578
1214
4110
3545
2731
312
5457
8819
7853
5791
2561
753
3620
6266
4417
6977
8191
3698
8152
8521
600
5659
3492
1297
1629
5790
8127
6394
4087
9656
5527
1654
4471
4597
9303
406
2890
5782
6424
9011
8309
1856
5622
8388
9432
5247
9643
4133
6940
2735
9546
7070
5773
5987
5374
8632
2315
928
7626
3213
4157
4324
1317
4450
6119
6465
8002
6173
5713
3908
7518
4477
4837
3175
1867
3724
814
6132
6069
8083
7820
4671
1769
253
1404
5952
3825
8566
8655
233
3762
9795
1207
1579
7553
2319
8451
9149
7469
2676
5328
3857
5275
2624
6142
8672
5240
2784
7261
5825
200
1764
825
7722
9020
5753
1736
4302
6713
5331
3454
3511
8976
3034
9144
2348
4475
8833
7438
6831
6042
9410
232
1206
8391
2481
6036
6259
4972
7075
7209
6658
3667
1315
619
8151
7404
5374
6223
2110
6107
6088
2388
5484
108
9055
5724
1183
3815
5071
1189
2853
2922
6835
9859
6570
443
6928
6726
452
2345
5443
8289
3332
8298
4882
7303
2636
693
1740
6864
6639
9013
5605
8152
6378
7078
6555
2283
3265
2978
6158
1123
9113
4061
3855
5262
9489
198
5832
9377
2803
9009
6744
3243
5499
4509
5094
3409
6647
219
7683
1566
378
2325
5506
3158
5227
8682
7549
1700
749
3191
6126
3077
9057
5435
71
321
2968
3588
2158
5760
5992
2449
6736
7422
8834
805
8262
5124
5874
3389
352
159
4674
2183
650
3735
6304
255
4108
3941
2224
4610
622
5950
8835
3795
9297
8952
9442
9242
906
7988
2594
3745
9556
5566
8633
7721
112
8860
7903
3917
6994
1614
1864
8557
7558
3783
6485
4842
5414
3517
4173
8620
1039
279
3349
486
5651
6284
6800
519
7271
7336
811
5664
1933
7963
7161
7789
4137
2966
3647
3053
6964
3959
1763
3625
346
1441
7378
9731
2203
3892
1056
5752
8165
9443
8496
8848
5744
9803
4785
8263
1074
3709
165
8567
4086
4369
8993
789
3440
6538
5274
2045
9484
2277
999
8487
4641
1570
7203
4714
2541
9318
3438
3822
7431
3391
9364
889
984
2082
4714
5914
3322
2443
6586
6430
1371
5208
6077
1270
8062
5159
4336
235
2741
1330
9481
2157
3852
5025
2344
5606
7110
6279
5530
9859
6006
6614
7769
2464
3883
9474
9186
1273
3569
2272
9704
6433
4292
9516
90
9315
4335
694
581
8581
3900
7593
9740
7369
1167
2730
6441
4856
4720
3035
9353
5789
3933
8889
1303
3583
9453
2065
5041
3043
7328
2327
4168
3300
7785
9213
7491
1545
3855
3270
2049
6233
4211
2898
1480
2046
5805
8691
9401
3032
3693
3054
9498
2066
1890
4824
1501
476
2783
7577
6172
5952
2858
742
6330
6922
6411
5283
6257
3090
7641
6292
8167
5897
3520
8201
3218
4008
3943
2177
1602
6974
8628
9348
161
7362
2743
9018
7281
3540
7496
8864
2806
1992
9609
7209
6946
9648
9664
7542
1563
4112
1353
9123
3113
113
681
3154
8697
7492
4036
6267
9410
2614
2261
6173
8359
4199
5060
447
617
8826
4699
240
6187
2164
6142
5325
516
8642
1298
7470
7602
4939
2085
7712
4629
1975
4952
8265
786
1773
4813
706
4386
6359
8508
8093
3895
207
3126
7236
8935
7404
6506
9511
2436
4863
8737
1926
9796
3772
9604
7687
3429
4805
7431
2846
2409
1417
5676
3738
5908
9823
8682
6537
1287
1350
6274
3033
2402
2389
6237
5773
3453
8624
8708
3355
5977
3161
5569
4851
8873
4846
3250
738
9620
2688
9440
5794
4807
2660
3437
6865
9352
7239
4723
5638
9563
7863
942
2591
1791
6666
1309
845
3016
5639
4058
9538
8248
9539
1091
13
5597
3919
852
3325
5552
1491
2559
9431
6948
9184
8316
2838
7465
9695
3515
6485
6507
5566
5331
7856
934
9032
9473
8861
3885
8757
9302
4158
2692
5224
3522
2543
8535
3272
9538
5049
9312
4606
7621
7246
9792
6205
7887
2881
4699
641
7339
8031
1723
6202
8335
4196
2500
7041
226
8012
7142
8801
8962
1234
5998
356
4227
2822
890
6805
9033
5154
1676
8814
4662
395
9295
9142
2120
5103
8447
6605
6666
3715
6115
4132
4357
8396
8220
4372
8619
2159
9052
837
1600
5917
3700
5459
3434
6305
8855
7941
2563
4869
1069
2394
693
7965
533
6816
9206
9474
8164
4665
5993
4766
8094
1400
4746
1502
1159
5130
3793
8641
5978
1687
2874
6477
1542
3490
8714
7077
6914
7590
4830
8876
1847
1862
7367
9708
4794
7827
2497
4091
3239
7719
8136
1592
9682
8066
7852
4547
2732
178
2376
9663
7518
3676
6615
7969
5358
812
4369
3057
8708
8890
6269
6273
8901
5774
8672
6725
8266
6611
8101
4966
7671
9102
5166
1832
9014
4570
5016
5172
2579
4744
6876
3296
6823
6271
8904
6681
7547
2254
9640
1114
1267
2118
4344
3994
4147
7471
6139
720
2112
4436
4210
328
6088
1775
409
3659
2705
1715
3283
8455
8317
7396
9076
4161
2612
4862
1687
6860
1098
8178
7450
1827
6708
5122
5908
424
3509
1980
3593
7100
186
8177
6037
5363
7143
2516
9742
5700
5296
2334
5620
9598
4142
5095
4113
1649
943
5751
1598
8852
6781
26
4837
8369
134
6365
7847
3268
2176
6137
5022
8753
2154
5751
1780
9824
135
9663
1788
8391
3984
9619
6219
739
5556
9372
8606
6921
2622
75
803
4248
168
9413
2306
5175
3703
5329
2139
3284
7644
8939
3077
4481
2094
3894
9817
3652
4385
6488
4737
8614
7523
4366
1268
6436
8461
4583
5960
3649
4595
8606
7448
2204
6125
468
8388
3614
5530
7064
9082
4534
3776
1881
4455
4521
6884
910
2603
6761
5552
8365
1185
4742
842
6539
7788
5971
1805
6661
9407
236
3712
9439
7668
2284
9051
5133
7180
5302
7842
6839
7954
1085
1596
5707
5271
3612
7293
3834
5134
9233
7404
8148
206
2597
8317
265
4105
3702
5159
8356
6358
7158
8786
8572
1511
988
983
306
7694
7466
7841
7221
6550
8576
780
4757
5703
6615
6377
152
6190
6786
8186
8340
1706
2823
3596
1121
7037
9532
4027
1827
3762
1632
1557
835
6157
5620
9047
6706
4357
7682
8605
6724
5899
6845
689
4252
6448
9717
2356
4238
4696
4030
6537
6006
4622
1868
8755
743
8106
9660
7946
4835
491
9374
3485
4105
5595
6400
2627
6674
5434
4339
6187
9238
3475
7614
1115
4439
6809
9239
7894
252
1078
8571
3418
7568
8977
9798
8038
6214
8818
8664
2415
1906
516
4279
930
7761
2060
7004
3802
3629
4557
3949
4504
2188
6467
93
2537
3114
4900
8908
1291
9060
7810
4551
1756
3360
8900
4032
7452
9524
729
6723
922
9202
8703
8111
3351
4145
3475
9312
6116
6667
6145
6255
8658
2986
2876
265
5495
4938
8150
206
7910
1240
8387
5776
6000
5678
3399
7164
8147
3091
1689
1860
64
6710
4785
7056
70
1631
7774
1460
5022
6536
1551
4262
3782
5780
3609
3630
2453
9226
9339
4509
5793
8838
7353
2384
7284
3108
4377
6150
6129
4840
7907
3233
8157
5191
9621
6135
610
5228
7188
948
3679
2681
7759
7917
4488
2329
6414
3255
2993
9766
2038
4074
3191
5511
7988
9206
471
2124
3847
7835
928
4007
988
8021
3543
3151
8321
3730
4374
6124
3454
7221
6883
7633
9296
2645
1095
9250
1823
2402
3384
1498
4476
6797
2291
514
968
6469
2938
8701
9784
3059
9086
7615
5387
2072
1205
4785
4041
7745
1763
759
6986
6917
4843
8640
5583
6973
7841
115
4760
3718
8620
6235
6132
8497
7418
862
1258
2523
4403
1583
3990
2725
4876
1866
5895
3030
1548
5161
4559
9523
2030
1972
1110
5725
206
6895
9003
26
4881
9156
578
8095
8684
4260
583
2022
7428
8062
352
6823
4254
6179
9223
9185
7326
4330
1438
2015
2834
988
1457
4049
853
7948
6328
6233
9253
101
54
2043
6166
2380
8936
8625
7277
1041
4273
5637
9598
1359
968
4973
7238
1148
3499
3864
496
6112
4196
2179
6491
2225
2807
8527
4373
4787
9262
7750
8335
3798
8310
4449
6490
8436
2353
8708
150
2667
2581
8262
4230
1393
5925
4633
8071
6886
9243
1818
5894
4219
3247
4057
1493
2052
7374
9519
1014
8137
6119
4266
2381
342
187
6031
2851
4781
4747
3432
9335
2845
7157
8380
5109
863
9403
2810
438
2070
5247
8982
3228
1129
669
2499
6486
5649
6766
3496
6504
4585
5991
1546
9065
2082
9786
710
14
856
3409
7073
1541
9787
2754
3876
4986
4595
7974
3246
3434
4026
51
361
3893
456
4536
9268
5206
1649
5743
280
507
5033
191
6219
6694
4401
2279
6434
7336
724
936
391
6168
1605
7727
3077
1091
2779
707
7324
6788
9132
726
3466
3435
3573
6834
4309
4032
11
4892
8467
7258
207
3905
6199
9438
7831
5790
2186
3635
3287
8778
7558
958
4048
6086
8236
8863
4320
9504
5776
1350
4856
9673
4306
6805
6964
3570
8304
7656
327
9534
3470
8519
5000
1891
9476
209
7124
902
5914
5240
5383
5649
4142
8325
6219
8168
9760
2901
8450
3951
3074
5595
5868
9000
312
1614
8000
852
5154
483
6830
533
7493
3509
8387
7576
2360
8227
3533
6660
9483
3474
181
6819
1775
1593
8498
6168
9658
9727
3560
8187
3770
2149
1798
3686
2345
7627
9211
7588
5927
8997
1159
6044
7675
6775
1118
8864
4945
9413
329
1883
4649
1283
4596
2654
7813
3981
3009
7191
4185
8375
4560
6076
1348
4340
6142
648
332
9261
3039
8323
9183
8064
8154
2360
661
9606
5931
9419
4201
3439
7040
3077
3043
1618
1331
5057
2865
353
989
2993
9006
3583
2564
8226
7308
3200
8146
1457
3782
5550
8569
5015
3578
3370
6911
8600
670
3655
9719
1181
106
5783
2575
8287
9602
1590
7937
4976
965
4650
313
4993
676
177
1357
6502
2231
5038
1504
2230
206
8707
7476
5938
9513
5891
3883
5734
3990
5756
7870
5762
6363
3567
3277
8820
1053
529
8375
8244
498
2683
1577
5528
3276
4542
2646
9854
5815
8630
8791
6575
6945
6880
9634
5231
7086
9649
1733
1335
6310
3942
6867
2407
9371
5655
3514
7322
3500
4397
5157
9071
6848
5949
9602
7946
5470
346
5033
5896
8089
8590
7
8055
9535
9641
605
5790
3350
4787
865
9802
7838
6825
899
9535
7728
6638
1479
3934
3873
1240
3015
6615
3764
2310
8183
8946
2533
5869
1072
7827
5697
3949
5257
9472
5719
169
7742
5023
9762
326
9800
2473
5085
8945
6651
1762
569
9688
3594
8531
1693
4392
656
5515
488
6053
8872
2253
3869
5207
3736
9766
3643
336
2612
5831
2641
3782
65
9447
2224
5624
4709
7005
5248
8401
8768
9488
3109
9150
8657
118
3775
9806
2189
1535
7289
4804
4582
7587
1911
2899
8829
9376
8564
4677
4152
1891
9570
8167
8186
500
181
8813
6856
4997
3495
207
2361
3009
9378
1227
8236
3439
3721
6650
2422
5111
6224
2983
7807
9067
8087
9807
5462
5650
4194
9459
3085
862
5770
6247
4960
5836
5946
2068
5965
3682
2568
7430
8905
5517
8147
3712
5645
2490
2491
1812
1095
5927
5671
9038
6841
5870
4908
5701
5405
4249
7702
7155
8200
2741
7136
8479
7376
526
6161
3277
4337
5200
2778
1105
51
2273
1180
1172
234
1426
8414
3116
6076
3787
9440
1482
7200
7124
991
6551
8452
2038
4985
3489
1536
1135
2501
3872
1770
8306
4104
6213
2647
247
8891
6301
716
7855
2817
7639
1158
1251
8181
1950
6328
7848
5389
8123
6858
8032
7559
1115
5336
5296
6861
39
8797
6453
212
6372
7958
912
4465
3735
8491
4826
9663
7751
7292
993
8122
4266
7658
5583
1401
8573
4056
5197
7124
3356
849
631
7632
443
168
4443
2763
1103
3188
4991
4734
84
8383
4333
2834
8979
6793
5438
2067
405
8046
4630
5699
5532
892
1352
6594
6171
9604
2814
3899
4549
4964
7596
1480
6573
5438
1695
5148
2729
4308
9364
7306
6448
4075
6591
8921
4062
3586
1302
8007
760
7043
1146
1356
3862
8950
7430
3295
598
2756
1823
8864
5610
4532
2189
8888
3018
5452
2112
202
6007
4053
8245
9721
9020
9268
4160
4276
7472
2533
9547
3382
4848
6524
3870
8153
5735
708
6611
4420
4424
59
5548
3270
1784
9711
9008
3243
4278
3775
7086
8863
4932
3007
2810
3134
6040
8062
2894
2166
3855
7315
7885
7856
5461
5507
4832
2034
8212
1952
5721
6174
6551
9670
7509
4560
3567
9859
953
215
1797
8935
4974
1981
889
6515
4034
3154
4112
5259
9699
9522
8317
230
9659
618
4883
9000
1130
7427
3159
6148
7621
6809
8352
3481
9187
2044
3214
6620
8961
9240
4954
9559
4663
2434
1584
2008
630
8000
2227
2629
3202
9794
9850
6420
6766
3724
1554
4269
7775
1124
7791
1847
1682
7812
8191
7584
253
161
6405
9144
6436
379
603
281
8912
7033
6561
3282
6746
2621
9083
7366
6328
2177
9237
7316
6102
2485
5261
3288
9322
8133
409
4185
2401
1032
3292
4151
4570
4775
1413
909
1826
6003
2275
9311
6875
9021
311
6414
3213
4660
7858
7056
571
1999
6902
5751
1114
5650
7738
2366
1226
7738
327
8671
1013
9632
4847
4985
5152
7409
4341
4314
4494
6457
1193
3342
1412
4556
8618
4550
5476
5638
8817
4763
737
3515
1718
1244
9687
2842
2695
5703
6556
1355
1309
144
1704
4737
2640
1475
2711
4093
3161
808
2133
9705
4115
4618
597
8645
3535
4736
5943
9703
7549
321
7240
3651
1760
4451
1269
6210
8182
9590
7221
5477
9742
6980
8008
6334
3859
1513
8289
8842
9650
6897
8670
3094
3011
4202
2203
5771
5001
4552
5365
4650
3828
9620
8166
7274
6585
636
8055
2633
2125
3501
242
406
5954
1620
3281
1440
3355
2571
1275
1228
8331
5091
3610
5140
350
331
7355
5736
9588
2016
4403
339
9635
4113
7386
8116
5624
3852
4254
4036
8097
970
3921
4859
5030
5887
4317
4102
4934
1848
4798
9011
1809
9217
8641
9744
5064
8789
6840
8039
9217
8190
3089
6992
2914
3056
7869
8141
5933
1117
7058
6010
8370
3722
7428
7160
1925
8421
3541
3933
1418
2334
3549
8919
619
356
3991
2038
7481
9836
1230
1268
1175
994
8582
1402
9717
201
137
1505
1949
2262
1414
2124
4348
7833
8446
6618
9663
6234
9776
7316
6209
2599
364
2392
6833
6415
4155
2321
3961
2816
1269
7419
1023
3346
931
2907
9736
7231
6307
9668
8211
6496
5839
1701
3487
7522
6344
4867
9165
8067
4904
9428
5369
4475
3511
2982
4188
770
569
5938
1552
6120
2773
5708
8552
5120
7511
8031
2046
5300
9764
1758
1536
7421
2065
9318
3307
4986
9164
5357
3667
8143
8962
2617
4219
5660
2450
1977
4104
133
5687
9208
8558
5881
1094
510
6807
8355
4907
7549
4489
4638
5991
9815
9207
9192
6919
4331
1088
3962
7783
1642
6875
4642
194
6718
5375
7948
7113
1193
7699
2397
8663
320
1687
167
7293
9427
2899
6083
5507
278
2759
5849
1048
7527
404
585
7446
7319
3041
9327
6174
6843
6943
6044
5067
3515
1221
1001
3793
4270
8615
7173
6906
4449
1466
5342
45
522
7916
5537
523
2325
6446
7275
5407
5354
4320
9245
2257
5082
6888
584
6128
5873
5655
330
6662
9073
1793
121
5185
292
7584
6737
4359
6156
1289
3014
3402
9623
8731
3032
3618
7803
5016
5618
7260
9396
9406
7019
1882
3185
4819
8775
1037
4406
6830
7807
8526
316
5095
2056
2089
475
5665
7526
6171
1448
8758
2870
6320
1391
8271
9520
9525
8199
3418
8435
2136
1238
2359
3479
6566
4880
5131
3242
1957
8836
3908
2231
3396
8003
4478
1832
6285
5636
1162
5754
414
2562
2210
7259
2811
6200
7201
9290
9791
9070
6337
6866
7213
9506
522
2041
452
8522
2841
4635
4764
7210
5490
3699
4472
1814
8804
7671
4925
125
12
11
8051
8229
5821
4569
2639
5427
727
6524
8222
968
2123
8931
3173
7457
687
6826
426
6212
6159
2074
5875
663
5527
7406
8294
5027
2715
8358
2065
4131
9534
9521
5215
314
9216
1932
5477
7248
5560
4280
6955
744
8937
1701
2223
2067
6019
2961
5873
6749
1498
6637
284
437
3716
7548
1645
5467
6053
3809
7118
7986
1585
738
5910
9765
9101
6059
1783
807
6830
7666
5081
5998
9854
1370
6603
9501
9409
3770
1912
2306
934
6986
4877
1135
7596
6182
2098
1960
460
5416
4230
243
1148
2788
4183
8293
7900
6807
4515
6932
1341
6352
310
643
80
824
9161
4569
9098
3578
5149
3026
3983
3370
7873
236
6567
1286
3948
4350
4293
8478
8415
6532
1059
8874
2019
5622
9215
9856
7764
1395
225
5048
7819
735
4254
488
4974
88
1637
5603
1573
7730
1665
6361
1512
7750
5898
9550
3056
9465
1424
7600
5196
4082
5747
9757
3966
6081
317
3694
6402
8969
6623
2069
2215
1733
591
6285
5136
1167
1890
4639
8243
8333
2879
867
38
1728
4856
6354
1922
3119
4449
1510
3605
742
163
2792
2323
2086
630
3509
9294
1600
5051
7068
9347
4277
3653
2409
2901
9316
9606
1938
6197
1180
7315
223
8107
9714
26
5492
8961
1395
5408
4844
9295
8186
4851
4855
471
6100
4929
3840
3398
6825
4076
4015
75
2936
2258
8934
4124
6977
5409
8035
2380
9390
9335
8647
4076
2052
2823
9646
6370
8759
7573
4822
7168
5136
8696
9598
4058
1168
2388
2452
3624
4617
1346
7276
654
3574
6732
9817
8865
5896
629
9225
2243
220
2469
709
700
3901
11
8407
9137
5143
1524
9455
6206
8098
510
8806
8639
4765
1181
2445
8306
9518
7153
4967
6141
3690
8801
2929
3368
3327
6908
2647
2891
7794
7723
2337
4779
9851
7163
2428
7342
7628
5553
1804
6259
9766
1252
2749
8515
8343
4201
8495
2190
3358
4842
2282
4332
8857
1986
2200
6425
9688
6894
9498
5964
4599
598
9573
8352
4145
1922
8491
8868
9005
5687
2045
7321
7006
274
5762
825
7496
788
7157
7707
5003
5157
9027
2767
4650
1731
9856
7801
8401
3066
304
570
3303
1618
1371
5234
1619
1897
2562
211
4387
1136
182
2767
8408
3500
8706
3963
3565
5782
3900
2242
1747
1433
7597
6261
5906
1284
8602
6303
4520
5520
7624
764
4283
5803
4700
9646
7373
4883
3765
8297
3750
2226
1798
2965
3835
719
4631
3875
1317
5079
5952
9489
6220
798
3801
6170
3368
6797
8602
3110
7331
2853
1846
4970
6311
9621
3744
6097
7743
5888
2966
6736
6589
358
2422
8052
5714
6563
3880
4021
2998
651
6157
26
9016
4325
8833
6540
3345
8173
1900
6012
3737
3624
5383
4126
5166
7308
4631
2344
4613
4073
5695
188
7777
564
3066
2862
195
8951
2001
5606
8320
4950
7807
8851
5289
2837
3703
2361
6580
8822
9299
3388
8877
9833
4158
3942
2532
6980
3429
3726
2743
9397
1383
4851
6161
5305
7118
9033
9473
2871
1639
6162
5608
908
5813
4770
7597
4722
183
2193
9326
6243
6292
4823
141
5393
7703
6098
9835
5060
9277
3047
7418
1397
5714
1635
8365
5747
4478
3744
6480
4084
520
5501
229
9540
8260
8574
5590
5613
4135
1110
6231
6571
607
1567
7416
2408
1571
4612
8424
6642
4540
2535
7532
9564
3297
6568
6947
5410
1433
4687
4671
6085
7290
8050
9708
6616
4436
4291
9490
7541
1125
6205
9142
1607
2104
6338
246
7885
9508
1482
926
5352
1186
7274
4406
4835
6319
3044
6488
4976
7604
7186
1232
5734
5505
7014
4077
7874
3421
6462
2032
4315
7388
6613
1551
2364
3407
5486
4879
1936
5072
9724
2786
3792
3414
4992
7508
8437
2476
4585
6719
4964
203
3433
3794
5760
0
3760
5339
5560
8698
1605
7348
90
412
4152
1135
288
4223
4997
4919
7469
9499
3684
3091
9296
2262
7118
4498
1986
6181
7987
6829
6038
8350
1777
8577
3010
371
5593
5186
6272
5953
4030
2741
7003
6466
5359
2946
6516
3521
3946
1657
2557
7779
7608
774
4689
9724
7767
3205
7295
5921
4383
5065
9249
664
9208
2289
8705
1526
1841
2983
6487
6264
7800
4769
3400
8113
3942
6211
3712
8657
838
7103
9000
3350
344
242
3283
4885
5787
9075
2371
9212
785
4561
11
3163
6428
1342
1560
85
188
42
3357
2832
6722
5827
2296
9733
4088
3646
8956
3691
1651
2928
1000
635
126
2313
2506
693
3298
4349
2362
442
953
1017
9694
4745
5484
2792
1191
1893
5321
5110
1146
6856
2083
1531
4976
2507
9850
445
6936
4866
9218
924
956
9671
4316
9695
5958
175
1112
5380
3429
940
1374
4414
7235
3651
5560
1119
8215
9793
2701
784
3050
9650
9372
8893
5083
9713
4888
3845
6295
9103
7296
8431
2965
5185
9454
8665
5639
9512
7841
9174
9239
245
501
7887
4754
460
8045
1895
8908
3114
715
6431
8513
6568
5254
8265
7810
726
6749
3541
4075
4706
3652
4881
9805
8145
6373
7554
3621
1360
622
8825
4961
1117
2782
3353
8727
9110
1149
2232
2072
2298
6552
6880
2346
5143
9186
2607
9647
5423
6030
946
5938
6243
5846
8271
3104
7479
9749
3935
5999
2995
2161
795
3558
2520
8752
6296
218
2207
7846
7422
5765
9311
1896
3162
7315
1663
3823
983
8921
6177
5478
2707
1546
6586
6726
4251
376
1419
4758
8612
111
4741
2136
5374
7619
1183
2768
6735
3723
9560
8790
1653
1523
5396
238
2078
3782
1707
3384
3445
41
1873
9558
5557
9609
5862
5252
6378
600
3622
1223
2344
7259
2481
4770
7716
2855
1345
449
8238
7458
8928
9827
7197
6941
3146
6011
5459
5141
3308
6071
4709
3178
8447
3250
9215
2056
6408
6265
3332
5589
4271
237
4504
7865
285
8311
6023
9346
1258
2180
5819
7799
5853
7640
8798
6879
4584
1403
2046
3146
3750
5100
5503
3533
6929
4722
4479
1248
388
4031
697
8201
4419
3288
8883
2475
2651
7459
5713
7753
5943
4533
8991
5417
7881
193
9549
8982
854
4861
8958
9278
957
7933
7439
7629
7281
8177
5505
1635
6466
3900
2589
9424
1733
6455
8273
1514
1083
8359
1360
7975
4451
7084
8948
5462
9201
4971
8740
701
8352
3694
304
817
1645
3887
3909
9326
1758
6860
9782
3066
3389
3243
1353
1693
9580
2767
9748
610
6007
5593
7851
3237
8194
2308
9422
4972
697
840
4532
1653
3791
8714
6088
9399
9569
1475
7245
7881
5544
2586
2273
3132
6594
1972
5703
7104
1979
395
8741
7015
4581
731
9097
8650
5673
7326
2852
8557
4441
6954
8530
2389
1321
4484
8321
2252
819
3068
39
1761
952
272
3799
4811
4069
4175
9708
8333
6619
7920
3735
57
4358
9608
9312
1942
1426
3881
9055
1723
2448
4144
6156
4921
1261
3681
3399
8684
9169
4038
1012
5663
713
3482
9400
8094
1486
2869
3061
1090
3790
7506
1103
1248
6414
1508
4807
4386
7983
1894
1226
1311
7596
7250
8551
1806
8412
2745
8391
5499
3531
8693
6930
7742
5575
7811
975
3612
381
3516
4044
1276
4147
4797
216
8211
529
9195
2046
6517
5960
9001
6942
5477
6831
3104
7252
3643
1468
5183
6213
748
207
8089
6062
7554
9126
9649
6017
3591
4337
490
1443
5609
2455
5776
5756
4056
9218
4414
4328
6128
6247
4749
7755
2249
685
9406
7089
5732
5028
4732
1280
5785
1439
8851
8701
4668
5843
2449
8469
5173
1099
5002
1004
5408
9328
9535
9375
3413
823
6839
4231
7122
2070
2895
1079
5815
8456
4348
2508
1954
4832
1956
9281
3680
5788
4605
1913
615
1237
3478
7719
2728
1211
2816
565
2682
3020
9732
1418
1672
6226
3764
4894
5903
4004
3475
9041
2290
2062
3271
2979
3981
4457
9090
1451
9107
3758
4985
2495
9620
280
9362
9196
4986
305
4660
3552
2754
6718
6125
7096
315
6627
4632
9413
7052
1326
6376
2647
5080
3968
2626
7200
308
6486
779
6907
7320
4013
3666
1728
1402
3617
6006
108
2560
3145
2526
8799
5148
5355
3435
9470
9107
5824
4907
236
9196
9302
1639
3141
2244
4130
165
3685
8303
9215
955
8144
288
2564
9200
3102
657
7135
9357
2438
4682
7318
1931
348
6421
4670
1617
7588
4872
4563
5317
8423
4488
7410
1536
3528
4789
6792
6580
3660
1686
6712
5361
2207
1539
9149
5623
9227
6118
1118
2176
7719
6600
2229
9362
9329
7533
4031
788
1601
8138
1189
4818
658
419
1742
79
5268
4904
5365
5187
3532
6926
6794
8394
6959
8781
4466
3648
853
7724
2338
3239
3091
3038
4370
6350
5357
4318
1398
1604
5637
4341
7914
1423
9849
3097
440
9115
6764
7918
2455
1066
9240
2607
6496
1837
5649
682
4504
853
1930
3104
5196
2229
5528
3579
1680
493
7767
6718
5876
9236
6177
5593
6426
6646
9232
3143
7118
7360
4984
9601
2036
7790
2302
9816
3990
9491
9424
4198
7482
8572
7404
1457
471
8079
4057
1341
3805
6318
5605
13
1280
6801
1657
1082
388
8797
9747
5960
3931
828
6246
2398
9128
3634
3725
1649
9821
4956
5401
8580
6790
612
9297
2395
5439
53
5884
3919
3819
9134
4066
3238
7226
7687
3124
5020
1914
6063
114
2029
4779
8297
3211
1381
1029
4509
3124
5523
4056
2156
1175
4462
226
537
1460
7315
2053
946
9049
1940
7471
4239
3705
8661
3550
3085
6607
2622
6602
8756
5757
3541
8831
9227
6781
4566
6881
6589
3049
845
2411
2418
8819
7063
7731
2047
5512
1825
767
6115
5345
9753
2417
7607
3604
1699
9757
2456
2433
6938
9225
8720
6709
3124
8622
6899
3104
4189
9257
6346
367
5919
8534
2259
4157
3834
5484
2506
623
743
7207
9075
8348
9507
1848
6132
1546
1583
3446
9096
335
2654
6786
8884
7976
5331
2172
8729
4319
5533
9201
5026
3522
9050
5646
2778
620
7392
4147
5687
3240
6191
789
60
7297
980
9590
9324
8295
8566
5281
2876
6340
1947
5171
9654
7735
990
6938
6473
3515
964
1289
1210
4786
2981
8378
6109
2764
9129
9258
4388
771
9721
9344
3176
1212
73
425
526
5687
7739
691
3605
7837
2397
326
7216
858
3403
5915
2842
4292
9477
9653
9627
5715
385
4282
2421
6402
5094
2826
1295
5039
8980
1943
4203
9350
374
9829
8107
9074
94
7791
675
2605
1225
5456
8425
3218
680
1655
2145
7872
783
7880
7696
7001
7169
1995
7781
8958
4273
4871
2095
6146
7012
7097
6195
6383
6335
5736
9545
4700
6688
1761
6805
4789
6156
6888
5461
2269
9349
7662
5514
4154
255
4167
6337
8512
4625
2087
5603
3839
1283
8257
4552
9507
8618
439
4829
3326
3387
8933
8225
2481
8324
5762
7060
1465
4613
4796
100
7292
625
9661
6156
236
5346
2410
9662
3904
8314
4364
2156
582
5111
4991
8547
4666
541
327
6276
8524
6684
127
6920
2425
3995
1704
8800
8964
3175
9326
1638
2156
5060
9299
3092
4186
1142
6056
2119
1701
8204
582
9423
7638
9107
4866
1154
5043
3561
292
3650
5604
6741
6031
6673
2940
208
4125
9468
6874
4454
4919
7204
2367
9311
532
9685
5197
148
9203
8284
911
8705
1823
5161
1496
742
8582
5711
6750
7431
4378
5840
5847
2373
8705
976
5102
4191
4405
9137
9448
914
1791
9652
9423
4549
9320
2973
8629
1472
2197
9642
7006
6879
4249
1834
4555
1955
7423
8968
3255
5643
6014
5210
4892
2538
5396
5205
2495
1917
2050
6927
7670
1254
4514
6380
4458
2091
8632
5229
4249
974
3791
3628
2438
7798
4128
5193
6664
780
9416
4379
2030
8063
8951
4683
3540
8058
8906
2468
4203
5581
4930
3337
7639
1147
8007
6139
8606
8832
2239
1912
1605
4197
6357
1386
8607
9445
2190
6895
5866
7511
5555
99
9499
3258
409
6272
122
8118
4685
4190
7970
5832
1228
3332
427
4606
5787
4941
4577
5168
5925
4080
6070
9731
986
8376
7205
7440
7973
4800
7690
9178
7166
2560
1690
1905
4537
3264
5739
3098
994
4405
1285
9733
4637
9055
5091
3597
4714
1059
3237
2236
4919
3374
2856
1771
3203
3910
6945
3972
7476
8007
3223
9575
6010
6587
1823
2574
525
6452
4466
5578
5616
8895
5406
6636
9267
1651
1467
2469
8520
23
981
3631
112
8873
618
8732
1533
3928
433
92
4919
5785
4330
159
7178
2306
2122
7956
9187
3212
8888
7930
3453
5539
1802
4702
9132
9664
9638
1218
6645
5983
9644
1185
5556
2651
713
8676
2757
6171
1450
2081
5255
5342
4915
8434
1000
119
5267
1108
4747
4556
7265
8746
9167
5933
3570
1150
9068
8186
8833
3844
7292
9341
4416
4595
3724
3209
7972
6393
8842
5749
7181
718
7579
7349
9185
3408
4306
7017
4635
541
6739
1279
8272
4662
4043
573
4032
597
2221
5432
2395
639
6178
4963
9856
4717
2786
6526
9552
188
1802
7400
6036
8695
7723
3395
4492
5073
7549
3488
5296
8088
4009
6293
5305
6806
8845
4884
1305
1794
8601
5927
8541
9775
3535
2488
6512
2082
7588
4204
8600
1405
2911
6095
5596
7145
695
3368
6401
6284
4717
5180
2931
5440
6072
9036
2953
4113
9652
9548
9694
626
711
5738
4758
4084
7299
9245
6875
6734
5090
6816
6277
9824
1811
1390
5158
4835
3352
63
8892
67
2153
8617
4692
1221
2017
9042
6508
2817
8514
8387
3781
3331
3935
4610
4915
9633
445
7656
3619
7665
350
2281
346
5209
2846
7465
4676
5885
9089
9585
3352
4868
9195
4800
7980
8416
8982
5076
4029
96
861
4188
5328
6552
498
5479
4251
8368
7602
4902
3659
8000
3790
6980
4580
3780
2846
1145
7620
2604
3262
9530
4746
9093
9497
1595
8329
2712
5017
6649
8397
9551
6934
2747
6645
5666
6383
7128
7183
4335
6894
6404
6959
7811
9233
357
6451
8481
817
8281
4496
7868
7576
2261
6741
5304
5304
9592
4193
4962
3794
498
4231
3963
389
3988
5410
9395
9338
9775
5311
4823
3201
13
2739
9801
6144
7839
4198
3855
8716
7548
7798
1316
3682
3763
3310
6767
3427
7162
4094
9361
3703
1455
660
994
5197
8027
693
2027
8436
8561
2374
308
6271
3857
4391
7890
4153
615
9517
1884
159
3840
5480
3236
492
7436
3540
9332
2900
7025
3345
3917
6950
2691
6427
605
3835
6073
640
2433
1667
2233
4364
4367
9643
748
2603
454
8270
2289
2501
9474
8106
5560
9336
1912
7438
9123
5652
5876
7849
581
3311
1875
8778
6783
1061
6248
2251
2549
7045
6921
2178
7785
2194
4254
954
9298
7683
9166
3995
1936
7114
3439
2728
2704
1721
9853
8177
8873
1417
8087
6643
5394
690
7667
380
2007
7189
6231
6373
2930
5162
948
1798
6186
52
6122
708
508
3671
594
2766
2177
1195
4605
7587
5413
3178
3063
8456
4313
4632
1289
1802
901
6052
6063
9170
1522
4000
1809
21
842
6442
6141
3853
5379
1505
6126
4981
5452
6739
4181
3949
8708
4372
8533
4657
7405
3613
9509
5547
3641
4512
3565
6178
425
2208
7021
3790
9721
7889
1732
190
1076
1344
7653
5649
1337
798
4488
8736
8228
7587
6135
7883
2912
6326
9679
9839
6910
2249
4003
9739
8850
6338
2201
5794
826
2645
5265
7532
4548
4249
4946
1842
4221
490
335
9609
7096
6006
5199
1499
9679
5883
4157
8668
6218
9765
9151
512
2967
2721
4558
5459
6339
1653
1896
2047
4204
3945
7210
5682
8778
9251
7269
9323
5107
9035
3983
818
4191
6573
4154
1948
1581
2351
3446
7841
1602
1300
9105
9537
6940
9095
8769
7339
802
6590
329
6073
151
7479
4456
5118
8460
108
2499
5405
2764
7667
5434
2066
923
1693
5815
6171
7323
2967
1298
8377
1363
2228
5361
1687
4321
6590
6936
5419
4360
8241
5750
8648
6027
6498
2512
3151
8558
5640
4057
4710
9098
3674
3135
5964
4352
855
2284
3366
1075
6212
3374
1200
2822
4328
3715
4664
2090
7026
5216
8272
556
3045
3417
7871
9357
7700
4753
7181
7
7214
5944
8144
2451
9155
6958
4132
5153
8158
6922
3195
730
4216
4933
9111
5583
8729
8926
8660
2476
6519
5996
1865
3872
7478
5895
8211
1267
6528
5159
8869
7796
8662
6042
1696
9114
7584
8868
9683
8423
3128
3462
632
4657
1776
8240
861
1421
282
348
8005
3705
281
7569
3502
6561
154
4552
6661
2443
3374
4847
9570
5789
9482
9840
1894
9152
6920
1605
2588
9514
9133
8218
6983
2887
2804
6126
94
4233
4092
6023
6757
3791
5428
6290
732
7114
9662
1468
4778
988
3693
4816
5060
8789
6583
8946
1158
363
5771
2435
4735
4765
8626
5983
5696
2724
3133
9336
6466
4499
9131
8053
2813
7413
2852
8175
4454
3721
3864
1711
4869
5158
6143
8003
612
6537
7195
2159
2103
5924
4881
7797
9444
2393
7510
3781
8565
5832
3497
6873
2574
5034
146
3204
9745
5199
8265
2949
9100
1539
6184
7737
5444
3969
9575
2179
7920
5788
1890
1065
578
8300
5314
1704
6920
4481
4314
4027
8776
3184
6770
1497
3281
7263
1577
5037
1888
2425
6127
7284
6066
2895
3949
1354
9209
6078
4477
7281
523
820
3883
1683
4775
5962
2070
2322
8162
1835
9290
6219
1942
6786
9366
4365
75
1089
4177
8708
9204
6216
5730
6102
8045
7846
960
5038
4786
2219
7625
352
2998
2118
7831
1588
8302
3398
6817
1699
7514
2073
4317
620
4959
3516
5887
7272
8772
2237
4025
2765
3167
754
202
7149
2464
8732
1196
248
6827
7710
5279
2920
7042
9185
1597
5062
7539
3820
4512
6853
3429
375
6071
6621
1823
3237
635
5762
4041
8351
1343
4708
1914
4409
3595
4077
6355
172
2750
3978
846
1770
403
5358
3260
6115
3594
1243
7029
4776
8153
7055
4322
6034
5609
7484
9633
220
8616
436
6573
7331
2044
3577
4801
124
4193
8725
1626
8147
5949
5278
9025
6067
3833
6161
1160
3333
6385
7408
9537
2287
7393
5986
7941
5370
1355
5647
6706
1660
808
282
6124
2432
2390
2340
8175
6287
8148
589
6434
8585
8410
5953
2193
925
8901
1901
5916
1854
2775
8757
3403
6551
8400
3264
7514
7055
4260
6387
1054
5478
5945
902
607
3707
8205
3904
6538
8026
3969
10
8566
8301
5017
4283
4178
2856
5031
5011
5906
6544
6764
1570
5235
3582
9262
4249
5758
5868
577
3128
2201
5659
1053
8707
7897
1995
7012
579
4700
134
4494
579
1174
6781
6792
6877
3344
6953
5563
7743
8725
1340
1611
7123
5472
271
7488
2500
2788
3914
4525
7034
8167
1540
1518
1742
8738
5013
7304
3507
978
3969
2248
8989
9295
8270
6598
7905
330
1863
2054
3999
8501
8885
4068
440
6344
1486
9220
9057
2348
8832
4320
9373
8147
7284
3103
9089
9071
1465
8024
8185
5003
9249
8103
3855
144
4191
1505
9307
1609
7981
630
1418
4539
7689
5688
8197
6765
7407
9007
3277
3591
5959
2596
8341
9166
4971
2787
2620
3278
3395
7393
6970
9829
6481
1532
8401
9653
494
4877
8245
4785
1485
508
7345
7570
7953
9523
9562
7767
7279
7286
5931
8788
5487
1863
4062
736
1237
3324
225
85
1610
510
7280
3282
8537
4801
4892
983
3823
6075
4742
2170
8287
36
6126
8598
612
8288
2014
7752
5508
7083
1999
3891
1568
1453
5308
7741
1846
6673
6363
4956
6227
1808
1040
2039
4653
2584
4151
1276
7959
1723
6754
4628
5545
8691
3061
3179
9311
5043
7087
3178
1304
1524
5310
1344
4033
1507
9026
7216
18
2670
7955
3733
1477
5790
762
8416
3817
2383
7919
8046
4506
4640
2552
2430
9384
2491
4680
2646
6342
2669
3251
4627
2446
6591
6027
1352
7007
9768
8926
5218
414
643
2567
790
9393
3393
1321
6020
6549
132
363
8565
420
9595
6570
4349
801
249
7598
5146
1124
2838
9227
3173
5894
1777
7247
5998
2341
6129
9426
1343
1152
540
2459
9114
4559
2212
8379
616
30
5937
4679
5523
9152
9179
4134
7477
6543
3166
8968
3983
6550
5609
2856
2624
288
1887
8693
7542
8228
8581
8911
7259
8646
9252
1293
938
6758
4212
8175
7533
3243
3388
4804
4822
2315
5945
3281
2266
8322
5956
1772
1634
984
6875
5476
6706
3248
9392
8850
1180
1616
2353
1054
9666
3451
5853
6068
1680
9007
1333
8004
3152
4580
2759
6921
3341
3773
7432
5775
4051
5210
3545
4414
250
134
2387
8156
6521
6879
535
8124
5001
7416
1225
6981
8179
9739
2978
2109
4146
566
6266
7616
3276
9677
448
3275
7265
7269
8057
3940
6109
8791
9071
3273
5775
9103
9814
3808
3634
3796
3682
274
1172
8005
6240
777
8099
2103
7823
3018
8564
6850
6567
3633
9348
9502
937
1529
3336
5848
8555
9332
2673
9385
8168
7265
4053
3783
9235
1439
8481
2622
4351
261
3242
6535
2630
5654
3994
2333
7424
8135
7616
9192
9062
7817
287
5475
3692
7383
3088
4817
183
6239
3688
3209
5814
862
4481
2332
863
3623
4186
2847
8080
8696
4633
470
6669
8016
3928
2619
853
1471
7388
6104
1756
8418
4478
4005
9568
414
8037
5026
3808
3657
4661
8537
795
3298
8598
2996
5553
1503
9852
4870
640
592
9183
6297
4022
6194
9832
7311
4611
1438
9579
9053
8435
2285
3421
227
9025
9741
2125
9121
4875
2966
3954
3115
1645
3662
8572
8587
1026
6074
6624
4360
43
8475
2031
4920
4675
9430
7156
3747
2892
8772
8721
2128
2659
1890
9371
5408
7194
8421
3638
2158
8108
749
5352
5942
4414
1000
9224
9487
2114
5422
874
5059
5308
44
6590
8901
2788
9590
6870
1282
9689
8695
563
5621
931
5241
7802
4994
8781
441
4071
5090
9593
1284
715
6058
9069
7843
464
550
7696
7389
5282
3661
5053
6288
4775
8686
1436
4716
1134
9105
326
7056
820
7283
1380
7490
3636
349
3817
1285
1281
9229
4501
6201
31
3284
561
7996
7806
9288
6960
8940
9739
8216
701
3530
6510
2443
260
9198
306
6362
4723
5249
9516
7823
5253
1428
1922
1915
1990
4042
718
1523
4950
3366
6756
7258
3944
4750
9774
6018
8459
9728
1767
8894
7060
63
6251
9174
1671
310
6760
5983
6305
5065
7200
6073
8071
557
7575
1789
0
9543
7252
1371
2529
8365
9777
6958
909
8261
6439
7988
6593
4491
7524
7222
3730
7874
1235
6605
8358
2842
8058
1022
7862
2213
8647
5620
9801
4123
3633
940
5559
4993
8695
914
2373
3039
4775
6375
7928
2054
5352
4526
2257
6962
4259
2905
7739
251
4608
7744
4540
8515
4329
805
9735
2172
2329
1609
6340
2072
4294
3595
9507
803
8613
2619
5926
4448
3818
497
8341
8693
8916
5495
9027
7933
7075
8353
9463
4423
7197
212
982
5705
9744
1735
9433
3931
110
2439
6299
7262
6403
3082
2464
1426
360
7395
417
4736
8773
8784
3027
2364
6228
5796
1609
4267
6822
3455
7670
1537
3763
7949
3540
6928
1838
6076
1114
3080
6919
6688
6535
8086
7052
4453
4446
8848
8911
6034
7722
9471
3134
3680
7940
109
2242
5345
7576
6150
6262
8452
1816
2770
332
4651
3045
6184
5526
489
9815
8058
3239
6718
3440
2289
6573
312
9185
5948
2654
4691
1308
6177
2219
5081
8287
5784
2693
7237
366
993
5508
831
7565
2985
247
7089
6449
1424
2629
6748
1529
2686
5934
389
5853
8093
9229
5395
9241
891
6858
3207
6116
7449
5721
6048
0
6140
5101
6869
4715
1195
9104
4264
5669
2062
7748
3284
2949
814
1023
6463
1330
4187
1468
4510
226
5655
7049
283
8278
6136
7150
9250
9145
6333
7572
1872
4135
5329
5171
6888
8435
2706
897
5283
9232
1186
6848
6032
353
7620
2360
5801
9080
4290
7354
4981
2112
9546
5889
635
9248
2572
9414
71
7120
9719
3175
4573
7220
7100
7606
4575
880
7712
6741
308
2926
1356
8810
1636
5692
6372
1831
9618
3793
6417
3747
3842
5375
8964
8037
4191
6479
9329
1599
2408
2900
289
1820
743
8539
8680
5870
7302
3309
9818
1430
844
2243
2269
6966
3681
638
5928
4225
7418
619
2735
5975
4800
2042
1180
8660
2943
8795
8158
8743
4054
6158
2613
1645
9102
1572
1054
7592
701
9600
8408
2073
7229
9052
4016
1924
1410
7412
4341
4794
9597
16
961
795
2156
9534
122
9012
3635
961
6632
5252
5556
2522
9240
3406
8210
3671
9773
7402
1227
5361
718
3910
913
7251
8097
9553
9113
9070
1368
8382
496
6878
8974
6242
2309
8982
7633
7015
3187
9347
4034
6878
3956
1231
8694
7709
8100
3153
4257
6614
1081
9761
1904
1116
7319
7725
1397
124
5479
915
5227
4696
7177
3856
155
4476
1016
6999
9162
9242
7256
8978
6129
4723
9394
5401
2827
5173
4170
7960
3007
52
7382
7939
5030
8416
4387
7598
1611
6381
8183
8788
5291
3350
3890
4625
5347
8082
7721
1520
2342
9220
5504
7258
3572
4849
9316
4025
1943
6385
6582
5325
2038
9122
8511
1308
8628
1710
7921
1171
2128
6797
7059
7064
8635
7570
4714
7291
2238
9218
4860
3270
8767
8639
2717
7460
2639
2075
3308
8935
6890
9070
5843
6856
7647
3762
4528
6860
4954
6354
9490
3026
4959
1506
84
5960
8769
4205
2941
9793
4425
6510
8632
4180
8558
1901
6026
3838
1071
2474
5870
3254
6116
4444
4033
1046
9525
6871
4793
1054
1603
2280
7024
4041
6001
6106
6277
8967
7308
858
7519
895
8839
6506
2145
7255
6479
7155
2535
374
547
5741
4340
394
3764
6086
8365
7485
4868
7686
5557
9318
1577
9327
5833
3354
6800
7909
8551
1554
6075
1631
2264
5565
189
1292
6625
4582
4694
3761
1980
4822
3720
1312
8288
1240
8208
277
4481
9518
5717
4765
8408
1494
5054
7348
8944
9106
4199
6486
5106
777
8676
8482
4521
3894
7386
7178
8710
9774
2063
6162
3746
4108
4401
4431
5970
5560
6354
4014
6379
6534
4511
5818
5984
3099
2639
2907
7441
1586
7667
1584
2418
5727
9825
1832
4629
8240
4238
2895
9541
5534
3306
724
4563
4362
1150
9151
5235
5117
8044
9814
7185
1007
6987
6993
9587
3743
8384
9036
4936
4832
6595
6770
3682
2472
576
9385
7359
2850
8838
8940
1337
3623
7790
6129
1241
4658
9248
9074
4775
2624
1972
4460
2525
762
4164
2060
8214
7838
7650
8598
1861
3526
1864
573
259
2645
3123
3445
5709
3464
6301
9659
5411
6053
8649
9586
2843
118
1502
615
6822
2532
6055
451
5730
56
8694
2897
7136
3619
463
715
1
8367
8888
6603
6816
3709
7683
4775
343
3158
5220
1850
4655
4431
5269
5682
7721
9116
569
2903
223
2718
9005
7986
5805
227
3702
4095
2522
7703
7824
6305
9263
4390
8266
9123
1930
7229
2284
5552
231
3948
1114
2769
2904
9313
9240
9647
3895
6894
3296
2248
3031
2673
8134
2794
8820
9177
5879
8171
3788
6573
7080
9525
8514
8933
7131
9697
3509
5273
7262
7412
386
4850
4440
6574
2075
7456
5104
1007
2710
5174
4895
7213
5718
6170
2162
9711
2940
4508
2690
2379
2305
7818
7729
2050
6664
423
4642
8642
6196
6748
841
1407
6369
3700
6964
9247
6980
1356
4958
4047
3656
8467
3635
2698
4215
6816
3025
7472
2842
4138
2178
8373
7102
7422
9830
4482
9100
1947
3184
6973
128
4083
4792
4492
4059
7710
3437
9131
5286
3288
7826
8731
8159
5665
7951
152
8887
644
2226
943
4325
8390
5587
3989
3623
628
3190
7887
6687
2631
3188
5622
9565
5381
4405
2656
2208
3256
5552
4682
1894
8405
272
7646
390
7151
7800
5309
6477
1174
3703
314
9789
3235
8478
4825
7407
1772
6791
5558
2931
2554
1834
2450
2238
9171
5371
7815
6360
443
7983
6093
6948
9418
6712
2058
4377
5747
8781
7359
1818
4417
4811
6542
7838
7735
2938
1219
3043
6107
1211
9295
1570
2612
4499
555
7108
8168
8953
2957
7583
5665
2886
4679
5207
1256
2886
7445
876
4684
4958
9046
866
3409
6173
4142
4029
7525
4256
8550
4775
9296
6779
3369
5722
4964
7518
8563
5427
7497
4104
3302
5205
9791
6360
5444
8428
4742
3770
4992
5699
9450
9224
5141
2825
8267
426
1316
6476
3908
9667
7154
8206
2656
4827
741
3605
5936
2367
5750
8106
4097
6637
9149
4923
557
5669
3513
7243
177
3595
3270
9595
5401
9654
4240
4270
5063
5966
9602
1525
2794
9356
8412
5557
1579
8244
2148
5118
8171
4631
4758
6186
8977
9130
4667
6840
5668
7750
2229
9027
9312
2763
8221
6526
4857
5973
8191
4290
5388
2502
3037
942
9718
2126
1635
5243
7416
540
67
5370
2677
5650
8949
9603
1668
596
1956
2495
698
5634
5300
8289
7752
8620
3535
5862
1682
6220
6918
6536
5294
7364
8217
2085
4152
5817
9199
2378
8372
2247
1501
2515
2550
7655
102
8356
8195
8183
624
3055
1888
3741
8922
7640
4872
1376
9341
4782
7456
2084
4070
7801
1170
5381
6242
9593
6852
4566
9177
5871
4842
5235
3444
502
8338
8782
482
9734
3841
979
3095
1637
9843
8736
7848
9674
5253
6093
5639
3754
6779
1843
1746
6069
4328
7400
4411
4403
3538
9128
2075
6005
3091
2983
1666
9356
6557
7183
9284
1513
2763
948
6240
9094
1865
7847
5009
8792
7663
1640
7093
6582
8659
7172
5595
8527
8239
2411
4505
2677
7473
9379
7816
6670
2006
1411
1481
3628
695
2067
8216
3916
3037
5473
1232
3751
3635
6120
3121
4577
9101
705
2710
4959
2540
3472
7651
2144
6492
9193
8004
513
6767
6860
3193
9727
1528
3174
7898
7762
7540
4438
3854
1692
7842
6788
1403
4942
214
193
5668
1667
2323
380
3267
1519
554
1942
6748
3084
3566
3173
5440
489
5307
903
5308
244
5944
7321
6112
394
8308
231
7510
9156
6506
8100
5728
1361
632
1594
2251
1599
3970
4021
2324
4104
3537
8811
4553
7279
294
2437
7917
5259
5925
7290
8527
9644
4191
1677
7864
7108
1348
8314
4229
5358
7198
1408
5409
7371
3223
4766
2021
7897
734
1360
3893
9681
8005
9121
6619
6404
2315
9811
4794
4702
9373
1519
8257
12
8216
4064
9267
9149
974
9159
4946
9819
34
7601
3300
4764
3230
4033
3510
1608
974
5860
5982
9506
8894
627
1905
767
7850
8033
7016
927
1388
5894
5227
8415
8592
1831
9722
7567
3879
2591
4266
8686
8889
9816
3846
6664
9020
2200
8375
9573
9006
8043
1490
5319
6068
1742
8855
2758
7415
5209
323
4272
7248
9638
7855
5578
6854
7446
2808
3120
5499
8070
9156
4569
5204
3467
1967
1780
7211
3242
1707
5095
5644
6367
4598
6741
7784
5645
5981
4779
4677
2932
2770
4422
1478
1475
1820
4849
9027
2533
5544
5667
4271
1023
9856
8517
9090
6455
8622
6174
181
8148
9418
4579
497
5038
5766
9066
3112
6569
3844
9014
3396
1850
3015
4242
2306
8670
5854
260
4887
9032
9729
548
1913
3866
6618
6593
6572
2004
3333
7632
2960
4709
7177
7025
6428
5394
929
6060
4377
4677
7823
1961
417
1887
1252
7211
5580
9050
9454
6386
9393
2939
2444
8851
8938
2364
2414
9463
7213
1818
4042
8277
6883
3477
5746
5344
1646
684
9065
1810
6408
4237
8138
3626
464
3923
3382
3793
8284
6520
2623
5719
5617
5065
6617
9497
9131
3376
7405
5912
794
3624
4778
1473
8834
8377
1775
4717
710
3269
1556
3051
115
6074
7369
4585
988
9561
8773
7160
2075
5235
3613
8757
2716
484
4011
4512
2306
2514
9374
7455
9706
2860
9148
5292
2032
2248
3408
7748
669
7375
851
3542
8968
6611
7857
7884
8681
6811
9352
4200
99
1615
1080
1282
6450
8851
6464
8862
7236
2795
6418
2094
4994
3761
8862
9351
5071
5087
2011
6661
1306
1162
8602
9844
6481
2845
2525
3457
7512
4803
97
4722
4853
7833
1641
2715
6606
8957
3118
1218
2430
1166
9635
9030
4009
9154
574
1968
6178
2161
6026
7875
4943
8172
9124
9270
6751
7347
2081
2136
7725
3935
1578
1308
5286
360
5739
9271
3501
4303
3766
2308
5746
6908
2459
7126
6168
6220
8709
1821
8329
2330
7492
3270
9676
8808
3579
3589
5831
1965
8730
9790
5135
4129
9800
8112
2484
7857
4210
79
7906
269
6892
4692
286
2364
6969
2103
5303
9832
2743
6333
5272
6143
2626
8044
1906
1454
2937
568
6348
7632
4887
8763
3459
1263
3223
3417
6645
1763
6987
359
2825
8755
6907
994
4800
531
6458
7393
257
1472
8991
1336
8503
9707
198
1775
5017
861
5215
6899
697
5915
7920
7631
272
5431
162
1035
7499
3322
4353
8570
8072
7762
476
3987
7850
4343
8001
3712
6638
6405
3175
8174
9190
5291
2702
476
9500
1807
1704
3310
2212
5663
2909
2041
6423
3306
2182
5754
3572
923
376
3325
5840
5067
8139
353
8235
223
8330
3671
8251
7263
9593
699
2697
7242
1458
482
4491
2834
6910
8009
5915
235
1783
2678
5915
3284
107
1267
3242
7237
6088
1012
9584
5305
1056
7746
9562
1217
8589
7558
3652
3954
5566
596
1392
6808
4856
1182
8015
7511
4391
8168
1752
2595
2577
7926
197
5001
8697
820
3971
6749
3398
7494
302
2711
9019
5169
9193
8329
8427
9035
5088
1114
3962
3751
1595
1578
8550
6260
5936
1667
8492
1708
7470
4012
8299
5408
6952
4588
9028
5151
5929
9466
965
344
2690
6045
8247
3710
2267
671
3111
9124
2731
6087
1936
5482
8426
6559
1159
6367
461
8984
3133
5123
7728
5389
6270
1741
2277
9599
799
5071
5582
8321
8069
562
6605
4622
4349
8670
1479
8440
5245
8853
7090
6728
9161
1860
7777
3032
4699
5296
3951
9623
8729
5783
6832
2979
6469
1088
4104
6753
595
9060
3952
7944
9319
9455
590
1784
5909
7155
5307
8847
9157
7212
8009
7251
8901
4593
4392
3044
7859
4283
65
7276
7514
6659
8001
6689
6744
5050
4580
3741
7996
5998
9333
4186
5845
5564
2062
9193
4111
799
506
8705
800
5083
7215
3854
3344
1237
55
4628
7050
9035
6323
2722
9822
7455
1247
2315
1939
2447
4717
1157
558
2661
5976
7072
5198
1561
8777
3094
5383
7624
7624
9721
9517
3446
1669
1063
7330
365
7115
6479
1256
2965
8847
5711
1942
3924
4318
7914
1607
5979
8244
6051
472
8602
3581
1812
6315
5681
9554
2599
8668
8188
7661
3744
513
7559
6842
4308
2786
6379
6286
4941
4726
2304
8367
6078
4754
72
806
905
7071
7513
5229
7584
6512
4207
5255
1350
8642
7269
2181
9544
8387
1754
5113
8017
8770
4484
8695
5706
9317
409
4641
7574
7039
9598
8035
6946
7049
7925
343
2649
8587
5062
1263
3432
5264
3314
9356
3937
4673
857
9031
8373
5816
2706
5780
2800
582
8149
2636
1801
1675
6818
4261
6924
4491
6657
9272
4465
6664
2666
7012
2385
1612
1261
9222
6947
2433
9798
3911
6857
8887
8
6484
5666
4467
9553
5162
6274
8356
2912
19
9593
3140
1154
4432
3428
8298
7229
2745
6325
5171
3971
7811
2646
4040
9747
3075
7669
6442
9559
7168
6891
4521
4535
3539
8395
6871
1117
8747
9062
5873
2751
6159
6210
5603
1721
4907
7064
705
5267
1007
1587
9534
3208
2595
1574
3817
9740
2942
2982
3717
1405
8547
7170
9661
7373
4521
5960
593
6308
6571
4217
503
5534
8290
3116
6266
4835
1615
2827
2375
5471
817
1115
4661
5041
5509
3212
887
839
8054
7474
1604
7149
6668
7795
358
5784
9069
2852
5401
2085
4158
3214
9744
3158
2876
2735
6231
2857
9430
5790
9404
5153
7304
2581
6571
3182
5443
8298
3268
4838
616
169
6796
493
4695
2840
4004
661
7664
3417
5839
7360
2368
3681
4176
9707
6138
2658
2167
4261
1506
9788
524
9672
5284
5901
5333
7352
5842
1672
2138
3562
2835
7086
1180
7703
7596
1164
448
175
7421
917
3523
9269
7621
2163
9025
2817
4260
1187
217
101
7873
5962
5764
8457
3468
155
5951
6038
2762
7146
5917
4794
1372
511
5722
5302
7491
8929
6793
9724
6965
8634
100
6360
889
1631
9769
1975
7389
5188
7295
9136
637
2791
3567
9543
1345
939
8321
2567
9119
9737
4655
5828
8931
8430
8960
6890
4532
8139
579
6505
8587
7582
739
4858
7140
5470
7071
4306
9105
3290
2203
9598
6404
4679
4569
2736
8766
41
2819
9546
7929
7372
2238
2792
3262
8720
3855
7939
4819
2374
8119
7802
6220
1246
8036
1413
1330
2035
5728
5742
2170
3534
9018
8192
1136
4143
9099
545
8523
9620
2960
5892
2824
1824
8325
2632
4968
5709
5783
5422
4088
5791
8051
5426
6524
966
7467
5751
4048
3054
878
4282
9849
5582
1668
1548
9667
9178
9852
4773
9745
5414
8393
8218
1001
4968
6524
9438
3127
9806
3780
8229
6267
6550
8129
5533
9045
3322
8703
2423
3844
4776
4435
6323
3660
799
6524
5304
7967
7601
3352
374
7360
3285
2714
5613
4106
6833
1820
746
1795
7533
4837
6490
7624
5125
6241
5993
3218
2138
8994
8637
4371
4012
5583
2368
4307
3237
1984
1174
5119
2567
268
2093
9083
3435
8007
5915
7596
1854
3000
3978
1881
8534
6220
7576
6519
2699
7533
7128
7937
554
758
5617
6530
7143
3916
3182
2857
624
374
3200
3939
5380
2090
2449
5531
5950
1359
3370
1016
215
6056
7464
1249
4839
8091
6655
2369
633
8695
51
7410
805
4479
4420
4711
4220
1008
8729
8939
1111
1695
301
2818
4917
9232
6703
4551
7703
2983
7873
8112
4485
5956
4640
7294
8743
1674
1371
3012
5157
9350
8089
5491
33
7775
6056
2163
4916
3798
6917
4337
9424
314
4105
2594
2201
8786
5175
7948
3818
767
824
7769
9123
5949
6236
5148
6394
5339
9492
3225
7135
5699
9587
6449
6540
3408
455
4451
1322
7782
1941
6269
8238
3921
4321
2958
7700
8190
7593
8950
7675
2359
4259
4428
9358
8782
70
7376
4027
3020
122
8097
1249
8292
3597
2338
8288
4292
612
8277
4838
1889
2221
2458
6404
8482
1587
8662
1139
4494
8376
3472
5870
5407
8623
8899
969
6647
3454
4770
7240
3166
3114
3330
1790
7383
8626
3326
2331
7744
3083
8443
7529
798
1479
7978
4264
6970
7033
6602
3582
117
1244
618
9398
902
5746
5088
1088
2341
5834
3865
2383
9285
8495
7469
3875
4096
7080
1560
2634
1127
3388
3007
9494
1405
9197
321
6080
4585
394
7818
3708
2912
8275
2309
953
5985
5210
1145
1344
8831
5812
3806
3349
5397
8097
243
7922
7697
8900
8185
7981
5472
2143
8515
2537
8555
4152
600
9321
6198
4526
2405
1453
8337
2767
3056
4582
3920
9662
5584
9848
6389
5652
5996
8162
4565
5872
4826
2987
3076
2941
2376
5496
9146
6349
369
2515
4039
4559
8603
1027
1035
3005
2505
406
1338
3264
2940
5600
1811
2042
276
9845
6312
971
9556
2430
299
2192
5596
5732
4884
2585
5214
1171
926
492
2963
4363
3989
935
5709
8710
5466
7735
9253
8646
9355
4476
697
1537
8193
7106
800
5550
4374
1553
8793
2573
6573
6593
8747
8384
5390
2852
8662
2950
