2736
6411
493
8118
5960
108
4443
4620
671
846
5323
5995
612
2411
589
1210
3972
3663
2632
2645
3320
5127
2695
6204
4100
160
5882
5484
5375
198
5466
5947
415
6851
1402
1048
5639
4964
6041
6837
8247
4168
2649
286
6021
5831
455
7327
4529
5095
7070
4026
4364
7283
6751
90
5722
1753
758
8412
5390
3538
5758
4428
2095
4863
1906
1228
1028
5959
6964
8065
6686
984
5228
5123
5086
4780
5678
2909
6054
5530
2102
1265
1076
7361
5233
3366
2162
4481
4957
7543
6074
6152
7101
1031
4426
2664
5039
2352
109
8161
5386
7557
6848
1757
8296
5598
2131
6741
2806
3922
3620
1455
4308
3312
2754
6216
917
2707
3603
7721
386
6062
4432
2321
1839
3705
1063
626
1186
1834
5548
250
1289
8329
8133
4653
5388
1595
3875
566
5963
2293
8073
6010
7266
7737
2268
2960
5315
2293
834
5816
5766
5290
5384
2123
7940
4677
5135
5313
2197
2232
1974
6118
2811
1887
4202
5969
1865
1005
7440
8059
434
2384
6975
1977
2239
7933
3619
1430
5847
5477
6062
2043
4824
2537
306
1884
4496
2183
1164
6776
4604
4051
1175
6606
46
750
3650
2664
5698
542
536
3004
81
4579
8138
5262
7669
4460
5994
1692
5225
4355
6003
34
6421
8340
6821
3503
2524
5820
3592
4248
4910
4903
7150
4800
3761
7635
6641
1512
1288
676
7843
2850
4373
3190
1544
3069
2484
350
4483
2616
6433
4082
8049
7289
713
958
6067
1576
1118
8363
7402
8248
976
7064
4780
1422
5155
8268
167
2442
1582
7545
4283
6248
2515
1606
7735
6684
4461
7463
4712
3089
8383
5650
7760
5575
5587
6041
4706
599
3131
6609
3691
4926
4253
6138
3065
4311
7006
1897
5113
2753
1177
2695
327
2841
3481
5303
2282
6533
3384
7235
3178
3727
1992
3339
5629
5524
2871
5804
7142
217
848
7485
4334
6271
4438
3689
7841
4343
3065
7048
3998
2918
4492
395
1994
795
5224
3163
4218
656
7740
410
1381
4194
6306
3874
3663
314
7990
7310
4101
800
223
3288
6183
4074
4102
6992
1144
1214
5740
3336
2130
2629
2852
1121
1901
5206
1429
924
8394
2755
1481
7491
2044
1454
4014
5431
2875
1831
904
2625
5489
5374
3478
7968
1270
4553
2958
6353
7433
7745
1074
4358
3118
134
7204
1
7124
7352
4734
2978
4938
1200
5901
796
5909
5224
5953
6324
1544
6568
6892
2155
8216
3442
7143
7724
4472
7757
6773
7975
3258
5162
821
2968
8329
3852
3409
1975
7014
3654
3877
340
658
3859
3645
6143
5926
2314
2901
332
2806
1268
6463
6718
4428
1236
7908
4349
2844
1357
2948
1221
7473
2131
6048
3382
5415
1951
962
6634
6764
4069
6176
3458
8399
7993
7355
986
8364
1234
1683
3840
4657
1492
8272
5500
8017
3228
8151
4870
2058
5438
3287
5616
2367
7851
35
3582
3448
4409
3400
4528
5671
4348
3557
5849
6371
7150
6203
2055
7062
2571
5344
122
7701
2116
3840
1506
441
5494
1866
1372
7047
192
757
2344
8371
2226
8382
7155
3373
3336
475
5756
4424
4971
7962
3588
2313
8410
2860
2119
1438
4937
3366
8058
7911
8039
1522
7376
8378
2767
2367
7653
4973
898
4018
3798
250
7308
1645
6550
3609
6425
2486
2729
6362
3626
5113
3684
2218
3316
5227
5790
242
5576
5047
4923
7130
8358
2295
5886
933
5373
6328
5540
2447
1570
1703
3952
4289
1653
2500
2053
1432
1827
5473
6693
4752
2645
321
6512
4008
7209
7991
7504
8167
2853
3901
5601
2767
3521
3830
224
6358
7254
3084
3738
3078
6493
2944
6330
46
1793
1755
8388
4691
3495
529
7390
6581
7904
4677
3024
482
3245
1689
4421
5361
3974
7258
7508
1685
575
1020
4949
5773
5333
2942
4830
668
4514
4424
7502
4189
4981
7414
918
2577
5293
3994
7125
1362
2732
2323
4517
6128
5779
973
941
443
1993
7012
1918
7904
7209
3776
3471
3865
4722
6688
2757
4911
759
2152
8087
2072
160
7113
5167
4598
3476
2431
5194
8091
2671
4898
2339
1678
2292
6237
216
5403
2105
7593
5780
6012
8127
3355
2957
1623
134
1873
5698
686
3828
3383
2593
7189
7978
1184
7420
178
1761
8325
4669
7019
4283
721
3776
2481
5623
7568
1521
1755
2094
4584
6240
3849
5424
1285
2202
499
7255
7612
2189
5062
2883
4889
5627
6181
5495
4803
7752
4818
6639
2699
6906
2444
7899
5402
6494
1000
1589
1492
5138
5592
7388
6312
6617
4432
7177
6252
7935
7937
7091
3663
6207
37
2938
6136
2747
6012
6231
4407
6199
3773
6992
106
1625
7024
5003
4576
1669
3568
3238
1241
1057
4306
6339
1983
2552
3468
7290
2499
3581
3300
1988
7965
5535
1862
5809
6081
3963
6193
7883
4298
754
8187
7634
3133
4098
3408
508
671
2468
6028
486
1772
5591
620
5120
6896
5428
2022
3134
1008
3810
1014
5144
6306
4421
3049
898
4443
5048
6274
5097
1189
5924
3808
5061
1349
2632
6991
1360
3843
1267
7919
1704
4129
7105
4711
7965
6287
4821
960
3818
7380
463
2437
7962
2154
3642
3499
507
823
1611
4653
5083
564
5822
5445
1811
309
6469
6907
7889
4940
5514
8100
3293
5139
1933
1955
692
2147
1336
612
7366
1470
1156
2410
7378
7369
150
3879
7072
5016
2954
5439
5528
5040
1887
2929
6190
3458
5935
4474
410
7922
8411
6296
52
5875
5968
888
2820
4438
1317
5313
5433
1666
5029
2856
3065
3231
984
6969
6123
7376
7610
6504
2952
7383
964
6997
8014
1427
2563
2621
4351
5693
5187
6613
2102
764
1386
6
2937
2019
1230
2712
3596
3429
2746
85
4077
4480
6248
4997
4722
2467
7774
327
4207
3266
2351
4147
8152
581
6102
592
156
7157
7448
7534
427
6422
5851
4768
2619
158
4961
2156
7194
6327
6254
8079
6460
1940
3122
3428
4545
5386
556
2445
1681
5006
7703
3889
2484
464
1078
83
1729
2938
805
5968
7402
8083
450
1239
2531
6231
3550
2509
5909
6247
4987
7563
5997
4039
6427
5293
2713
7144
7615
3107
651
2037
962
4014
8022
7895
7636
6725
4286
6952
1803
1401
2328
2528
6001
1075
5091
4510
7276
3287
8090
5074
2783
4241
6292
4837
7475
5828
2402
3262
5323
1354
5399
4241
4896
2487
4573
602
8100
5203
7684
5115
5465
3715
4873
5476
7511
6872
5541
2403
4803
47
5392
7759
4364
6984
1349
3026
557
2922
60
6748
1707
1193
3483
1104
7077
2067
3842
7842
3198
2713
4370
8391
7316
3121
4897
4976
5423
6130
648
6210
6384
1948
4433
7739
3260
3142
4000
7898
1477
1914
3734
4125
809
8130
1826
1140
7782
7798
7736
643
7642
6107
7611
5000
4526
7892
2083
4935
298
3456
5248
527
4626
7234
3198
3553
8056
605
4138
3221
5771
1640
405
6574
2207
7239
5692
2271
3622
6848
860
5456
4371
2172
3769
6394
6774
2303
2991
6415
7981
3643
1785
1382
1850
6269
2122
3810
6401
3310
7549
1720
4180
4204
2352
2906
5842
1610
45
1451
1998
3194
8146
909
731
494
1632
5750
8306
8010
4403
4168
7126
6015
7588
1851
4639
7066
4795
6378
2713
4052
3483
4345
5800
8147
3657
2461
5158
8143
2682
4315
1921
2051
2950
5996
7476
8415
158
3702
2954
6701
4925
7307
6166
4916
2591
458
149
6952
1750
8208
7277
3357
2243
4825
1050
1156
7314
6177
6683
2120
7249
4998
280
1859
7031
4030
8292
2744
3656
347
1826
7837
7829
491
2053
7293
1580
6255
5401
343
8014
1924
7484
4003
6893
2196
5506
4423
5027
6479
7293
4343
6272
750
2458
6414
1682
8418
6737
7340
6519
2446
2399
1848
7269
293
1207
2231
42
1907
8302
4132
4913
5639
2964
4383
1689
747
8349
7905
8181
4306
2660
3937
2062
1962
4647
3085
1618
5397
16
2085
3802
2081
3021
8353
7819
3709
7392
694
6677
4560
4953
2562
4964
6981
1460
565
5224
7372
6234
3253
2112
4423
5612
1682
7167
4445
5776
5871
6492
7958
5549
973
741
5281
1862
957
6003
7474
8107
882
41
4639
2753
2153
4822
809
663
6177
384
7925
909
5651
6639
7365
3945
5174
5739
3345
4928
4532
2480
7874
2716
5213
1452
3163
1780
6534
211
1320
1726
3919
774
1980
834
921
7112
715
4871
4142
3543
5736
7995
4479
3744
3850
7154
4612
6111
377
7680
7493
5585
3084
6857
1745
1127
377
3927
5307
7917
5069
1368
6560
6872
416
4289
6111
6546
1960
6190
4109
2328
706
8363
2658
876
7474
1093
8354
3137
3261
2795
2461
4725
6750
7924
6868
6415
2925
4674
4328
3993
5398
4372
2766
480
6449
5149
6170
6491
5176
8362
2354
1539
4232
7162
2923
6746
5502
4080
2114
8199
4237
4625
5000
5277
1436
2517
2028
3582
5405
7437
8062
1489
4005
1755
5469
6449
4929
6659
8078
2616
370
1961
6165
2856
5269
1571
102
2192
5529
1564
5920
2580
1293
2183
2154
1984
455
5224
2131
2158
4995
1093
6680
3602
2158
7266
5541
5207
5538
6322
1508
2617
2203
4436
837
6339
7436
2643
2815
7699
64
6866
526
3200
5377
252
864
6980
5507
2860
2858
5842
7517
141
2898
7479
788
5503
3629
1662
4749
210
5363
930
7766
4047
7932
3773
1495
6452
6095
3934
3871
4772
8354
763
7641
853
2073
7809
6287
5895
4160
6222
2189
3538
4484
6126
1304
1243
4454
6090
235
6064
2535
3326
4560
5990
7764
5260
1516
3829
5965
522
2961
3303
7633
7029
6297
5713
5813
6281
5727
2191
6447
5434
3981
5779
6939
5876
1425
7706
1924
5443
6458
8131
216
1113
6128
4645
450
246
4337
6495
3370
2539
5282
5679
7331
5587
4709
2713
4593
4138
2560
7049
5657
5283
4455
2433
5978
4433
4276
1940
4011
6622
7444
252
4319
1045
1651
587
5445
6166
4729
6449
5364
7360
4575
7775
4276
3327
7373
747
7948
4368
2110
3285
2491
5235
1858
5378
6013
1488
3065
5908
6791
4326
6572
2910
3091
4828
3785
514
7055
7716
8111
1636
7681
3502
1228
6441
1560
7011
8277
3870
4590
4025
8148
5020
4261
1636
786
7169
5765
4050
5354
4724
4759
7702
381
5193
3232
6994
6152
2989
6202
5341
2693
830
1524
6525
5812
6332
7570
1014
5005
7955
8391
3755
1323
1564
946
97
1530
6691
1013
650
322
1155
4948
7972
405
310
3099
6061
6483
2491
3039
5931
6006
4146
6878
192
3772
1331
5839
4952
4145
968
5688
1946
8110
7101
604
4290
2796
4910
7025
2373
4475
340
1982
2696
150
7104
7391
1883
7832
7589
2062
5944
5474
7009
1150
2568
1235
4568
5927
365
7745
3037
8008
6216
6485
1485
2257
1079
6639
7906
757
3319
8257
5561
5933
5712
1130
5524
5264
2188
7519
7900
7002
3522
7245
4578
5376
7361
894
3381
8333
8310
570
5413
6563
8363
3538
5755
730
1504
1575
8222
2318
544
4345
7456
6488
7493
3920
6609
3538
5177
4733
5878
7776
5635
2606
8418
7896
8102
6968
4100
1003
8153
4122
4068
5385
4083
5067
1483
6262
5554
5776
7826
3907
3835
1027
6774
305
1064
4260
7944
1742
1426
4266
5632
2348
5910
6391
5320
5011
7036
2338
1135
5651
7280
5170
4095
5227
7677
5752
604
5599
7467
2082
387
4528
3481
8258
5943
5190
3216
7746
3732
8195
4975
4605
1358
266
3699
6695
4148
7559
5803
4647
4359
3494
7710
1114
3645
5456
533
6286
3772
7371
4281
1093
2504
5754
6881
1459
5239
4460
6385
7461
4929
3565
2047
8051
284
466
8087
3870
3695
5579
5014
2588
3968
6648
1631
827
4386
969
907
4412
7077
2619
6031
2345
4941
1647
2512
3277
8170
6390
4387
7615
6248
3328
3847
499
2949
8167
3672
1412
4492
5556
2022
1165
7238
3736
4835
1791
2575
3996
6386
8183
1120
555
3869
2406
6751
3557
1154
4700
4232
3390
4526
2139
2088
7873
591
4657
2863
335
3860
4517
3616
6516
6443
4369
7576
1539
4858
7548
2972
5663
6055
5650
4017
7507
4603
8108
6493
3168
5103
910
1905
6318
3027
5749
6129
4027
4294
2523
6549
5820
2866
2693
5590
4894
1200
5984
7552
1497
3369
1368
7547
234
5442
5330
2740
5770
4158
4967
8356
5174
898
5944
2113
1003
1660
8253
7352
1043
1849
3394
6242
8402
7254
6256
518
4526
966
1815
7897
7490
5863
2336
702
7603
2654
7211
8293
6689
2828
3923
7403
5121
4183
7445
6159
6873
2831
3983
3345
7023
5275
7933
3432
6171
6772
3827
5165
4465
3892
8078
2118
2
4567
7705
1449
1100
7308
912
6052
3680
927
6992
927
3625
1340
170
1037
4667
1791
2971
490
5053
3209
7849
809
5221
5724
4160
4346
1846
2312
620
1665
5880
1275
8158
2643
1484
1779
5370
3733
8347
7290
2238
2479
5260
4339
6442
165
5582
2452
8233
2053
5564
3299
2561
3598
3450
3139
5880
1674
2593
2012
4521
3196
5398
274
6154
736
3515
2480
6776
1748
5089
2469
3513
1035
4396
1108
59
4716
1142
7222
2653
2646
1481
7997
511
4427
8183
3463
3623
3216
2478
5264
5634
1096
7646
2149
8295
5829
7186
403
1286
2880
1340
3104
6830
1216
5132
8293
6685
2011
3539
3657
5799
7312
1311
730
1179
3468
4847
6066
4129
7760
1278
1353
8199
6225
7928
7814
7595
6001
7376
1688
6829
4811
3190
2603
995
4965
1848
6796
3445
2188
825
1806
6507
4511
7558
4307
7978
7817
2197
2155
8347
5519
7164
5499
1827
2603
1878
8103
1320
705
1189
5322
897
4103
1816
5659
8013
658
4433
3906
7074
84
419
5943
4902
5188
3126
5039
6067
490
7000
2986
255
7432
4868
2278
7203
7702
78
4538
1953
3312
3345
6606
6853
6149
1209
1683
5676
1424
3606
3018
1421
11
6019
1614
326
982
4595
5443
3219
7427
5777
1419
6414
1308
879
5241
3738
4386
1413
2681
8389
6934
2841
4663
1514
362
7707
3590
8373
1055
5551
1941
642
8284
583
3362
2172
4478
8206
6347
3442
1100
4880
7939
2253
7186
6071
3117
709
5835
3831
3427
278
2968
4520
2038
5999
4376
6000
6702
522
1161
2528
4142
1376
973
3899
5267
7320
5811
3346
6407
2627
2092
8308
396
8034
1487
6426
4925
7187
1169
1688
4673
7419
7793
4570
3591
4569
6144
5517
7611
5121
7965
1778
8059
5412
4497
6701
1482
4591
7641
5936
3770
5907
889
2715
448
4786
2994
3304
2126
5985
819
6895
7389
1120
2098
856
4249
4820
3526
6370
2103
4912
4664
6612
2446
3249
2483
5059
3897
2151
4973
6867
5652
4865
3561
1695
2622
7118
1475
2299
5500
7963
2107
6573
6805
5905
5734
2569
3473
3607
6978
5662
2663
4493
8096
6354
8227
7195
7705
6738
286
3561
3834
3395
6383
2349
1745
6801
5894
5624
4774
2781
3806
3483
7271
3446
6799
5954
1065
457
5535
190
7171
6491
1160
6578
1008
6973
5912
5415
7561
7222
3267
2470
569
856
7037
3409
6058
7328
2608
4018
2357
4886
8194
2212
8369
4390
6869
6942
8056
6772
3146
4054
2447
4247
741
7021
5409
6240
8391
4381
1460
4615
8222
2356
5813
2118
5063
5902
5950
7806
392
4223
473
4024
4773
3104
6895
5373
6038
111
2658
3311
2804
6190
693
2395
5453
6292
1082
4391
2468
1772
1326
3020
2970
105
150
7306
5616
5163
3390
3789
5723
7370
4236
2409
5482
4371
7618
7670
6118
5952
3780
1273
1950
2035
3312
8146
8043
6925
8284
338
5320
5681
3340
7503
160
1523
7005
3411
1177
6749
8370
6946
3575
5753
7181
112
1915
4734
8078
3694
833
3729
5073
5986
1403
1421
6609
1898
3904
6906
4590
4390
2219
7371
7635
814
7214
1768
7821
3050
2442
7483
1374
4649
5590
5550
3961
5293
5356
393
2431
7265
124
3862
3825
5579
2385
7055
4253
2293
621
6001
3773
878
1341
2051
8162
3058
2150
6578
7083
1630
7486
334
8157
126
3223
4683
1219
6049
1243
4815
6665
4939
2962
6587
4013
311
1284
5910
7154
1412
7259
3089
6179
1366
8265
4669
1564
7966
1106
3731
5906
3099
7962
5461
4173
6368
1058
2959
3484
8275
4694
2265
2943
5083
5346
921
6552
6410
5486
5805
6565
6603
3468
4466
4467
8263
7024
5780
1421
5339
1776
561
7147
1901
4598
2022
7528
3352
1956
7482
4775
4067
6742
2966
539
8011
5182
1458
5871
4720
2669
2408
2514
2957
2118
2651
6382
5512
7653
2080
6308
3614
3859
8034
6824
6288
2941
5541
4376
6398
8039
2807
8344
6770
4786
6303
5952
4789
233
8043
7173
1802
6897
6121
3757
7744
6904
7626
402
1121
1406
7402
627
4505
6899
5605
856
8345
6316
283
4783
2438
6312
3344
3132
2758
6871
8235
7501
6126
5180
232
1211
3683
3539
3045
2602
2306
3022
2358
5335
3074
6648
4729
160
5192
6329
517
1840
3155
1559
7228
2699
8184
5760
2064
2666
6149
8133
7850
4271
4717
29
2957
328
3175
7251
5855
2408
6884
4325
2799
7320
864
2358
1306
2141
3989
7283
536
7282
11
1537
607
4862
7031
4882
827
7886
3651
5831
1790
4387
3944
3418
6495
5044
6143
877
312
4009
5678
6791
5897
7765
3478
1930
581
1000
1574
5099
3177
1162
715
3595
4924
7873
7420
1406
6085
7341
1518
610
1989
7623
5733
1673
4480
7728
5493
1656
2835
1184
587
7350
8396
1855
2036
5977
7729
5994
5716
2572
1124
5383
1457
1552
4704
2740
2151
4356
3006
7539
1716
253
1347
8316
1273
1504
5629
1067
1023
8349
4026
896
2436
3273
4120
2153
1419
1934
2535
1443
1995
1241
6109
3961
648
4730
5159
767
4716
7769
7034
2671
2436
6886
3741
4826
2307
3214
5234
6789
4337
1408
329
2510
8365
6399
5
123
3954
4598
674
1907
4423
6777
5851
8189
3109
2142
988
5761
7286
2151
2325
8361
6455
8187
7782
4481
5325
5555
764
3839
5417
1516
6241
7591
6730
3627
5867
5982
6385
965
3790
3130
1479
8381
3784
6630
5403
3679
7596
8216
7298
6532
5543
1549
7820
5988
4847
5069
7977
3660
5665
7404
2653
3726
7825
773
1219
4518
3414
1649
5056
1207
1257
8040
3632
790
5891
3421
5374
111
7782
2031
4504
8091
7036
7968
1507
3371
5112
6121
4608
5439
4715
553
337
2121
2134
725
2015
6061
5354
7865
6588
1295
2788
2076
2670
4921
5688
2048
810
1163
7255
4849
4640
3540
6288
5474
5088
2357
4228
7131
3562
2638
7532
7225
3331
3211
408
575
8323
4601
5243
2869
2072
1873
7462
980
8145
2841
6343
7294
2812
7735
8214
7244
906
315
5279
3714
8151
3921
2635
3585
4607
2008
4138
8337
5997
7218
5754
3687
5675
6516
3817
4058
320
7027
989
6882
6832
8077
800
3289
3531
2610
6924
6038
5681
6640
3057
4416
3689
7381
5018
389
2886
7909
7659
7660
946
766
5572
7844
3787
804
1400
7659
2600
5223
373
2104
4497
5555
247
701
8059
3773
4760
3832
6494
3624
6526
7596
985
6922
921
4109
8256
6093
7501
1462
7314
7932
4299
1660
3735
3588
1844
5032
3821
4858
2235
3888
7510
5911
1596
6922
3404
8387
71
7390
7869
4225
1423
7215
1960
672
5847
638
4353
2104
166
6192
3582
2204
7651
6758
6754
4961
4322
2726
3006
379
2066
2055
4728
1407
3751
173
5227
2425
224
4952
4326
1449
1674
7049
4341
6838
3181
1073
7689
7114
2652
493
5765
6781
5719
6325
7817
6301
3420
4948
1347
355
1355
1401
7546
2109
6697
646
639
8403
7756
5910
1464
6635
3048
5941
895
3017
4898
2416
3868
4748
6178
3198
3751
2669
2784
7947
4752
8293
3871
1502
2205
366
4225
4246
5570
7331
876
4763
7192
4029
5119
1732
2768
8059
53
4347
7645
5124
2083
2448
4973
3289
6627
4558
6732
7189
649
3818
747
6742
4267
6901
647
6823
681
6186
3566
7275
6753
6799
5267
7854
7668
710
431
2793
7534
1848
704
1064
6823
4564
1361
1329
5337
1925
3125
244
4067
479
1885
1251
1045
5609
5133
3463
4763
5809
4043
3692
2104
4711
891
4310
5791
7064
1218
8258
3453
1263
1066
6737
307
2522
4616
4232
871
3324
2173
32
3869
8098
6359
2208
959
500
2780
294
8274
5839
7425
2870
2050
281
7732
995
5917
2393
208
7120
6979
7852
1726
967
4902
4341
1306
8230
5781
2902
3208
3802
548
7095
2513
7013
2867
4809
6842
4259
8227
6211
7923
5433
6305
2269
4290
4787
7322
6207
6843
4013
7613
1440
4321
53
7613
5285
942
3619
8138
5880
823
765
5543
5998
5855
1834
5279
3193
7833
251
4237
1303
6823
2770
2882
2909
6518
7147
4821
1924
8288
720
1313
1622
2821
1304
1883
7533
3793
3640
596
4233
5569
5270
5235
6495
6012
7944
65
3998
401
5841
5316
1061
1135
2879
66
3212
7255
5494
7159
7165
8403
6513
8089
555
5708
2059
621
4250
7631
6103
7966
4025
606
6277
2420
1410
6850
3729
7243
8152
4496
123
6618
4251
6952
5430
6895
5763
2161
4833
1827
4955
4900
1084
959
5666
4125
3867
878
2813
1060
7486
8104
6705
674
3561
2761
6174
4383
1003
1155
8157
176
7871
5136
2499
1825
5790
5650
3224
5093
2976
7246
1104
6479
7329
7257
1544
5925
1684
2243
8316
2236
7188
722
2988
4914
2767
5542
4269
4740
845
7695
24
5020
7741
2652
3630
1364
6131
4968
615
2530
7418
4903
6833
679
4673
6650
4908
7275
3553
5376
5220
410
6837
3816
3387
8389
5011
6124
3457
5180
3779
3533
6922
6877
94
1858
6536
6931
7585
1199
1758
7540
5364
2663
5506
5965
7510
6249
6154
3187
6823
124
6581
1807
394
6958
8141
5271
216
1811
800
6741
5717
2599
5693
4469
7678
5486
2677
5515
5801
969
1036
3351
7502
5889
5026
5013
2110
6584
4427
3157
3766
956
6647
987
2917
3132
6006
6033
1219
370
2748
5701
312
4135
4105
3738
7081
1910
1041
1124
2305
972
1902
5264
6499
2934
723
3886
1152
7970
8270
6718
77
51
3826
6022
1068
8074
7031
3122
6900
1957
8022
8257
2906
4304
1964
680
4618
417
5216
7882
7179
486
1402
6978
4504
5697
5976
7618
3128
3850
5659
1385
1245
6581
1090
3847
4626
5076
6375
8066
6082
4838
3658
909
4673
8197
1949
2853
8234
6721
4870
1024
4862
4798
6008
2717
8037
7815
232
6391
1578
2002
2619
4274
7050
7323
970
5764
118
1254
35
153
5678
1790
7404
5589
1908
3484
1205
671
8041
2382
3542
7935
218
3483
4587
2
5533
6339
3077
1390
6307
3329
766
5637
6980
5037
6480
1583
2243
6873
7834
1808
6536
315
7560
1556
6031
5920
2478
4765
8102
1793
2982
4447
3551
699
5303
7620
4901
430
33
39
5161
2067
1966
1207
7074
6666
6050
7536
6502
5023
2140
4006
5051
3073
2282
4143
4598
1741
2524
344
2726
7265
8028
180
6929
6517
1789
2787
5361
8400
1133
3169
7306
3595
7009
6543
1340
4475
230
8145
1656
5861
6870
2623
348
471
2170
7670
6209
8323
4162
6686
6596
5420
1653
177
1577
7724
1096
4555
6632
6944
6046
7354
6801
7947
1439
1285
7647
1775
3346
6532
6018
3959
4404
5744
1519
4018
3867
6201
5789
4310
4544
1589
481
5887
2718
2947
1261
5014
3584
7897
775
6607
926
52
1082
6174
8139
514
5199
2215
4435
863
8322
5337
6964
8315
2447
1354
4247
2175
8056
1118
6615
6028
2257
2804
3857
5847
963
6782
7238
7828
6758
3216
8010
2716
2301
720
3825
7201
6888
294
5697
4460
2406
344
5424
1010
5693
4085
6304
8237
1380
302
962
1800
8367
1915
3103
1094
3706
5304
637
6204
3920
1231
1314
921
375
1933
8074
2822
1701
5585
148
1543
1793
2542
968
4109
1869
6290
6512
7820
7104
2280
4985
4632
1661
2435
5216
5915
4258
8412
2134
1249
3382
4165
1817
2353
494
657
7325
1074
1999
4048
5400
6034
5392
2809
975
7322
3266
5807
849
6921
5628
3027
6805
5472
3252
909
5580
816
860
4546
5448
4008
6887
4362
6153
6630
7600
3760
6727
4583
5542
5978
173
3487
2041
2159
5777
927
8349
6156
1668
4699
7476
4148
7509
3116
1855
2496
1230
1327
5030
8121
1476
4292
1921
2273
4753
3025
3268
4274
79
987
7749
3827
4806
4963
1505
1885
3699
5456
1949
7178
8029
3020
2637
7881
2710
3901
5064
505
7112
5266
6666
6115
3885
6730
3793
5847
2976
7210
4722
1115
7601
5142
4937
6716
3601
2386
3721
316
776
111
92
6113
5860
670
3293
3891
4319
4350
6984
707
2541
1997
7802
2879
2591
1620
2326
3511
208
856
5282
5199
7618
3382
6762
2545
7929
7536
3984
8418
1341
4346
1623
7472
7309
2334
2814
6646
1889
1347
6334
5035
6600
2322
7996
3525
4591
7412
7726
394
3903
1181
608
6635
7097
3937
5959
6925
6313
7220
4830
997
4292
6752
6953
6631
7232
7495
2239
7910
3231
7485
6103
3152
3850
4679
1395
325
1152
5885
3658
6107
2682
4407
5841
3013
3511
1922
6737
7552
4950
4675
7511
3091
3540
4381
7912
2539
6916
2004
3100
6607
989
1758
1515
7607
7832
1429
6143
4988
8119
3780
3625
1567
1341
8211
3303
4098
6543
3198
1599
1224
3565
885
223
2954
2863
3590
7373
6364
8059
1040
2977
1089
5136
5916
693
2719
5332
5644
133
824
5795
5936
7833
5710
1108
72
7848
1766
5941
1235
6190
8338
1056
5786
4751
3457
1453
8238
6763
2401
2756
3848
6830
4141
1607
4167
2558
2257
1731
3768
4815
4482
308
225
2267
5515
4467
5172
6607
3769
8082
4871
3698
1708
804
4078
7361
3711
5338
7209
4975
3367
5598
1368
5868
1393
8390
1073
74
337
1301
5644
5407
6990
3991
7707
3998
1246
7326
3901
2584
2744
1838
2862
395
4362
5817
7896
3387
2762
6887
883
5121
5277
8414
5108
7390
1990
334
5492
7456
26
5902
3573
1868
3408
5303
6630
2956
2684
8409
3692
7359
6889
3283
6102
232
611
3407
8193
7472
2557
1844
149
2673
880
3004
2611
639
3101
7187
4807
233
5760
3902
6071
7698
4352
8068
2183
7798
5597
2320
5089
949
2222
3187
317
6374
1428
8145
8229
8216
5580
591
3274
8418
171
4897
5198
5161
3056
1535
6195
1893
4516
2308
3322
3321
4003
1947
5922
7243
7964
6670
3812
3796
4985
870
150
1168
1460
3437
4772
6811
7458
5031
5778
3169
3043
6707
7613
3123
1081
5121
4055
71
3858
570
2586
937
2723
5448
337
8080
3845
1217
3868
6462
3979
8203
557
7435
332
5946
6713
73
629
7981
3042
469
6427
8299
4112
6186
3802
6634
6495
6920
6701
8219
3718
8063
221
6938
3722
1817
7505
2731
6642
7326
6217
2478
5863
187
3012
1859
5509
3847
4060
6123
2173
663
8268
1808
659
3740
2776
1156
7607
424
6677
1586
3623
1685
7678
1305
1216
7997
4216
7185
4762
7320
3577
88
5115
1148
1339
2338
4624
736
1915
5013
4391
7003
2370
8208
5185
3595
8240
1947
692
7298
7012
3628
201
7305
6672
8373
6603
6218
197
1199
5060
176
5441
64
921
1861
2869
3401
5102
3987
266
4842
7876
6932
5272
2894
5539
2398
7469
8257
1592
2707
8399
5198
5348
7466
2229
6475
5612
3113
1833
2490
1043
4346
5931
2658
794
8318
1563
4541
7411
566
6545
7394
569
5283
374
1385
1721
3364
6334
8113
482
6198
3561
5562
3703
2208
4487
3455
8373
3369
2035
1180
2949
8391
1373
1419
3664
529
5284
6922
5246
1769
1820
7861
213
2768
885
4931
1179
1987
5853
2760
6059
2433
2963
5985
8323
5687
2187
5544
6052
6868
7308
2666
3504
4885
5602
1938
3102
624
2362
2500
356
5818
6175
956
5532
3718
9
7334
3628
3915
7292
3036
3257
6977
5052
6827
1640
4728
578
3194
5993
1222
3711
3503
2980
8198
7993
7828
6653
896
6102
4267
8249
4762
1306
6827
6555
3246
4757
6979
3125
4542
6465
7453
1651
705
3469
2844
2722
1617
5995
2482
2751
69
2841
413
5159
6817
3608
576
5163
7904
7918
2207
3317
5466
7125
7889
8373
6436
7521
5375
2770
4262
7083
6833
2569
2355
3997
7455
2093
2252
2125
6295
1310
7227
1005
3339
1991
6666
2958
1471
6582
7605
1950
7668
7035
761
1968
2386
1362
7331
2210
764
6271
5045
189
683
3348
2800
106
6590
1076
3436
2474
513
3406
1368
2652
3248
1918
5933
2722
4332
5069
147
3573
5085
7640
3507
7383
2103
2070
588
6136
2571
7264
7485
7797
5976
3406
2276
3556
2144
2456
2385
5560
953
4123
3934
3210
1854
2630
6695
6678
4367
1849
1457
6396
3140
1737
2512
2722
5627
806
6039
2318
7232
1896
8417
3838
2350
3221
7758
5568
6604
1581
7351
5177
7490
410
3271
978
4491
7487
2746
1305
4701
5628
2444
7210
607
1211
8140
7541
3194
217
2215
3713
50
1764
7609
5996
761
1445
5931
5758
4032
703
50
2456
1033
2078
4755
7936
2812
5819
1636
7311
1777
2713
2928
516
7580
2549
6167
6973
3933
3303
5985
6328
3275
1676
6614
5983
6440
7585
6202
6405
782
654
2847
3481
7653
7244
3419
3253
1166
4848
5432
560
6744
2972
6224
2573
629
901
4366
5400
8335
6069
1133
6400
5350
2592
1806
3335
3839
161
3600
225
299
2145
372
795
2411
3990
4627
5109
2335
4363
7962
7992
8360
4362
145
1406
3483
4985
6328
4711
2685
8041
958
5976
706
2371
7575
2875
6235
1017
1777
2927
923
7513
5407
916
5117
1238
8283
7475
5252
8324
8022
7551
2972
4982
2287
1542
2758
1518
7617
3991
7542
6921
8189
3997
3797
1939
4815
7317
575
1857
1033
4123
4118
6826
3379
95
7818
7903
1770
6724
7396
6623
6453
509
8102
4736
6457
3570
4778
6211
4249
2162
2447
5273
530
599
7417
3250
5740
5056
5987
670
231
820
832
8055
4216
3936
5891
7582
6261
4171
5557
5243
1897
6310
1494
5520
7636
7585
8167
2751
1912
673
1603
5015
5660
2232
4219
6468
6198
584
7908
911
6279
4983
8413
3878
1938
4571
5535
3078
6532
636
6914
6694
8228
5954
3312
5763
184
7612
5917
4173
2502
2045
4074
4021
236
6775
3480
2619
4859
2557
6501
5293
4387
1291
2977
265
4062
6180
2739
5491
1062
621
3915
3006
8041
5421
3257
4064
1908
3647
4712
7874
7420
6492
4493
6847
6281
2618
5898
6469
4504
4592
3311
8162
6469
4005
5968
7597
1978
4211
5565
4645
6044
7419
943
5803
4672
8131
7545
1935
1937
1445
5923
2154
3560
2896
907
4775
4680
7765
5182
3920
5658
2723
6989
4520
4434
1416
5265
7214
2728
3448
2652
3033
889
3673
3703
5815
4017
8368
503
1841
7634
6382
4940
2013
5128
4503
4200
7539
1365
5033
7679
5274
7391
7559
808
6046
1173
3265
3962
3115
671
1427
3325
5838
2759
3824
3164
6360
1620
4464
1659
4969
1520
6579
4649
4986
3695
1235
2553
3770
628
7722
5611
4151
3709
5224
5659
4441
6891
815
2761
4405
7955
4432
1459
3000
4211
4775
8380
7239
3834
7055
7438
631
5843
3212
4268
4722
7949
1418
2178
984
2676
7779
6777
2337
5015
7322
2278
2680
1084
3115
7487
6977
68
3459
1891
4539
1008
1544
3480
3656
3725
6005
2199
2687
179
5904
7515
189
110
4814
3657
4870
8278
2841
3176
8070
4642
6961
7710
8271
5147
160
2632
8240
7170
6500
4268
1192
5028
6283
3416
1383
2075
395
510
6566
8219
3200
7655
7543
839
2013
6641
175
6625
4651
1298
3983
5660
8034
4282
1994
5797
1167
721
401
6114
6611
5378
5718
5276
1441
6020
1187
5783
2307
4164
3879
7768
2383
6760
1787
3074
1865
4327
427
8270
3286
5561
6360
8074
503
4462
1654
1842
3420
7636
7347
7875
7820
7102
4645
5103
1429
2436
8366
6601
6502
6188
5506
3469
2722
5382
6831
1645
2149
6941
4482
7977
2149
6643
4649
8373
4833
7543
7617
6477
7294
2230
4865
3536
5811
2003
2966
1694
7864
7816
5270
7865
7961
1147
2244
2196
708
5493
681
1267
3596
6442
3989
3218
7253
698
1161
6308
7157
1737
6650
6055
3957
3966
6032
6611
4861
7090
5416
4861
3986
4211
4208
912
2594
8312
7104
4986
5578
4789
2086
3064
6036
2383
3467
2156
3069
4159
3133
5675
7645
5542
4786
7576
4498
5882
2512
4620
2716
8298
239
2404
3074
6479
2247
5888
2970
2047
5170
5730
3703
2297
2953
5124
2108
2239
6660
5039
5738
2506
6589
2698
2986
3413
7967
1627
1781
5077
3224
7449
1157
7523
6467
7958
7593
3283
1261
715
2706
7257
4098
1202
2144
2063
612
7468
2104
7995
7529
1417
1363
4071
4673
4877
7173
7483
4488
1325
3105
1714
4073
7571
4569
258
7769
2103
1374
8130
3312
7504
7020
4677
6861
3099
7904
3949
6265
5158
6304
6766
4301
5080
5285
2114
7221
2685
4872
5814
1885
8350
4646
5531
5156
4435
1458
7850
964
845
5609
7097
6265
3439
6770
3828
7202
336
7528
6321
841
8048
6916
1425
6704
6833
5995
719
7944
4772
4205
3462
5179
4461
870
6546
50
6552
3057
2572
432
3106
1636
1708
4111
2916
94
3741
589
6022
724
6669
7392
6565
2720
7722
5166
2339
3062
745
6663
5072
3554
5325
105
2679
3522
320
2466
1914
3779
6267
5818
8179
648
732
3728
1939
7618
241
7306
7849
1091
3290
2058
1297
3367
7404
4228
4711
286
8390
5298
7140
2705
1362
1855
5619
6845
7233
1535
2397
3942
3243
4445
2211
6992
2863
7666
7425
1620
2107
7850
2080
1041
3772
966
2548
615
3424
3677
1129
874
1204
601
2868
2085
3474
8397
4947
3828
2725
6312
2933
8108
2117
3313
3631
1633
3661
1538
3652
2354
95
4228
1993
2711
7563
3169
1514
4359
2860
7177
1508
2358
481
6359
4324
6829
5951
2276
225
1806
1540
126
3466
1479
3000
4894
4427
4454
1164
4360
842
7803
7454
7177
3165
1417
2439
3095
5572
4135
7152
21
4865
4735
3095
5613
5777
5975
4293
6587
7733
3369
6526
4641
501
2953
2473
4977
2966
3008
3715
4088
2518
3346
2775
1391
6795
4650
3300
8000
3084
172
1067
4004
496
6253
3507
6415
2517
4206
4498
4194
3408
7129
2167
20
1928
388
3419
5973
6933
6954
5390
809
6628
5241
8030
4632
2009
7290
7498
7687
6124
6120
1673
6654
1948
4447
1965
6645
7674
4545
6549
6338
2746
4895
2471
1213
3029
5258
7378
7578
7772
1550
2068
4008
6868
915
6332
575
8355
6031
5217
637
6315
864
686
1707
1158
2742
6573
2355
2751
5810
375
7590
1459
2802
5
5022
6895
534
5495
2325
1026
6944
2511
7513
2691
5760
5893
7637
5631
22
524
6714
613
2048
4368
1936
5454
1785
7951
4056
6188
7160
6614
6634
4282
4739
5567
5872
1090
3647
1426
7869
5600
73
4745
4424
1539
343
2647
2109
7635
8073
8025
7830
6178
1252
2880
2612
2955
3249
3471
3473
7657
2783
4626
2786
1332
2886
5835
7770
7855
215
8025
5914
5210
3433
5887
6949
4954
958
4437
7275
3199
7936
4914
2565
5083
7276
1556
6903
5206
2481
7253
7622
5690
6343
954
919
8
3098
203
5890
520
1697
5598
7264
811
2343
2089
1507
2855
648
7408
3603
4869
6794
6524
7734
2258
4633
6883
4946
7631
5714
5024
1323
5816
4912
6198
732
775
6443
97
3850
3375
6424
6493
4520
2692
7939
7675
4591
4178
5145
8274
802
2835
4912
3131
7478
1821
3937
138
1235
4557
7823
5278
4895
4589
1161
2919
7409
1521
1842
6626
7519
7851
6190
729
8357
784
3926
3757
2297
7887
4493
5066
906
1
4762
1703
7313
1863
7509
7360
3040
2149
8257
3129
5020
1495
2956
2256
4591
5998
3807
2758
8113
1572
3066
7974
4055
7397
3856
3595
4225
843
3304
2661
3202
4533
6375
3172
947
6508
4706
5857
2941
8418
5875
7871
1292
6869
1684
6049
1844
7537
7145
5869
308
3714
1196
3209
5222
1753
6856
1033
2194
756
6138
90
5515
6793
5631
2
3000
5472
2490
2390
2916
6014
3658
6966
7104
4951
105
699
834
6854
4049
739
3263
4877
6224
4005
7887
3296
6467
8267
153
3376
7955
5098
2019
1453
8147
1269
2019
1339
5210
3151
7747
3570
5938
2603
2379
7101
6275
1185
1233
3611
2346
5912
3083
7409
4442
5602
4877
2107
6496
2580
5690
5842
595
4780
2665
3046
4630
4409
357
7570
1759
5826
7478
329
7582
6278
1247
6140
6587
1792
7375
470
981
6447
1192
4999
2690
2009
7877
7510
7748
210
3345
6378
3766
5568
5505
6720
3305
745
4350
4643
2343
1530
8011
569
1594
8123
534
4898
4215
987
1034
352
5529
5794
98
4854
3280
3674
5177
4313
5442
7647
3102
1148
4940
2963
7932
6571
1772
5619
3989
3364
152
5520
1328
2659
6967
5750
1545
4837
3004
4671
7554
7764
8287
6031
1821
1686
1244
5383
8079
6727
7139
2705
3952
2776
4097
3768
365
4506
170
6565
7168
2612
7888
6250
7572
127
1817
5243
6987
624
602
1019
2877
1295
6874
3156
496
5487
8150
5119
5574
2637
2226
5670
5228
8107
6250
7008
2976
7174
2592
2825
3841
951
5845
1699
4087
1596
1107
5885
6794
4547
6297
1379
1181
5845
6847
4431
8344
8385
7774
4027
335
106
5660
1695
1886
795
1121
2146
2813
254
8389
3925
3757
242
4537
2844
8374
579
6866
7558
1892
7566
2453
8256
7769
5601
213
2285
1997
2064
3548
5313
5213
3295
2304
2908
7678
4182
4183
8035
6069
840
6861
7726
4736
7207
4634
1344
2852
6231
1949
2944
3702
4953
1679
5093
381
8352
65
2878
7978
5485
6284
516
2976
2744
7435
7973
107
4267
6916
6537
6511
382
4574
2560
3241
7572
8203
5404
4493
3453
1724
4945
7708
2637
7013
334
6778
4102
4267
8174
161
7814
1174
2629
4504
7121
177
6602
1658
2418
3301
3235
7523
7760
149
4099
1978
763
7779
7247
1
2441
153
5339
5110
893
6312
8196
4539
5066
4686
3685
1136
7381
5363
3547
1341
5137
325
1103
1835
4023
6948
4834
258
1279
4420
4451
1913
2438
2128
4521
4273
110
753
183
523
840
701
7935
1784
2193
6642
7027
1832
5973
1789
6027
5060
6281
7531
7039
2750
4751
2402
4264
6410
2559
8055
3088
635
5012
3433
5359
6436
522
8255
649
4073
1900
934
250
125
3507
3244
2748
8189
2234
6781
4348
8393
4372
4612
340
3523
3220
2996
7253
3037
2379
7074
5901
3179
3826
5342
7468
5678
2886
5609
5885
598
7364
1932
5909
147
435
1596
3175
3002
7769
1195
6878
4686
3095
7192
7800
5037
7168
3812
2712
2463
2597
5407
6128
763
3978
6763
5133
3348
6033
5451
6015
1194
3013
3788
1528
1173
4058
7121
3514
5265
2956
6952
3042
3389
5378
6030
897
8145
1702
628
3729
3023
8010
2165
2279
6049
7521
5375
3737
4501
8309
578
5655
7107
4937
6636
4400
3615
1364
632
6615
8396
2717
8126
1119
3893
6884
1459
3393
255
5378
3034
3433
8292
1105
190
3768
5990
5064
3276
2368
3577
2355
5705
2233
2203
6150
6234
5529
6686
4532
5192
308
3880
5198
598
6334
5354
202
458
7193
575
5688
3448
7099
5469
2980
7114
4025
7922
7114
4369
7055
1556
3742
5589
3817
499
2970
7648
5941
2233
6615
4737
6107
597
4197
3693
262
2729
7328
1128
4433
4793
4400
3544
2427
1659
4656
6742
8231
7980
6207
5530
5181
7875
1299
254
1746
6539
2247
1672
99
404
7581
6053
8377
5410
8017
2409
7339
1500
2813
3488
521
5252
2959
2848
6506
968
2928
2378
5875
4406
5111
2627
1175
2157
874
7099
1134
7527
8392
3157
6864
2435
945
7325
2166
4644
3739
7956
3786
5457
4234
6155
1353
589
6635
5687
7323
4735
7637
5225
6783
2046
7342
5632
5400
5486
5914
7480
4647
7842
1822
3514
5474
519
316
2120
1574
511
33
7848
6695
3092
6475
224
913
7680
3942
8404
6151
4164
8195
1035
2107
6037
1649
4901
2716
2035
2096
7554
1046
6994
3443
7361
5233
7475
7977
4136
2513
4807
68
1707
4644
6056
2171
7084
5661
7780
1703
1713
6517
8200
7373
1297
8217
8203
8326
5930
2252
683
5068
417
7411
5521
4249
2761
8300
2335
4581
4825
7039
132
4593
7148
4163
4637
1391
3974
7709
6591
4934
5785
3642
102
8084
3791
4456
4731
5295
1667
1448
1818
629
6676
1471
2447
4694
7637
1939
5884
3952
6432
3783
1517
5123
698
840
5299
4719
2303
4912
1099
5347
6463
3585
3974
948
5968
1736
2898
6475
5956
5606
936
5448
3784
240
618
1232
2051
1054
3041
5294
3208
907
935
3006
7971
6894
7906
2986
1618
1724
7233
571
2593
4874
7441
3928
1517
2844
3356
7830
4026
4896
6882
7045
3756
5022
6620
7926
7042
5722
3178
5318
2222
5654
7910
6054
5597
1249
1767
7265
1752
5363
2713
4708
5430
3578
6365
2161
6009
5270
7113
8412
2347
402
4267
6395
5409
1811
354
3632
7238
1479
2991
397
6142
8059
3018
7876
2874
4502
881
3392
2045
8130
8010
480
4510
992
2456
7843
2045
6720
3457
1634
6300
6803
6311
1339
6034
5754
4344
2135
7495
5652
1585
8054
3895
4959
7558
5234
2717
3204
197
1514
3472
2389
2614
7038
3481
7173
8262
6509
3504
3083
3083
4186
285
4399
7167
1132
7180
1675
1142
4225
4776
3369
3387
1626
4909
739
2872
6086
7418
4867
4117
44
4309
6320
6179
7758
2955
7768
3529
3940
8211
3960
8360
2074
1819
7863
4593
5988
1306
7037
8340
3672
8347
6911
7881
6513
5005
2605
1214
1382
5384
4896
3875
3798
6490
1867
1254
1052
2171
5069
443
3708
8169
3281
52
4693
2536
3362
1127
5033
4141
7854
153
542
3059
1065
6796
4699
2579
7926
4516
6560
6353
38
4678
7947
5996
890
5758
5929
2507
4449
7551
1592
7611
7263
3687
447
4581
4376
6089
6175
3336
6464
2378
1501
1976
6635
4383
419
3414
1226
6956
8299
164
6386
3243
3556
3449
849
7993
6851
4534
6135
3238
4969
804
1425
5504
2308
7591
8046
317
6011
4676
1644
2835
3720
4298
1466
8246
5078
4123
2813
8033
1480
6741
4939
3897
80
4109
6524
881
4464
6292
1756
4143
7343
4521
6917
7621
293
2744
6080
6461
5249
7941
6070
7327
76
2041
2161
717
3451
4161
3362
390
477
2156
8078
576
7729
6351
6030
7195
4983
1570
3635
7774
5321
6458
6838
6400
6476
2057
6540
1517
1529
2390
2822
7384
7907
6669
913
4929
1083
4005
7555
4612
5304
6485
4598
4104
2661
3748
2933
3455
1876
2502
5228
1767
1188
2626
5864
6406
3255
4787
8268
2723
4650
6555
5972
3044
107
7235
225
5133
3082
4934
5134
2346
4699
6724
5143
3206
4684
3663
1575
2764
2443
2609
6284
6242
627
7041
3746
4854
4656
2744
5616
3689
5013
8253
3612
6752
2466
4813
1190
7045
4595
8145
6325
2758
4656
3513
5706
5113
5667
7225
2106
3088
6736
5363
4530
3836
3388
6613
186
1706
7729
5850
3047
2266
3337
7844
2182
6192
102
4596
6535
1249
4231
781
7898
6230
2794
6684
8346
1485
3102
3217
8292
1841
2448
5728
491
7096
3785
2087
4678
768
1270
1440
225
206
7840
2735
3758
2811
2794
712
1408
8318
3454
6503
3531
6183
2414
905
4675
7026
1633
1280
334
6528
5201
2476
4474
5579
7886
6737
6515
5357
7133
7881
5327
6254
4815
5178
7339
870
5310
3977
5278
5403
1955
3574
5338
197
6078
2212
2950
5497
5715
22
4480
4828
5985
2536
1163
6688
4192
4359
5661
853
547
5159
5672
7157
7661
3907
4635
5450
4343
6032
3124
7096
4451
551
7584
1896
5699
3665
2607
7481
3793
262
6274
55
2859
7558
5587
3063
2591
3400
3780
2211
2477
2496
6529
6435
5228
1159
5668
5104
5831
2171
5166
2058
6426
7978
7973
2123
5270
7145
1389
5422
8370
36
6824
1499
3491
5243
4769
476
475
4001
4544
5249
7810
4350
2609
6884
7421
4124
1463
3431
4700
6907
1017
5484
5543
7702
489
6216
4450
7326
4112
6293
1879
6245
3230
697
7257
4419
3294
7663
6115
5005
3025
5665
5069
8284
6088
8165
4371
8014
4477
3305
2717
849
1977
6214
4287
3883
560
3093
7271
6085
4004
4705
3020
8181
3647
8185
270
6443
7225
8101
216
109
131
2624
8329
4406
4723
5989
4495
1545
5592
6796
3702
1355
1937
7649
2250
7490
6569
4178
8093
7570
6262
1938
656
7647
4309
1022
6824
4145
6150
3809
1573
8156
3086
2901
1039
1307
6941
7468
2969
1847
445
6178
455
2978
6361
655
4463
7271
1038
4201
7424
8314
4114
5548
3880
1907
5038
322
2661
2191
890
1152
6147
5775
2397
5918
5828
2601
5571
4443
2117
3403
4864
3791
4240
4771
1017
2874
4247
5705
6030
616
6513
7515
3998
1708
5404
8094
780
603
6828
7747
2105
3712
6690
1025
4382
2317
2085
1539
2652
4437
2354
655
5549
4009
782
5820
6070
5386
6098
1929
7676
6132
1350
3502
5853
8089
5408
6764
4277
7378
5349
467
4865
2179
8225
4639
6051
6735
2552
4605
8152
158
6616
6695
8251
3590
2563
3455
6868
5653
6883
322
1845
1345
7489
2388
1424
6859
4427
5288
1146
2087
1268
1045
4904
5872
5762
4325
1185
4152
5571
5831
436
5678
6805
7240
2648
4671
5421
2850
2061
7849
4543
4309
3066
5699
4817
7075
2585
5071
5101
2923
2383
5133
2473
5071
7478
5440
4258
7214
8409
4503
6997
8001
2511
6786
3335
3293
4387
1324
415
1895
3760
4297
4858
2773
6193
1317
7918
3333
5884
1496
7336
120
4004
4105
545
3803
5354
4798
3236
4402
2441
8282
2418
2999
1262
6505
4998
2271
27
7741
85
6449
1930
7866
2791
5375
8259
865
7392
1364
892
1846
4786
7328
7213
4468
7858
6483
5760
6082
8062
6674
5302
1575
5875
2717
8164
3779
8372
4118
1761
3201
399
1867
681
270
775
7238
792
881
4156
8162
69
4761
4767
1110
526
71
8414
5986
6389
4016
3728
4470
3836
3527
6834
7519
969
6233
6343
7989
910
3310
7606
1771
2585
1283
8281
7919
6108
5517
3648
3317
4484
4466
2201
4091
8247
1377
600
3871
924
7997
3044
1189
4522
1173
5209
5829
5166
5026
6828
1837
7456
5470
7232
1036
113
737
5971
3809
950
4187
8250
7559
1620
5848
82
3202
747
7232
7872
6636
3581
4524
3308
1192
6786
1463
4062
3895
3290
4298
2674
1493
452
1058
5779
1725
2989
414
5590
253
7176
3213
245
5970
5273
3091
386
176
2780
6506
7146
5132
2765
2805
6833
3774
903
3255
5211
6593
3638
4921
3794
4217
7638
857
7658
1744
2697
3384
5129
3810
8249
6205
2257
4960
4464
3780
1367
8281
3132
5769
7751
1415
7808
2160
2430
839
3360
7054
5059
3779
4445
3780
5351
4471
714
5640
3921
2680
3358
3758
4518
2705
7520
1580
5794
5892
208
4018
2187
4924
2113
669
4469
4516
1716
2650
3588
1061
7359
1064
6939
6126
1928
5222
707
1892
4472
2548
2468
437
7232
305
6870
7950
3867
2457
3600
3637
750
6869
4010
5801
2185
7480
3658
6473
2328
6382
5327
1389
1846
4857
2345
7940
2617
1379
3600
7375
3219
3979
5279
1327
750
6183
2076
1048
5472
3219
4580
5429
7285
233
2034
3369
3677
980
6133
7617
3573
1585
4198
1898
6102
1048
3691
3774
107
7648
4554
2469
4721
861
347
3033
2484
7830
2226
871
1992
3133
6536
1003
4549
4379
304
968
429
3618
3746
4208
7869
6869
5846
1649
2496
6190
811
1528
1859
751
2363
8313
6773
1420
594
1669
1739
7838
2405
652
4875
7748
3970
6159
651
7878
4319
3445
5961
3518
6805
258
4903
2856
3535
105
2034
5931
7419
4511
996
4142
4988
7477
5378
6982
1206
7766
102
1217
7124
6419
7633
7308
5729
7537
5671
3650
5953
3469
7285
3884
6807
5247
2040
5149
768
5704
745
903
1746
4237
1815
3245
5588
4269
333
1812
4454
1120
409
6729
3705
3855
1102
1385
2629
4104
4679
7107
8151
1639
389
2291
7994
2283
679
4161
6210
4842
7317
2785
5688
5431
1310
2398
4805
5766
4615
6726
1362
803
4529
7853
669
7169
4502
7874
4758
6650
8365
2966
4153
699
4961
4452
8288
7054
7837
5706
7044
1716
7337
6379
5914
42
2384
1483
1284
2455
4770
7263
5550
7743
5406
7321
551
4856
369
4000
1969
1862
5645
7170
150
2023
4920
5851
4976
5048
6849
1062
1432
9
1391
1687
4606
1944
4018
2188
4273
8005
8239
8257
1371
936
4130
3830
5104
2605
2091
7547
2028
3308
5338
5888
1347
2528
5064
4624
8082
5269
7547
2593
539
4042
6090
3222
2642
3883
1107
6695
3427
2796
2806
3090
4239
4003
6143
6087
3748
2155
1763
4191
825
6100
1420
754
1055
6413
7247
2379
5946
6533
3964
3013
4840
7979
7409
5555
4017
3961
8096
5882
7555
4567
2979
287
7216
7598
5553
568
2378
1519
575
5119
5415
8390
4676
3298
1000
3187
5759
7771
16
1884
2012
2380
2021
7091
2186
1420
5823
5968
7008
3108
1500
98
6349
8412
7809
2118
2775
3458
3899
2632
2633
4501
1402
1126
8053
8235
3571
1553
2826
4913
7616
3343
2613
3853
443
6135
6159
5951
5360
2898
2839
6561
2607
6159
6874
6376
1554
6803
5101
11
1699
2571
8198
4439
1018
7544
948
5338
6995
6917
1213
317
915
5884
7965
7861
8242
782
4885
4645
4256
3381
3538
1298
568
979
2965
325
995
5977
5764
4381
4745
2139
5114
7326
6416
3936
3988
6006
1818
6379
6824
2511
5188
240
7432
1818
6953
5608
3320
2674
6615
720
3076
3598
523
6588
5525
7617
7828
4761
5499
6864
7378
7517
5418
2941
8074
2211
6565
6927
321
3152
3835
5042
5651
5903
3408
3962
7657
6771
356
