576
4389
849
2526
5566
5470
2997
1228
1234
695
781
2354
2070
2334
5743
1568
3844
1669
773
820
5724
3899
5168
3299
96
2806
2954
979
3622
5746
5635
4620
3278
4964
3771
1885
4898
5552
4687
6200
1210
2341
3031
4454
2724
3458
3953
900
3461
6182
6017
5150
2858
5266
5858
5878
2647
4383
832
94
5266
2919
3690
144
859
5440
366
2631
1891
4136
57
3018
3379
3029
1531
5013
3205
1561
4228
5948
5111
1490
2161
4368
2987
471
1697
3605
891
3219
4714
4386
185
4136
1101
5621
1647
6005
2943
1806
3558
4397
5118
4283
3284
4398
5265
718
5464
21
4044
1475
5062
5405
5867
2770
3752
1780
4529
4161
797
4183
5273
1562
5881
4701
2654
3647
4766
5446
2269
3224
1478
1343
3583
1178
6137
1606
2121
2247
134
6148
308
5257
73
5706
1097
3148
5729
4408
1184
3145
441
723
3147
2328
105
2515
3938
5487
6203
3353
15
5331
4063
1518
3960
852
6221
1619
5183
1299
930
5041
4576
5440
1782
3067
5342
2210
2156
5892
3728
3973
2959
3127
3926
4195
1170
3213
2557
4064
4180
5944
875
4505
4586
4490
248
3957
5062
5726
4107
3381
1112
2361
2322
4449
716
5606
5138
2140
2747
3566
4801
751
1183
182
1
2903
6095
875
3890
3159
2231
320
3341
3133
146
1336
4964
5920
1078
3687
1918
3031
4661
6047
1208
5815
4242
4643
925
2702
5518
3500
5004
1200
5901
5529
1456
3788
716
4745
1414
2436
2470
4293
3175
1290
5912
447
4696
4373
2774
4201
479
6228
4700
4535
4258
3983
5673
2472
2488
6165
5640
1277
2157
3603
1601
3248
3448
2469
2382
4036
4280
2410
5987
3178
1962
6110
979
4644
3143
2029
590
1978
5846
1204
4957
1
462
4912
2262
5483
2281
2539
2321
5838
5628
3829
5878
6119
2691
2516
5968
4087
2201
5977
6223
3204
3307
2944
4512
3469
2758
24
3243
2684
3939
4807
4617
3710
2450
5759
539
3474
5990
2641
2054
3490
5968
3601
5718
445
3919
20
2983
230
5649
2246
2227
2875
4529
104
5138
656
1689
2245
1198
3812
3158
4009
864
1688
4090
1959
1765
5643
3106
932
1338
5857
1146
5249
3923
991
2959
4693
906
4381
1488
101
1861
5755
1432
4477
1769
4056
1427
4248
902
4989
3727
4194
4820
1678
1147
4078
6020
5670
4317
4878
3029
515
6218
4229
2007
1301
967
5927
3318
61
5793
3569
858
4760
708
1709
930
3678
4569
5299
5218
5277
5395
874
444
3265
3881
6252
2740
777
3231
3984
2888
4117
3823
2610
5436
6075
1163
794
2553
69
804
2455
2049
1381
1745
5051
3552
2845
4650
5071
1566
5174
4764
4785
901
2307
2824
5598
1693
5778
4756
1719
3718
5986
3246
1603
2823
2977
5647
1174
5026
4382
443
4554
4032
5772
4928
5299
1527
6237
564
4930
61
1949
5868
143
4237
3235
2071
1171
166
4822
3161
5
5512
1226
2738
2857
5184
734
979
5755
286
4590
3048
5379
2030
3050
4799
2301
4152
4714
2669
6008
3697
1894
1666
6056
2856
3049
2355
6196
3725
1677
1445
5584
1541
2549
4145
3720
2875
3352
28
4333
3712
4107
580
5573
5102
3726
596
5953
2754
4737
1417
2961
3940
4028
2950
2236
1648
1750
4644
2813
1196
4683
5659
1530
3778
196
2740
5039
4168
4004
629
3705
1745
517
394
153
2726
3847
766
3223
2394
1169
5581
5295
5216
1037
769
1915
5548
3460
1157
3157
2961
515
4049
609
2006
4282
1166
262
4403
2385
665
929
5687
2698
227
2994
4284
1208
4281
1159
1251
1090
2341
1509
5867
4747
1597
1353
3049
6206
5767
3717
2398
334
5686
271
5737
468
4833
1811
5327
1230
4930
210
4645
140
491
5509
5985
5994
4069
1229
6014
344
5909
3965
1970
747
1836
4751
3785
4629
2877
4836
256
6036
1403
4638
736
3968
926
5459
5590
4270
840
5508
5008
5190
1533
5189
5802
673
1934
6053
758
1744
2820
1963
497
180
737
3887
3360
6179
1305
1706
5580
1749
5938
4236
1170
5016
6136
3908
4086
2874
4141
3291
3851
3296
3362
5823
4885
4141
4337
4228
5531
4713
1451
5284
5628
1672
6055
4882
4945
3667
680
3557
2412
213
4061
395
532
5871
1229
1418
5457
4762
1298
5568
1651
1455
3082
2803
3987
497
5228
288
3578
2195
73
1799
1591
121
5881
561
6156
2477
3045
1542
5893
1571
5351
3842
2497
3290
3426
2432
1257
4194
36
5073
5423
3274
4144
3084
5592
3522
2617
3834
2086
2099
3023
5789
5946
6016
5592
5470
1810
3998
2958
6020
5918
864
3487
2001
4105
2503
3074
1119
6147
1101
838
2955
5171
713
4533
1954
864
4260
5203
4286
2684
6228
2017
4638
3320
2181
5349
1962
1658
2592
700
4540
6149
5000
459
4355
2009
5016
1167
1314
4215
1660
5112
5031
652
5652
2873
562
3490
1511
4490
5036
4767
4170
2714
5585
6083
1468
2517
2254
2316
1929
250
1293
3905
1207
511
94
1576
2873
1586
2838
549
2723
498
3047
1217
3704
5719
2276
2804
2691
1903
5749
3199
5825
515
2806
4817
4476
230
5932
1469
4045
5621
5625
3266
960
3697
6037
1923
2928
1022
2982
1117
1130
4712
5749
3795
1328
2392
6059
3764
1255
1756
3251
3613
4798
1908
807
5084
5274
22
4510
4128
5014
1665
2004
5859
772
3423
2032
5521
4651
2620
4567
1511
5509
5231
4867
593
4468
3668
3644
2516
68
107
7
248
2072
4401
1653
970
3110
3984
362
5630
4166
5186
3387
993
2843
2515
3623
1174
4681
1892
1685
4083
1535
1253
3435
2499
5869
1174
1698
1818
1070
1371
3050
2997
1279
6089
5086
308
6088
3928
3854
850
4365
519
4793
2185
2729
1831
3482
5355
4923
6001
599
5853
605
1244
1047
4262
1510
2787
1258
2323
4089
3143
2510
1871
5048
5184
3618
5614
107
2111
1028
1609
3809
4925
1587
1345
2406
1138
5760
5259
483
436
2189
6064
4483
111
721
3305
2519
5102
1851
5748
3100
5473
6077
2546
4282
1276
5964
6040
3517
19
2890
5021
856
2759
1637
1274
2793
736
1919
4043
5539
4933
4016
6158
3433
134
3847
749
4404
3741
446
3619
680
4021
6213
2499
3445
2083
2677
94
2632
3266
5590
4737
5965
6214
5262
2840
2895
3066
4626
2094
2935
2047
1792
4121
2854
5197
5023
2741
5162
82
2646
2581
1429
1409
136
3825
4309
417
380
1088
4420
3895
1134
2818
4068
450
1238
1831
500
2150
1261
5440
3353
1891
816
418
1871
2125
3032
4525
5744
2697
3748
3822
4731
2467
2060
969
3531
612
1526
1630
1051
3682
2013
5463
2430
3154
5178
3095
2512
4406
37
1494
247
1161
1628
1314
1032
96
2349
5742
6078
2811
3839
3977
4770
5785
1863
2118
2090
5874
5919
5164
1599
5575
3754
353
3734
1855
1514
380
2222
104
1828
2507
3264
3512
2190
2243
5173
904
2748
5143
1849
3964
5280
2952
5265
4057
3499
545
3366
1787
1198
4185
966
5474
5451
5338
2140
2569
189
4989
4003
6246
2175
3268
4309
6105
2483
186
5314
4960
4080
1805
2780
3756
482
5082
4133
2906
410
4272
1512
3993
3831
87
6142
2155
2363
5149
1485
95
2836
2428
2647
4431
3390
476
912
3600
3397
4866
3238
4940
2861
4039
839
4982
4594
5342
2142
4372
2779
458
1975
5094
4063
4600
3007
1275
2262
95
3655
3538
2278
4923
14
2932
3737
3888
5183
2292
5164
3453
5070
2508
411
3693
750
723
348
278
3440
2936
4794
3060
943
1282
2173
4505
2503
109
4196
1999
5908
4966
4200
3504
1976
6207
2904
3554
325
1470
3091
2678
4666
4
6113
2428
806
4206
5795
5844
5839
2152
3458
608
3428
5831
5187
1382
1984
3629
1296
1530
116
278
4157
3813
5756
5674
3176
3573
5071
3766
4879
5677
5014
6089
2381
2999
4154
5864
1339
2905
1218
3634
1681
2942
347
1639
2134
2791
4387
5855
2196
1639
3053
431
2290
1979
1503
2963
5403
2270
4228
2155
4500
3573
709
281
1198
2591
2790
3449
4621
5493
762
649
86
873
5731
5698
3096
400
5596
2847
1291
3534
297
741
1358
3266
2273
4280
298
5120
5920
2138
2472
4884
5233
2874
224
1387
4319
5949
1149
3396
4091
3421
1233
5589
144
3525
3245
2869
5151
4681
5401
2576
3223
3143
1750
242
3470
184
1514
2260
2275
5031
1866
1756
1664
2971
5591
292
3056
1507
4686
5790
6048
3662
2714
1203
3090
5468
1996
5830
923
4478
5958
2244
3624
5962
5386
5491
5242
4567
2317
4016
922
4261
3552
2086
494
1480
563
4992
3633
1939
4309
2943
483
5196
2580
2310
938
3827
2746
783
798
2752
1406
623
3867
5982
3465
3645
2044
466
4900
3691
280
2513
5166
4578
5573
3345
276
14
1314
1327
261
3847
2750
5955
6017
2366
4671
4861
2326
5635
2782
1113
2613
1216
1088
2342
1471
1627
237
1251
5268
4238
1269
4390
6041
2120
2367
5107
5050
1139
2292
2229
5299
4441
806
2628
752
5356
3506
2643
5169
2700
4491
4444
4023
2387
3107
371
269
4403
3457
260
6175
564
601
1417
6109
3528
4906
4336
2449
5950
3862
5298
3146
695
5795
2
5665
1448
1041
2680
1390
4752
6183
5029
3741
5025
4864
4720
1099
1448
600
1256
1719
3766
1253
1646
4365
5166
2624
4098
5406
4100
5000
4445
3595
907
304
4792
420
1128
4074
5786
4810
417
2428
2993
4661
5089
2080
2859
1816
757
6129
2795
5738
2295
4976
4537
4433
2654
3677
4892
1523
4351
2238
4915
5093
1339
1882
2753
3413
431
3060
4610
1112
5741
4975
6118
2088
4156
814
3633
4208
1399
6157
4297
4502
5703
3135
5061
302
6004
3203
4066
4289
5414
6209
2712
577
5413
1894
4810
5704
4786
2156
6043
3081
1129
4172
2930
5798
2133
4287
729
188
4479
3532
410
574
131
2524
5375
3780
3731
3992
1644
2416
2938
2836
2847
226
5790
4325
1140
246
6223
409
199
668
2901
5243
2868
4539
1332
1705
3561
132
127
226
6130
2605
5302
2757
5634
5362
5973
3073
1178
5588
2454
4435
2113
625
3678
5630
6144
1265
5990
351
5963
4934
1429
3279
6131
5556
5310
3670
2114
2611
2108
290
1734
3061
2764
2369
2607
1785
4820
5666
4041
3494
5635
4127
4262
5162
4141
5276
5320
5994
401
5454
6250
2963
2221
4878
2682
1239
4250
994
2916
318
2490
422
5381
2176
5834
389
4838
428
4386
1647
2364
5652
104
1831
2801
260
4219
1834
5494
5909
2766
1318
3869
3406
6065
1010
4614
1225
1801
4639
1894
1968
4773
4032
6099
4088
1164
1359
2587
128
2705
839
6070
863
3329
2587
5855
1631
4032
469
2397
2762
3189
3784
1648
5599
4252
5320
4060
971
3490
2743
2876
46
2428
1057
5432
5948
789
3457
777
5180
2642
5927
2409
696
635
4472
204
3188
1800
2868
1749
2250
2161
2983
5711
2663
3596
6095
2329
311
6018
5165
5108
1439
1429
2572
1076
6196
2905
2583
993
2625
5629
3239
3129
5609
121
6128
1283
5251
5131
5713
4610
6211
890
5920
541
5622
755
2293
1823
5111
1223
5122
1256
3536
3875
495
967
2652
904
4583
2586
4782
3410
967
2356
1644
332
1185
1865
4923
1260
3306
2333
4414
2665
3198
3155
1043
2275
3696
420
909
2728
2928
4097
5460
913
944
4170
3731
4467
3299
2609
4608
2777
3575
6055
2383
2803
879
3150
3317
3069
5081
1552
2356
5421
2597
1344
1727
3054
2145
5267
3710
3078
3697
5858
2480
5353
4412
6259
4139
5358
1358
5582
5579
865
2570
699
5408
6142
196
1333
3000
4196
771
2441
4823
5575
5881
2709
6101
4193
3739
4840
4103
3424
4888
3192
5368
2605
239
5520
5059
5432
2749
1164
5274
388
3625
6035
6085
4642
438
3035
3285
126
3295
739
1084
5122
2298
1926
3449
2324
1420
1152
4283
4763
4726
2023
2963
3846
4808
2792
5235
2021
1306
4304
469
6193
1124
999
4976
2510
108
2692
4975
3147
1584
5570
6000
2175
5473
2386
605
2019
1882
517
5205
3473
546
611
6105
2200
4845
1827
5099
4154
791
4086
1813
2403
4519
3039
3031
4655
1799
4343
207
1171
549
3054
2597
3696
645
122
646
3082
5086
1573
1487
4217
4840
5207
2635
2551
3480
282
3659
6074
2292
245
1378
1923
3217
1423
64
912
2789
2217
2896
1162
5475
4184
81
2364
767
3322
6083
1641
4392
4527
4947
5908
4472
5527
1009
4763
2874
6255
2479
1025
1191
1330
103
1098
4771
367
6050
5493
4960
5861
1907
4056
5746
4330
2502
1044
3898
1305
5490
440
4448
5215
4027
5357
6071
1521
3154
3960
5211
1572
5131
5584
2154
1017
3196
3642
5337
3864
2300
2011
5100
2048
4755
4401
3465
1902
2362
4570
2966
696
3335
4798
349
4133
1926
1805
2948
5563
3419
3874
174
2712
5187
2146
5580
845
990
3056
2515
3376
3568
6093
1659
4970
4261
3401
382
3675
492
2562
3095
4719
4827
2581
6156
3213
2908
587
3231
5217
4703
3508
2176
2639
1059
4644
2802
4547
4937
6252
5697
5065
3717
5976
3627
2707
4056
2555
4891
5029
4031
999
3961
3273
3825
5179
329
5359
5452
5007
4336
4449
794
2600
5129
1005
2320
5009
5502
2455
3292
2686
4702
6098
3851
1223
2675
4506
1889
4445
3453
3392
3701
4269
2085
111
3610
3570
2432
1424
6248
4258
520
3981
4402
2948
5977
2738
344
1833
2422
2924
3620
278
4479
1139
2221
1410
596
2812
332
445
2319
2580
1117
5237
1818
637
6246
4012
3853
3915
1603
2943
5934
3541
584
262
4976
5150
5632
889
3381
3379
4032
3439
5800
905
1053
3694
3256
1940
6204
3301
2375
3282
5974
3922
2677
5734
712
922
1659
5696
5881
5542
642
5475
1919
2640
2705
3054
2388
625
1236
5660
4489
4491
1713
5242
2974
2142
4001
2383
1745
403
163
49
2050
6068
1704
155
3800
4348
5487
3895
4834
5376
5353
193
1537
2619
2265
4573
1077
5935
2678
1834
6190
5357
4765
1332
5584
4767
5674
4241
1116
2540
3864
5236
1932
320
3101
715
2863
4466
265
5296
1154
3325
3838
5939
5494
3759
5036
2590
5297
1797
1551
4542
3964
5204
5286
426
1623
180
3728
4222
281
3772
34
4105
1708
2925
5551
4924
1633
184
1213
6131
877
6084
3345
2451
3591
792
5134
3351
1213
5407
2459
4211
4839
2905
4178
3019
2239
1266
5014
2645
3171
2231
1061
2863
5454
5852
135
2280
1829
5418
5170
3513
4747
1233
2055
3931
1423
2022
5791
4740
2418
2984
2503
1575
4458
6245
5286
5734
2876
915
4492
3255
3759
4229
2656
1535
3154
4876
5068
5479
3824
536
2445
3136
2880
5132
1082
3671
2647
4829
2902
335
1422
2264
1586
1980
2657
2394
3605
5104
3942
1386
3806
4939
360
4589
496
3279
2656
3414
1666
2870
2373
5529
4386
5454
2368
3690
1360
5044
5867
1209
384
5253
1551
1868
1772
302
5093
4377
5473
5826
2229
2856
373
1718
315
521
4157
1937
2539
5213
4205
3297
4345
4379
3257
3654
2147
3367
1397
5214
1890
5505
4685
4435
2599
3491
4141
5638
4141
5402
3492
873
5585
3012
5740
5712
1015
3508
3627
5871
3257
1493
5662
4984
1167
3512
3570
684
3821
6122
4951
2697
1220
5227
1252
3640
1051
3801
4198
940
2646
2997
5615
2896
2878
2811
3235
316
4521
497
5826
2555
3158
651
1388
618
528
4438
5184
4149
3990
1003
1384
5008
5274
3141
967
636
328
1331
238
1104
4192
5981
3349
3682
1185
1183
579
4075
2492
218
993
3500
4648
1874
1347
3620
579
3747
4160
5475
4210
4878
2983
44
5120
1617
5776
2071
1273
4565
3362
5881
5570
4976
3168
3909
2200
5487
3002
2237
4365
1113
5801
1190
4940
5214
4059
3809
1217
4360
1946
5436
1926
412
4581
6217
5169
5529
704
4433
2749
5170
1164
4028
2761
865
666
4957
5376
5784
30
4085
4164
511
5034
3726
3802
3056
3229
4146
4854
1045
1094
2979
5520
1929
756
4790
2290
5506
5723
5539
1030
5598
4302
3812
5292
2903
5100
2540
741
5449
907
6048
6243
3396
911
246
1314
5176
6236
2255
1245
2142
2595
4535
5605
2832
5874
1204
5558
1688
3832
1295
5702
5493
2991
2154
4604
540
338
4779
280
211
5547
2522
2497
3780
5410
3536
796
997
3704
3016
4182
3615
3026
39
4289
3621
4022
5930
2305
4123
805
931
4291
4984
3288
1770
4268
4658
160
2155
6127
937
5588
1946
2000
147
1897
5387
1588
5747
1318
1208
3534
5720
2055
292
1061
57
1869
413
5157
2335
2320
2458
5996
1099
4451
1796
817
3482
5657
2627
5111
4539
1881
245
2616
5141
309
5519
6051
3234
2257
952
372
3720
3650
3111
5275
1687
1690
1217
4631
5124
3294
2136
5785
4460
6163
1567
4478
196
339
5667
2829
5842
2311
3415
5998
5158
2286
96
4275
275
5349
5655
4514
2441
5855
2573
2093
4339
2497
2306
3194
2549
4338
4825
6037
5138
413
6239
4564
5800
4136
4579
2987
4477
4681
4231
5538
1517
3203
510
4317
70
602
4030
2237
5245
3197
4632
1433
5270
5810
527
1400
1544
3006
5813
2210
2210
3134
4990
5838
4398
5220
5563
4415
5681
727
4786
5271
4860
4630
5198
2353
2606
2325
4601
2343
4298
2325
4930
2592
3955
2466
5040
3041
1955
5676
1589
3875
5198
4203
4150
33
5106
4049
3116
5783
3597
5625
5892
2458
4701
697
1342
1448
5315
4885
815
5704
5290
271
4342
4699
1415
4796
1887
3538
3084
1861
524
1456
4626
1303
4564
2464
472
1209
3472
17
2301
2432
1736
4130
1574
3485
4844
1924
5565
338
185
2539
3142
4455
4888
1384
869
3580
6054
3890
3365
2821
2842
5597
5404
5339
6051
4560
5483
6157
1449
4319
782
5842
459
4300
5277
1517
4671
5503
693
837
2735
3157
1522
2492
3421
2593
970
4763
5554
1390
5583
5263
2219
1002
4619
4354
2852
4465
2937
2733
5098
1903
5907
234
357
1091
4451
711
4679
3939
5331
417
2976
5685
5286
4968
6015
3121
5521
3459
5974
5818
3090
425
4111
4283
3540
5799
3011
3406
920
4197
4407
3655
3241
3281
4221
28
2876
5301
4588
6090
3370
1226
3793
2996
3490
753
5676
3103
1038
19
1127
1477
2094
5149
5674
1660
4849
5557
4499
4715
5782
2748
3580
2881
2911
541
5072
602
5144
2480
6247
2642
5318
928
3318
5517
670
828
2615
3901
878
588
505
3119
751
4024
2296
325
3510
1213
1389
1093
793
5020
3546
6008
2521
5913
3765
222
6079
72
6190
953
2504
576
3750
5865
754
680
3684
5242
864
304
5007
1598
701
1005
2482
158
3578
729
2953
5100
194
6099
4223
3431
6184
2265
4102
3843
4953
1769
3987
109
4723
2473
2370
15
1985
135
1935
13
1332
3625
4478
3479
448
4046
183
819
3397
164
5054
4759
2285
2689
841
3808
1551
1757
2704
3310
1653
4410
2985
1936
3
5647
946
680
745
4359
3508
1692
259
2862
5350
3984
5876
193
6171
1372
620
4387
2145
483
5530
3856
3179
2070
5487
1938
5874
470
4673
1836
5200
6197
3769
1351
881
3516
44
1073
4031
254
2800
176
4746
4109
3372
1491
1934
665
82
3488
4878
4819
4785
130
1797
4857
1667
1955
786
6108
5967
3991
1624
631
2140
3880
1148
2102
4972
5969
2921
4275
1688
5805
4199
4433
550
3064
6088
2915
3791
1837
1556
652
4082
4716
4331
2040
3539
5577
4049
4516
1649
3547
417
1416
3337
5542
511
2970
1167
3558
4069
1706
2474
5320
4445
6089
4304
2724
485
5264
3924
125
6204
3873
2897
266
3009
5093
2876
2795
4642
6181
1573
1523
3760
3755
2151
5113
2533
4249
4490
3146
5187
4205
3715
93
4679
3796
3947
1470
290
2841
1752
1389
3942
5991
1989
1496
5900
247
5897
3928
3223
3895
3456
5469
3579
4387
5382
1170
3235
3095
2913
5535
4535
3571
3526
3909
2586
4687
4435
6007
2758
982
1144
1476
4317
2201
2116
1274
2546
5982
2127
5403
5241
1444
2647
5027
4380
606
4735
2188
3177
4071
4452
541
2261
2312
1579
399
4630
5109
1916
11
4257
4528
3411
318
1906
6120
2924
4491
3069
1714
5133
4853
995
1289
1272
4993
2270
1603
4798
4839
5282
2993
4923
366
649
3460
5371
455
2498
5359
3266
1278
2943
1233
4482
1047
896
5923
4303
4916
1616
1235
1112
1308
2739
3308
2432
989
289
3274
4209
1575
6171
3403
5778
3913
2224
2255
4177
4277
4011
4721
3405
3683
664
846
3000
1328
2901
4139
4819
2993
1291
3765
351
651
5830
2413
902
173
5509
851
4087
305
984
5026
1769
6017
348
137
378
3814
1973
2906
569
1780
6208
5776
1473
968
6110
5032
2765
3801
766
5208
3026
2991
4295
539
2780
3587
2395
2778
4025
4420
644
6016
3003
3315
4939
1370
1829
2441
351
3522
510
3075
3084
2649
5450
1747
4786
1165
3417
82
4886
5884
2034
5042
2079
5311
757
1853
1985
351
321
4765
3260
5765
1714
4595
4864
3918
106
3386
426
2298
2311
4693
326
1619
3602
4593
391
1762
691
3974
45
3573
314
5986
3674
1960
3680
4687
1877
1658
2842
4210
5943
2408
1776
152
5955
1313
3470
2418
674
2602
4510
4173
4096
2428
5269
5463
390
3376
6123
1146
3569
4755
2838
282
3591
2959
2511
2543
3018
2579
4417
4093
2294
186
2294
4416
2313
420
5620
2600
58
5681
5273
5877
2985
5210
5436
3876
559
5823
1709
1082
6137
5323
3931
2243
5379
5063
3384
5647
2992
3078
21
929
4237
2595
2905
1157
4896
413
2913
2468
6011
3615
1166
5719
2937
1291
1135
1109
1793
1726
5989
6133
349
5707
5896
844
1690
5289
3332
2660
5543
4223
5015
1787
3064
5357
1235
2928
2954
2965
616
5742
4864
3329
4631
2432
380
2321
972
1612
1309
1826
4558
4704
2881
1208
4618
3241
2899
5833
4904
46
252
874
5074
3026
4834
3931
5521
3428
4913
5820
5101
4535
2966
6175
4101
5784
5351
2491
1541
3787
5666
2594
10
2672
5897
630
3528
4978
1587
2574
1570
2857
5437
1935
4646
6018
1360
447
4987
355
2911
2459
1681
3026
1813
3040
5272
2842
5616
1176
770
3637
2269
5378
1571
3434
3738
4658
579
4928
1258
160
5127
4128
6248
1846
4164
5891
3557
377
5385
2215
563
5652
139
5359
45
3241
2332
5520
5833
5438
3194
299
210
2820
5502
937
5203
5974
718
3717
6187
4644
3307
3632
2507
5667
811
4885
3970
2226
502
1765
2390
2444
2928
6143
5033
3893
2605
6156
1897
2052
2741
5023
1000
4121
3136
139
1867
2599
1141
6012
3027
1665
3126
3561
2360
4643
5460
1673
1663
5074
5816
2805
714
4520
3727
4601
4958
5361
2563
1635
1588
665
1332
4972
4256
6104
4863
3090
588
1442
5065
2958
4154
2997
4519
2495
19
2492
5102
5138
27
3344
5934
4014
2277
5106
2645
65
935
1956
4961
964
5754
1983
1518
2563
2854
2655
3444
652
2381
901
2621
5705
4331
3817
3224
922
2786
1687
3973
5873
4283
1756
1819
4698
5561
271
1397
855
6045
2951
3185
4321
4412
3137
1004
285
594
6034
4103
1937
1899
4114
4554
5760
2287
1863
2307
1341
4778
5685
3838
5917
4795
2500
3261
2415
1920
848
6003
5604
3644
330
226
5904
2320
3283
1553
4571
175
6038
6159
3475
5156
1971
2919
1955
1146
5595
2866
1673
264
3544
516
334
351
3157
2102
5654
2913
2479
3052
4227
1552
1699
4071
14
6228
1881
4089
396
1617
902
1218
5584
2090
5562
6152
1547
2275
832
3523
1878
3283
1349
800
1420
4242
793
79
4531
3576
2790
3063
1268
4568
593
1769
4299
711
4295
2953
985
5234
383
1331
2805
1260
4641
4234
3067
5667
387
3679
636
467
1777
5609
1924
2972
4156
5280
121
6146
1411
1156
5871
1332
2042
708
2054
1833
917
132
2773
3020
3281
2337
6074
449
490
5736
223
3734
5555
255
5314
948
5422
1091
3148
563
4973
4541
869
5357
448
4364
6185
4370
4930
4221
1705
5350
295
479
2955
2960
3707
5314
1391
1016
2207
3979
5491
947
3009
3945
774
610
4174
359
3790
97
4205
4854
3343
5311
320
1970
1581
1072
4698
1686
5754
6246
4941
4801
3298
4037
3173
1176
5623
1494
630
3234
3872
4339
2372
4926
166
5945
2451
5528
3578
2006
3647
3951
1831
4475
1998
1887
3544
1763
3130
5639
78
834
3583
2415
1935
1220
4360
1329
5936
3808
5770
2169
1001
5833
5793
1814
4490
3478
5375
1615
5203
5444
5656
4328
4613
113
1836
1010
3488
1490
1161
5934
3080
3692
2557
5695
2512
357
1124
2879
5704
2211
5458
5585
1958
1055
5451
5340
3800
1312
3956
2347
3001
1121
3340
796
784
3989
1985
2832
3151
1870
1256
5750
334
110
2299
5880
4824
3763
3812
6235
3983
2917
3128
3349
2900
2982
4175
5126
5642
3878
1884
2404
4240
4645
3606
1897
5558
5923
4208
3120
5800
5939
5930
2715
1682
4247
229
2087
504
2631
1085
5057
3407
2044
5079
5454
4118
1505
4333
4763
5070
2318
4786
583
5932
554
3194
5753
153
5039
3371
4682
1004
572
3744
4736
2913
2643
1031
4690
518
2653
3878
153
1482
347
2487
527
4548
2214
1052
4686
1121
1160
4781
1112
4178
1502
4281
4062
2881
930
1877
5851
1106
390
4613
3767
655
586
3929
5561
4656
2988
1212
4587
4214
4166
5847
4932
2170
4838
208
113
1254
4898
5271
1569
2853
2389
4406
5986
812
6055
5462
2590
2398
485
6250
2830
2876
281
2859
4119
2977
5889
930
4022
4421
878
2361
3798
4141
1409
5970
4670
3536
5877
3375
2932
1658
6205
4178
5562
3196
5310
1922
5431
4108
6092
3510
1058
1723
4118
4822
184
4102
1235
4157
5044
4099
1853
3388
1944
4876
1934
5358
1834
1482
1006
393
5689
2363
988
5141
538
1934
5691
2573
415
2241
6164
4370
3860
4493
5863
1544
5069
4050
3448
2616
4547
4650
421
5416
599
5547
1289
343
349
901
3816
1140
3647
3774
2102
454
4650
1238
4994
4275
510
655
4497
1017
3538
2126
3619
3070
693
4321
1090
6052
45
3812
273
373
2938
1303
1824
2573
4399
2885
583
502
994
2138
1960
2346
4914
1092
3623
4760
535
3185
1246
516
809
5106
1242
5881
4656
1903
2517
2008
5360
3910
132
5643
4770
3866
2373
669
3900
5297
1951
2830
5255
2372
3986
2944
146
2543
4447
4216
6118
1040
852
4478
2800
1124
5888
1139
1879
6117
478
5293
1197
5236
1277
3146
1598
3350
2185
5611
4440
1711
4376
3216
6013
3739
4304
3713
34
1868
5300
3683
4323
3858
4514
1700
2745
5266
5033
5113
902
5818
1381
5183
309
1161
2841
3934
2778
219
2555
370
5083
1777
10
2068
1256
5163
1629
5640
2033
6111
5036
5469
5371
3434
4190
3250
1923
3898
5246
1204
3891
4166
1798
5629
926
5303
1505
283
5487
4519
1500
4587
892
2288
2750
110
517
836
5042
6114
4165
88
2066
4270
3474
3044
1714
2879
246
361
274
4454
1077
510
1352
539
4257
2504
3626
2725
4216
1712
1828
3293
1497
4636
767
4434
3224
5191
798
3082
4984
611
3054
2106
5975
4573
4634
2367
4661
4518
884
37
841
2120
632
1562
5173
125
1014
1604
3825
5238
5758
6065
5664
4832
173
48
4231
1943
1799
2885
1667
5455
2613
4533
3706
1640
3123
2083
6122
1771
3602
1355
6109
2282
789
790
6160
666
199
1585
5447
3195
4543
1522
1575
1798
1732
804
2548
4260
5786
1130
615
5041
4141
5975
6099
5581
5053
3835
2123
4030
5431
3538
4444
220
3853
4898
981
5454
2660
2402
5221
1345
4487
5001
4332
156
2708
3298
2923
4382
2118
4422
898
4249
2396
836
5376
5628
1996
810
3801
1792
4084
3757
1583
3292
5601
4130
4316
5363
834
2564
3900
4267
826
1042
156
3167
697
1522
1843
2838
5821
3640
2749
3771
4032
5149
5182
5610
6135
4317
960
1113
1135
1331
5929
5492
4388
200
3216
6059
3531
2239
3787
1577
907
4544
2859
6198
572
1328
3732
2991
2656
3305
4960
4346
603
520
487
4430
5507
5199
5328
5728
5690
1834
3235
999
5992
3497
5142
2347
5024
1188
935
5364
4582
4143
4861
2359
1763
5064
3235
6061
6090
2873
4691
1380
1324
5074
2914
2760
2215
5837
5213
2470
319
1509
1412
2398
602
4448
1711
2958
2402
5309
5707
1871
2221
2156
2550
1492
1028
5451
331
3233
3177
5755
2409
5987
2684
468
4964
501
4204
5982
4191
4812
1944
3215
2700
3296
1141
5586
3525
1038
3500
2891
5123
4406
2186
5603
806
4538
3530
2419
625
2702
6234
2143
2904
6191
1981
1584
5288
1899
2330
2687
5738
2407
6168
3794
5392
5113
1006
2058
3469
1717
4894
3027
484
1565
1045
1423
4305
3929
2797
4609
4644
260
5880
4674
2343
1314
1337
1315
3998
4876
4545
179
742
3314
1592
205
4939
337
5517
1117
4899
4508
1120
5939
2385
3741
4664
1484
3523
5268
3390
3674
4032
1039
1653
4648
3009
5094
2154
1454
3147
4496
5452
6231
966
1060
5678
4648
2518
4792
4498
2878
91
1907
4606
1088
1311
861
4920
6015
919
6037
5799
4960
4390
5980
3002
3188
4583
2841
2422
3367
1594
5606
3016
534
3368
2784
4443
323
760
2403
3188
975
1069
5373
6101
667
4597
2117
828
2512
3311
4702
3142
3176
1985
3078
4386
3231
1150
2209
460
3256
4932
2561
4572
5265
286
4487
1188
3085
377
4661
3483
892
2061
5687
2227
482
2211
6162
542
5102
4645
5024
2681
4779
5666
4661
5858
4956
4980
978
4368
363
1740
2664
1325
2608
2249
5397
3668
4388
2734
643
2857
4886
3382
4502
4190
1199
2302
43
1851
942
3978
3322
5594
1675
48
1350
1958
5411
774
1322
4407
3814
1279
1216
4099
1681
2870
3609
4691
4275
1322
3100
3188
5440
4814
5611
773
4257
4457
4304
3639
6155
3818
5406
5684
4325
1347
288
2729
1810
4888
347
3791
1944
3424
2935
4057
2055
475
2944
933
4178
3466
3652
2808
1588
1047
5169
5968
5319
5781
5937
2161
3766
3473
1878
5696
966
3724
4643
1864
5578
5166
2246
358
2512
5303
4788
3728
3560
5501
923
2162
5069
3825
2335
1399
4675
5603
4367
1315
6223
3429
3495
2762
146
4219
3723
5512
4284
6130
5275
4947
6154
2364
3703
1527
3960
2093
143
1280
3729
4764
628
623
6064
571
2665
767
4779
5320
2128
583
5748
2361
5441
486
4640
5848
5425
4710
2653
4942
5013
4597
5568
1266
3846
5518
58
5
385
1509
197
4935
3539
5718
5443
925
5559
6112
1532
5615
4089
5838
2553
3942
3095
1320
2275
5988
2027
5736
4692
4267
1468
255
5792
3003
6162
3499
156
1563
6113
4890
3284
1828
4382
4693
5062
503
448
4168
4945
204
5402
4558
5148
5331
298
3061
6152
155
2591
2704
1212
4406
2308
5593
959
621
1596
1538
1209
2388
1843
4487
3311
4146
4575
751
1722
4967
5181
1253
3659
291
2422
2182
3940
5601
1673
3908
6003
3128
3535
2185
4731
1954
2542
406
4096
426
5676
3371
825
1832
3924
1730
4050
1064
2511
5532
553
4155
3032
3967
3421
516
2807
1654
476
239
1424
2438
5627
5597
2428
4883
3116
2679
3685
1367
3088
3072
5022
835
5536
5885
3354
5153
5032
3820
5830
2837
2844
643
303
3460
4707
4823
2347
6042
4878
1157
5851
39
3640
5372
5902
227
3550
1765
4065
5456
4779
4237
1933
3553
2173
3061
5719
872
6174
5780
1435
4120
3439
6246
3202
5430
3587
1152
4111
5550
2817
1572
287
4075
3439
4871
6136
275
5943
5266
2878
2324
5132
4742
5463
637
5550
2012
263
6109
4999
761
836
42
3226
5780
5495
4277
811
2386
3714
3527
505
551
5559
2289
4340
1936
1551
1849
4506
139
3589
6108
3411
3235
5250
5919
458
4105
1416
766
3432
4452
5815
4244
3146
4298
5192
123
5791
2115
5062
4535
4534
3887
4211
3706
5942
252
4619
643
6191
2910
85
2916
5473
3960
4219
3667
4097
3120
464
1343
1233
2695
5305
5313
461
4099
764
393
4908
2373
1837
1076
1360
6119
3164
537
81
3671
3608
2503
1949
874
2374
5631
4930
1297
5829
3025
3587
1966
5270
3705
5260
3043
5650
1401
4568
5711
3423
1610
3141
3342
5076
3749
3631
5604
3309
2923
4214
4861
4890
5073
2142
2996
1444
5386
3733
4498
4078
2062
1616
2734
2815
5428
40
3436
4125
132
1288
4263
4510
3028
5071
5744
5571
3994
4819
581
5918
4336
857
5162
4216
1795
2821
1907
5116
2140
4371
950
3020
4580
6032
4501
3306
180
375
5173
2035
3331
2991
926
2448
176
6221
3104
3922
2679
924
2370
3895
3671
3385
3417
1227
3130
246
2308
3249
4034
3771
1203
1408
5821
2447
2902
4159
1980
5225
5388
5341
4332
6259
2657
273
4142
5532
5562
308
5277
5030
1892
413
5221
5259
480
2055
5151
2273
818
1384
5764
5958
36
4062
5580
5109
3181
1162
3629
5807
5448
1956
1569
3766
131
3602
3117
6000
3618
5454
4826
3809
3014
175
442
6210
4294
6108
316
334
4173
5151
1194
4963
3680
4157
177
3526
4399
3903
2651
4617
5576
1403
5577
4622
2913
4705
2942
5448
844
4824
3440
549
2964
5965
2114
2931
6146
2594
1323
3829
1890
4412
335
2179
1752
5075
1541
5759
2839
4483
5149
3750
5522
1652
3223
1829
1902
4588
3720
3297
5076
198
5906
3222
2467
3283
1396
3325
2006
4244
3955
3886
5404
2290
5368
3545
1481
566
670
5746
1198
493
3432
1434
4264
5653
5714
1601
5538
5331
5052
706
1541
4631
5148
2541
6078
3818
2240
2777
256
3671
3433
2777
1407
5994
76
718
765
743
5206
696
5671
2810
3499
1451
2679
2080
4035
3040
6150
84
4134
4423
3029
2041
5022
4032
2622
1733
192
5171
5809
783
3391
3926
2428
3331
5200
4330
1813
698
5763
837
3706
509
4352
2554
1847
5801
1847
2040
4141
5137
298
4925
3550
4302
4124
3344
4686
1312
4606
2986
121
3444
2934
4821
5575
1093
56
1947
789
1202
839
4985
4928
1326
2044
4109
1376
2910
5895
5208
188
1913
1695
2232
6182
3963
4111
185
5467
4408
4954
2526
532
1745
1283
4071
4778
5316
424
1912
5745
3492
333
6189
3141
1033
5074
4244
5890
2225
6142
4875
1302
5665
1166
2771
4555
5843
4222
5116
4024
3400
5666
4828
3134
3239
2745
4798
1860
3900
6251
5571
5372
5748
3094
367
1579
3318
5952
1314
3325
871
996
2307
4483
3448
4102
1547
890
856
4780
3899
4225
2972
2108
172
1795
4526
1496
3975
5398
3786
5390
6036
3752
2246
448
3384
5928
3430
1139
944
4561
3304
3361
1035
3364
3102
3548
819
2416
312
2779
5440
1179
261
6024
6217
3315
1398
4244
422
3386
1858
3496
2297
5920
2530
3457
2333
5996
5952
5030
4122
1690
4264
361
1483
3892
1443
1340
1720
4703
8
3078
3381
25
457
5932
803
2813
1639
4493
4052
4992
594
450
5911
3435
3479
2251
2584
6002
465
5959
3962
215
3078
3632
414
408
1087
1293
4174
227
4112
5926
2587
952
2774
5326
1551
5635
728
1104
1027
6174
4744
2444
540
1958
178
2572
6191
3026
2939
643
4639
1038
4448
3663
3658
4579
5843
1368
4791
1598
4627
3681
6123
731
3464
5126
5733
2995
4250
2995
1928
5635
3083
2613
248
1610
2699
271
1428
4869
1164
1881
1455
105
2984
1572
366
3277
2134
2005
3150
6067
1731
1077
1495
4070
3665
4273
1672
407
4005
2420
5180
3892
207
6158
4222
3573
4046
5260
5797
5194
827
2651
5490
3694
1446
4601
402
919
449
612
2721
5934
1174
557
4469
4878
2479
4371
3557
3165
3613
830
2145
2619
2037
2819
3587
4256
1382
108
1148
4497
441
1254
805
4711
368
2197
1738
6204
3159
2528
1632
2302
5877
1952
1752
2230
1961
956
4143
1062
4233
6101
1501
3020
1195
2239
326
2947
5525
1097
483
3743
1233
4661
6024
6233
2136
5896
2806
6101
4460
2225
6064
2661
3595
5028
1635
1939
6012
759
723
4518
2294
4065
1222
1294
727
3940
3104
3286
313
4085
1069
611
5615
2089
5802
5988
5780
715
590
457
1080
6101
2249
3033
4814
3881
2064
2592
190
709
5284
4437
3600
1711
1342
1549
3221
2803
3972
177
443
4763
5945
4642
3099
4426
5075
2956
217
1212
2526
4772
411
690
1338
487
4760
121
885
1813
621
1974
2279
5431
5551
565
5427
4153
3800
139
759
4259
2306
3651
841
2199
4678
783
940
2477
1538
3533
5818
