969
158
2070
1182
1993
1324
2003
2131
1869
2116
685
409
1926
452
1400
307
843
254
2145
968
2015
1716
446
630
125
338
1567
2329
42
158
202
1230
170
1398
715
248
1711
1914
383
316
895
521
51
165
1756
334
1622
674
1167
2104
983
213
919
2006
516
1098
728
2194
1969
588
1093
2180
85
1977
1622
579
1088
168
466
1993
194
1752
152
876
2007
1536
49
258
124
1797
760
333
1465
585
2322
196
889
774
2081
1605
2112
1612
96
2251
1255
1609
512
1201
1779
198
434
2170
2096
410
106
168
2205
554
1480
2045
926
1356
1905
1680
1846
2058
473
817
458
2235
304
1012
1550
1894
259
474
1868
2219
1418
1199
2131
1554
2048
2224
26
1995
259
1599
2197
639
1513
57
477
734
568
1375
322
2102
486
2185
2010
1641
917
1830
917
1640
1367
2034
1675
1290
2338
1299
1256
576
319
115
140
1270
1200
2119
1192
120
1428
929
1365
299
2039
2172
1853
1263
240
1512
1207
1995
1484
1749
600
2199
1691
50
176
427
725
1135
618
496
1520
1220
1226
68
1773
2345
2325
2115
42
546
1482
1761
1823
2068
387
375
2113
1131
994
1245
2308
463
2111
1919
4
226
437
2069
700
928
1042
290
1757
1709
199
1612
223
1741
403
273
1535
1878
1655
885
796
223
76
396
1409
1689
822
1433
1711
461
715
1392
2161
1426
788
1533
2029
1049
1618
1830
733
1672
816
1051
2107
298
804
642
274
2312
2201
1373
2087
1356
109
2189
2208
2350
709
556
1059
1119
1154
1091
1775
1407
965
1667
281
1552
756
2292
70
397
2236
109
2088
1213
479
491
955
1256
699
1241
2001
245
225
1965
2027
66
1440
1097
729
1161
898
1886
1453
1580
214
746
796
1251
1395
1532
1440
666
192
1905
13
1914
1625
830
459
554
623
660
637
2192
1916
902
730
694
1306
1557
222
322
1778
1282
563
1089
445
870
1637
1307
1879
1827
1971
517
64
1007
858
2417
776
1912
1093
203
1370
1823
2150
1974
1270
2247
39
749
781
1039
100
155
1246
1008
2090
2322
922
40
502
2316
220
2319
940
1873
2179
1000
1926
1426
1189
1426
985
794
1883
461
524
430
483
1420
1281
671
2218
1948
980
1616
978
30
837
1492
2375
1704
698
2109
958
1405
1023
1195
1746
956
811
1296
1093
306
724
360
484
1915
1134
690
1195
208
1129
969
856
491
250
133
1454
1506
2065
646
1578
117
852
232
2293
782
1471
1998
1389
1566
595
288
395
1126
1981
1263
282
1629
1798
1368
2267
957
113
994
788
1154
1878
898
2395
6
301
48
815
1483
482
2059
1082
1856
1280
1974
204
1503
1179
182
647
780
301
305
2336
178
682
2369
2373
1094
2321
1922
1214
2337
207
1990
803
684
989
1563
995
332
1234
1771
2164
340
1238
19
2222
2390
708
282
177
2374
115
822
139
1022
1676
1453
1595
631
1995
1165
2061
1597
1335
1362
2140
558
1098
566
430
1653
2365
659
323
283
382
1757
2307
1443
2020
2235
2294
1294
484
584
1951
902
334
387
716
1528
2166
1732
614
158
785
238
213
1742
1223
1873
1308
1917
1267
957
155
2231
1468
957
2345
732
320
1407
348
2270
187
1697
1815
917
253
1413
2392
1125
1115
1678
397
571
1184
1182
2254
254
1765
2416
808
1309
329
371
560
398
423
1646
322
1986
2184
1760
1593
644
1376
676
505
2385
1101
733
200
130
904
1979
2145
2288
2117
161
35
568
1699
52
503
1336
701
558
2014
542
2199
689
1242
1856
2040
51
59
1286
56
2045
1014
87
2402
752
2214
887
965
1756
1131
1418
2153
356
384
903
489
1032
1909
1423
727
110
1298
1181
1245
1684
1379
988
2087
347
1244
1107
830
765
749
837
1064
2409
432
1448
1353
1640
759
189
1022
2263
982
930
176
1876
1113
1297
945
1035
843
1861
1844
1733
559
1606
1183
1026
2316
902
1702
1187
2412
1167
1630
1578
1341
1857
604
1895
1964
32
217
1630
2268
35
759
2129
560
408
286
1260
696
1992
1860
1352
2314
1371
1302
146
77
1217
1169
1967
427
160
1222
2313
965
942
2183
65
259
1500
1166
2257
473
2257
763
1346
1917
548
209
934
1471
117
626
719
318
1906
2026
684
1348
1363
1983
566
576
1661
1871
2111
952
1087
1165
923
632
1408
1369
2291
435
1960
1079
43
517
1290
800
1401
1260
683
173
1076
1077
2108
197
2380
1806
1976
2274
610
637
2017
1928
1572
1190
333
242
528
1066
600
822
1445
1054
2348
1575
904
1868
2394
1457
1641
1861
1748
2330
1826
1915
1281
1653
93
1878
1200
1040
2245
1386
1081
958
1196
1107
626
2023
2252
722
922
1256
2119
1596
1096
692
1254
1474
2211
1726
93
211
1663
2340
2193
374
2180
1076
1148
323
1211
1881
2299
1129
404
338
2174
1852
223
1915
263
2152
404
997
289
162
54
661
1816
1702
941
1269
1650
919
472
1028
1450
1692
445
683
2294
367
1564
1908
1330
1220
1251
398
1715
812
1936
1475
2386
1115
658
2144
254
1337
213
575
986
577
797
135
245
544
1982
332
2188
1305
1461
670
1232
2294
9
2197
240
879
993
83
839
634
246
406
2112
1436
1589
1880
1300
136
1997
2349
2377
678
883
1348
483
994
411
1807
2027
1562
2128
1717
893
2386
1901
89
1932
120
67
1321
2322
756
1187
1005
278
671
1352
2154
1105
687
946
2116
1815
1622
170
472
1871
2381
1138
1190
1380
739
1581
1187
1831
113
1848
1359
1031
1489
1712
1084
1143
706
2353
1695
1610
2335
576
1671
2378
930
1576
707
1835
537
1095
1399
447
1857
11
468
1310
2060
1013
1082
1448
161
1478
632
1039
570
797
1772
1080
586
78
740
582
1961
640
2325
850
405
1991
2138
1838
926
2345
2181
57
2307
2210
1482
357
1960
535
2121
382
484
2311
1783
638
108
1574
1124
2323
1085
899
85
1125
2132
313
817
2051
820
739
30
1390
1706
429
117
1099
549
115
1906
1425
1092
1324
1267
910
1
2092
2188
176
2143
622
1966
1789
512
2117
1073
2364
601
207
1219
839
1136
444
1186
1558
977
554
161
1633
529
2074
147
2355
1223
2387
182
2383
1080
547
1696
2395
483
841
1324
741
1338
2042
600
2322
1024
761
315
603
240
2375
1710
1842
987
445
1903
625
110
1271
2154
346
2035
193
932
1822
977
297
1758
1901
1703
464
2260
917
2279
680
1371
1831
2073
1536
92
1731
2312
1714
739
1810
463
2069
1361
981
1196
30
1618
478
1813
2281
1750
1244
2253
98
1755
925
352
863
76
1755
631
441
362
251
2059
835
1332
94
436
1150
1804
283
1745
1599
2205
518
1479
1599
1848
1479
2128
632
2120
918
1707
1986
1214
1428
229
1173
1225
804
1022
171
915
1527
1143
578
602
1993
1772
663
2046
592
1955
2290
348
1472
2391
190
2119
2086
370
1666
1866
587
1318
1837
883
2024
452
831
860
1440
85
1001
1377
550
1808
458
861
420
276
637
516
1581
1391
755
958
1587
813
823
291
70
492
2085
44
970
280
176
19
2403
983
2380
2311
1814
1590
1738
2221
892
727
827
1579
1955
649
381
83
1195
797
1146
1427
874
1063
62
729
1875
717
2300
1442
674
1620
33
394
13
1978
413
1263
51
247
2148
609
745
1724
1824
1250
2286
2093
1201
1654
325
135
158
2223
1594
819
1244
1892
2090
1422
1073
52
1880
1427
1909
918
2256
1882
2241
1108
488
343
1514
712
1602
1223
494
1807
1768
1694
1558
617
1395
431
1759
1546
619
2304
883
1333
1046
875
2196
242
1880
1443
1369
2321
2074
79
1885
721
1670
34
712
883
726
851
636
786
463
1455
1917
713
98
185
1838
1080
877
2398
1860
775
1187
1160
1179
835
817
1389
523
1071
1998
856
1212
1008
1432
1092
2277
2033
1829
81
1427
499
1153
328
2128
1385
1512
1659
1815
84
1420
306
811
470
1629
908
1803
257
721
1490
2033
1675
84
1819
2247
1868
1573
1997
2351
1179
1216
756
1207
886
1814
2006
2157
1502
187
2183
333
584
363
2142
1537
899
225
1840
1214
882
2286
157
813
1897
1629
2361
801
2056
1184
6
725
1812
2418
425
2410
755
2276
135
2150
1667
1239
501
2133
894
2323
2388
500
1157
26
299
324
423
61
70
1821
1634
1084
2045
879
1709
470
2118
2159
352
1763
588
363
2050
477
777
2369
816
266
2047
758
704
1664
838
918
1661
560
1670
1356
1273
1242
937
903
593
641
1025
617
1716
1531
713
1629
1084
1219
1024
1352
586
1858
806
40
782
362
1738
832
840
1398
46
1205
662
464
1189
1675
530
980
1259
53
578
385
1126
502
1823
1334
583
2123
1420
1255
1322
505
685
2015
988
745
908
1694
2313
1617
831
788
1199
66
84
661
2003
608
411
804
682
2361
202
2419
799
2338
1639
2077
40
949
502
398
2106
911
1141
1692
2222
106
331
2323
202
1530
681
1819
1978
142
1980
743
985
440
848
502
632
1137
256
779
1165
1298
2332
2238
740
875
832
1280
1503
394
1776
640
1669
2097
1802
1987
1190
2070
742
104
1009
915
1305
1042
1211
1646
976
2102
1891
2128
753
1057
644
1546
794
630
471
1881
858
2362
702
933
1884
365
1391
1745
193
796
1201
623
1862
988
1730
1383
1384
1235
1568
915
365
632
157
2237
756
90
971
1497
77
2020
1950
347
554
2335
1111
1021
2174
2229
849
1437
977
1646
1702
2201
917
1974
1215
293
1936
393
21
806
502
735
1997
742
1994
1869
1503
1143
953
2174
2312
769
91
1711
1229
1577
2242
1284
2356
2059
997
875
2038
2209
75
924
2174
1304
125
232
926
416
2094
1164
1112
1486
426
2134
2332
642
2029
1682
1033
1639
1646
1050
2369
1313
316
1172
2203
1254
434
965
820
2050
1155
1895
1726
758
1220
1941
462
861
363
591
1620
392
2016
1473
1745
1299
2011
885
797
201
541
757
923
211
1248
95
2166
1770
2311
1939
2377
917
875
2147
631
1674
1437
603
2282
380
1699
1388
2259
854
601
571
371
856
1301
1651
172
107
2048
1607
1134
1664
610
1798
1677
1363
1460
1798
953
1806
517
960
1406
83
362
886
1138
1689
1119
403
983
2031
372
1119
1794
237
2257
1127
1166
142
1954
1396
343
2183
2138
2153
1464
648
194
160
968
1288
1830
2354
1621
167
1289
526
2021
337
1800
79
710
671
1522
1433
1545
209
621
983
420
516
71
1088
334
2281
243
444
860
1739
2092
1715
1725
2419
855
1488
1510
2317
1354
372
480
1488
2360
681
227
470
549
458
1913
1497
570
1053
1333
1270
1240
888
1138
1305
1779
35
976
1235
2255
642
633
1128
650
203
848
809
892
1735
106
1073
828
2117
611
1972
1080
97
1670
1161
364
306
2417
2216
1180
515
1128
1345
452
297
799
468
1942
1142
1403
1491
2140
2171
1222
978
1235
807
577
364
2196
2147
1044
629
1673
58
2227
436
99
66
376
1183
1283
1658
1799
1585
36
767
667
1930
1534
2302
2348
1447
1757
723
1815
178
1008
1388
2147
1247
603
1618
616
29
1556
1009
65
1886
175
184
274
313
82
107
1449
238
2021
1857
1379
273
1242
2130
704
917
1233
2105
1016
792
678
1695
2328
1027
2327
791
109
1520
1053
1451
276
24
96
1250
495
2192
49
1396
800
663
1980
1450
2216
25
1162
1314
1542
464
2107
1931
1242
2008
2125
1747
697
626
1767
878
689
690
421
1543
947
1469
1442
1110
1884
1618
142
560
96
881
597
2132
1868
194
1515
895
2180
885
1045
90
2342
958
286
561
1634
1560
202
751
2287
1979
32
42
183
1214
124
1360
2419
37
1576
672
1494
2396
2372
1133
1137
0
1780
1628
87
299
414
1070
919
1502
817
159
1299
1324
1750
82
87
679
1841
762
1179
1743
1732
890
34
2147
2048
199
1702
2411
1629
1202
977
1892
2125
1189
2150
2303
465
246
1844
1984
488
2115
515
723
1113
1578
2037
1666
2220
357
1977
1115
1196
1959
1236
2202
2136
217
512
1874
504
1011
58
1960
715
1546
1623
300
127
60
451
2124
2234
1076
2195
1577
420
2256
302
528
746
1798
1271
303
2337
1370
965
428
1367
2230
1847
702
628
1795
1719
333
417
1768
1506
567
873
658
656
982
1384
2283
1550
1396
1663
2116
2144
2034
1566
861
2053
2182
2036
832
781
1575
1002
1351
904
811
935
2011
2296
2135
952
542
1237
931
1801
2132
125
1958
2024
974
2137
1439
246
790
701
2350
1064
1487
156
1192
2027
140
2061
1541
1796
1535
1778
712
908
1560
1406
1222
1199
769
446
469
676
1180
1104
1452
1357
319
780
980
421
2217
1396
445
337
59
2236
2159
1963
176
1679
2100
2110
926
2118
2162
2098
2195
243
1823
403
1183
1886
661
546
417
75
1805
1476
1206
455
2395
1880
491
1397
911
176
2045
2345
1648
888
518
1425
1463
539
1068
560
948
570
1179
2333
1628
1527
1546
1632
2326
1599
322
1564
939
1536
1969
1429
1565
1431
1702
1136
293
594
590
1550
1521
402
2035
2350
2193
247
1354
1280
1387
2405
1826
175
1450
495
297
373
976
1011
964
498
383
698
850
91
2234
2130
1098
774
85
1922
1237
1880
134
200
1215
2
1316
