1271
1689
1218
2314
2466
1205
2027
560
212
2408
4260
4123
1159
4406
4945
4436
4703
905
1340
1095
1181
4665
1748
4327
4872
4179
2227
3055
2871
1764
2015
4118
2588
3669
1413
744
2477
2149
5082
1042
406
4507
957
4435
678
2353
1205
2742
3753
5030
1356
696
2171
996
3158
936
100
1367
4741
3630
3013
2799
2969
1169
4628
4332
3876
3749
4924
2731
379
187
994
3677
608
3140
5048
5004
1758
2146
4680
1324
822
1839
4660
911
2488
3135
3674
1608
1494
4409
3651
4971
2117
1586
5107
2822
4007
1854
4668
2608
3712
697
1146
182
1705
3841
411
1199
2634
826
4463
2346
2472
3463
720
2099
2972
993
4789
4511
195
4642
269
4093
736
482
463
2197
367
290
1081
157
1668
1659
4081
1903
2648
1495
1620
593
1047
3627
1058
3836
1708
124
3283
876
981
1748
4482
3103
3092
3589
795
3561
220
858
242
1279
4004
3062
5022
4579
1751
1745
1856
3679
3984
4261
3639
840
612
3254
5146
2543
2754
2987
1969
2046
3831
4369
1520
2388
557
2908
760
1326
3098
2024
180
2395
4369
1709
3105
2213
1069
4722
4442
2070
4194
2968
3600
1770
5189
2425
4546
1213
2640
3684
3989
3113
1923
5056
867
4614
2601
1132
2266
3778
1839
346
2656
61
4928
1684
4345
762
4006
1028
1892
289
3013
1388
3107
3811
1231
2250
2931
2392
616
1090
1721
1440
2931
638
2996
3026
2237
959
3535
2223
2278
2090
4594
2998
1534
4722
473
5101
3815
358
2237
5039
3570
1067
2916
4633
1944
1863
812
1568
1562
542
2795
3564
2833
285
2002
4847
4640
5149
4404
2358
3523
5162
3203
585
890
2776
42
4855
955
3852
2281
4836
4629
5216
491
1042
1618
826
3821
515
4720
2911
749
153
3415
3827
4510
1881
2071
921
3282
4127
2086
1684
2134
2594
2642
902
2217
1484
2738
2850
4677
2876
3833
1445
4287
1159
2151
4165
1115
743
2159
2685
2921
2143
4863
4038
1659
3461
4158
4260
1395
5017
4644
3342
4187
782
683
3099
4392
1839
4120
2556
2733
40
5019
1926
2186
3604
2021
2282
2413
1543
802
3686
732
857
1296
739
3785
1278
3472
521
1960
705
635
2374
1011
308
1996
2755
5176
2554
3649
942
2619
1171
1663
3264
4070
4413
5203
3951
1608
796
3743
299
2382
4964
1907
631
3689
3580
3438
2345
905
3963
4433
2214
1473
792
430
2035
2837
39
4081
1204
4813
4513
2708
163
3789
3941
1270
2430
827
260
2915
2503
2731
1297
1054
1084
2618
2951
712
423
3953
1699
3400
4753
4854
1942
969
1199
3167
1759
4644
2110
3683
2211
1511
2474
3025
5006
3660
1674
2706
5049
2438
2000
5139
3113
3579
4860
1477
1268
297
1952
2174
1617
3322
2862
4041
4219
2448
4654
1838
497
623
4540
2003
2372
2704
1570
3303
2342
3550
5182
4094
3139
1103
4750
3114
1255
4268
1466
657
4874
2470
251
5135
1372
4146
2555
1359
810
2948
3860
526
3799
617
4562
164
1160
4506
1034
2507
3241
933
2320
1398
3496
1983
2918
8
2737
1663
2021
6
3709
3379
4221
4723
3793
5189
3463
475
3003
1869
3091
2818
2075
742
2700
223
4323
4070
102
4717
4765
3516
827
2539
3774
445
2767
4204
84
2603
2455
453
4250
471
2438
3616
1696
1545
2013
4021
2994
2102
1184
2084
578
810
3258
3914
2294
3480
4932
3313
3876
3727
4535
1912
908
2694
2370
1392
2052
3596
1999
474
1240
1207
4493
388
3377
1320
3355
2882
3040
3668
3949
1322
2180
3573
1964
2725
3368
615
3053
5147
4095
1742
808
1945
4459
90
2683
3278
3709
4763
2168
4751
3067
1711
3038
2760
5192
4416
304
4285
3020
4391
1274
626
164
3771
3683
331
3049
1432
404
3679
2994
1445
4505
1115
525
117
4973
3831
2295
2346
1924
1486
2995
3570
910
1077
4836
3943
2824
1159
3798
4154
982
4458
1804
161
669
4460
1057
3267
754
148
3985
1961
304
4225
296
2714
1580
1452
1189
5063
4610
4167
4065
4073
4237
4565
5078
4828
3163
4546
387
2430
3002
1715
4502
986
3451
2353
3253
1303
2366
5008
212
3853
4228
2620
4283
1866
33
3567
396
1193
194
1073
216
167
482
1341
4410
4132
2009
1725
4818
1015
778
3941
4543
110
909
4857
3268
4233
4998
2145
3662
3952
4333
4531
2511
3956
3908
3105
1356
1707
2819
540
664
4194
5197
421
2408
2529
1598
5130
4823
1736
1221
628
95
541
2648
992
3099
1868
4522
1217
2924
3108
3243
471
11
73
2716
102
1672
4548
947
4861
3581
1960
5044
852
4223
97
4146
2681
4470
4318
4095
496
2513
3491
78
2175
1168
1090
4839
2318
882
788
2478
3207
1695
1917
3830
3902
2446
1913
4637
3343
2540
2661
4164
1096
4968
638
3405
714
608
797
1641
273
3567
4672
1081
190
1945
4933
1756
3581
211
2701
5114
179
1679
2227
3801
372
3796
2639
201
226
4876
1550
3443
8
4599
3786
579
2934
2976
1436
3766
1263
4931
4953
807
4523
3541
2713
1558
2858
1029
4733
1971
2960
1544
2241
1670
4162
4299
135
179
795
4614
1403
4889
4883
2644
472
2972
2117
543
3368
3455
2045
157
2100
3410
373
1525
4195
4593
2245
190
3846
509
4149
3521
156
3940
2891
4251
656
2503
2750
3800
4108
977
1583
4275
1356
64
5194
2875
2776
788
701
1411
383
2564
1645
384
4675
4416
5018
4515
4486
4185
1598
1250
4971
1936
2066
2403
2361
4973
5013
2244
232
3108
3142
4571
2514
2295
1457
3338
330
1992
1085
3160
4729
4203
305
2962
2897
2383
3269
2156
3135
1493
3176
2907
808
3417
152
1749
5164
3653
827
4461
5192
1098
1105
4913
3263
1605
755
1663
1452
2232
638
2703
3170
4569
1976
435
2060
4755
4837
1884
5032
4606
3174
1401
2727
108
46
3579
4329
4867
4005
3692
1211
1721
4204
2369
4701
1675
823
4066
1102
943
1545
4661
3454
1768
3215
3044
4469
3928
4012
4352
5001
1988
3621
4883
466
1576
1106
1901
4518
307
317
463
2458
1864
2387
4315
4722
1191
3801
2668
5181
2557
1580
2297
2198
2646
2721
3456
1483
3093
3737
2985
2255
2411
292
3770
4043
5098
5017
853
3637
877
3310
3516
3369
4153
642
3790
1609
1634
78
3764
1601
1096
4864
1901
4852
605
3019
1719
595
651
2395
456
1944
1644
3188
5068
3379
4026
479
4714
2288
4078
4009
2635
4844
1968
4437
2716
998
2856
3137
4178
1122
2369
3609
1467
698
844
4292
4701
2577
2341
2579
4260
170
2201
4324
1539
3725
1675
3416
4819
4029
2788
637
342
1930
1718
1804
2883
3653
2274
1211
2459
3431
386
651
1904
2659
2646
2624
1779
93
1964
1818
3063
2716
4547
772
1146
1182
2897
2984
5093
1107
4144
2307
5067
4244
647
1391
2951
3547
4530
3467
3410
3417
3675
1229
460
3831
1305
3000
3776
1234
3587
66
2227
2938
907
3425
1758
2733
2457
3154
4584
3218
2726
4838
1493
2145
66
2865
3258
1498
1706
1301
3567
4479
28
1997
4411
4030
980
143
732
1344
227
4796
102
2072
1367
54
86
232
3219
1348
4635
3070
3947
1410
4093
3866
267
4132
2786
3116
464
3190
4754
2426
807
1618
4416
1853
243
2014
3828
2493
1031
4168
2560
4282
1753
3180
5066
1137
1662
1749
887
2348
3497
164
4278
2831
3036
3466
2132
4376
661
377
5184
4234
1075
1507
1229
986
674
3712
915
315
2628
437
2683
252
1123
3650
1838
4488
4887
4004
1709
4030
2989
103
852
3787
1010
248
356
3286
1810
903
2856
1778
3518
3814
4112
2939
425
4037
1329
4619
406
2709
2217
3819
1151
1988
334
4063
2757
438
86
750
2632
24
2335
3315
823
1079
4890
986
918
1363
4470
3012
3576
1381
4433
1903
2071
3778
3122
4708
3052
3371
3299
4066
4599
4599
1327
1100
2924
2668
1549
907
2176
514
2919
1467
1695
41
3894
964
800
1006
4807
4173
14
3097
994
2454
1938
4894
2619
5007
10
914
3753
3457
4373
3874
1852
4227
18
3576
3797
249
3327
2509
1701
2550
2581
963
3939
1325
2898
3963
4637
3836
4924
846
3973
2968
4197
146
4547
3728
3577
4668
2711
2848
3059
1338
3434
717
2560
39
2813
1700
1263
574
740
3465
3166
5109
2318
4256
50
1130
4470
1443
2721
4912
1876
77
2480
133
1510
3454
405
643
2700
2879
3791
2602
396
86
2725
1485
2842
5077
206
4153
2865
4348
217
2578
3703
1092
4182
2920
142
2938
737
59
1052
554
251
2051
4537
1382
249
3745
1294
926
400
4858
2390
3914
2067
1746
2440
4942
4230
3020
2310
3246
2187
472
4593
779
2757
2908
2991
2103
909
1431
448
405
318
4649
4583
4508
1093
3160
3575
2830
4953
4911
448
2680
2770
2882
1726
1861
4229
4193
4581
2616
960
838
1190
2580
3994
4494
2815
368
4037
4956
563
900
1882
1295
4316
1867
4563
2877
3264
466
1436
4964
2018
4993
2603
524
3146
2705
1061
920
4402
3394
3507
4943
5088
3424
347
4607
4010
4042
2904
1149
5056
518
5009
1931
12
1664
5056
2316
2044
2405
1340
686
2605
5092
4109
2086
406
4762
2272
4388
1603
2195
5104
3849
4052
5217
1723
3855
2766
4388
2703
5088
2696
4675
1648
127
4064
1147
1422
4273
1044
897
953
3544
2016
1879
4981
2990
4339
1896
2677
2321
4630
3868
1552
4042
290
4669
882
5016
4513
2903
2637
219
1067
4479
2059
3707
2059
563
3185
1219
4445
578
498
162
4220
3219
2547
2738
4812
4151
4723
1100
2442
4129
2074
2811
2449
3838
3216
5012
3142
3811
2963
4516
608
1011
2454
1830
2577
3669
164
1080
3905
4406
1597
1693
2591
1687
390
5092
2607
1108
120
108
2264
5029
4719
405
2907
4990
4528
1215
553
4823
4528
3365
2985
2201
1970
876
2474
3197
1456
3635
1220
3890
2213
2312
4467
1757
4710
657
1694
4769
5075
2529
2734
2137
3783
3710
1010
1824
1808
3448
3647
256
777
4923
1592
2503
2677
3770
1351
1698
2988
4067
3132
1411
1194
1656
2896
2754
1936
4957
1850
4932
1204
3628
1562
2873
3121
4107
2899
1989
4175
4683
715
1709
2169
3894
2922
1364
4884
591
1091
5017
1905
2886
2111
3692
300
4216
1484
1913
4376
604
447
516
3083
3360
1219
4392
690
4187
2917
715
2065
2609
2297
1328
4457
1682
2147
4468
4728
3627
4231
2529
3795
4770
4178
441
3659
929
433
1943
4041
2758
1545
4365
3643
5066
3906
2531
5049
1288
722
4843
2630
4293
3969
3171
1445
4579
1818
2795
891
3251
4197
3460
1965
2816
889
2902
4295
802
894
3912
4952
2647
999
3928
2706
301
1014
453
3915
4301
1800
2846
818
1672
5000
686
4291
1
424
749
146
4678
4071
2591
63
3933
4012
4887
4600
1179
1739
4560
1852
4807
3366
3251
3843
4090
707
1284
4735
1934
4888
4299
4505
4961
993
4815
2722
2972
4905
4531
2522
4781
1140
3805
1502
4887
1842
248
2950
4621
2565
5134
4458
4974
2562
1776
442
4984
1177
2190
1213
862
2394
2750
3927
3384
4696
831
444
4103
885
3952
2553
4551
3329
4232
2166
4215
668
2878
449
543
4299
274
2777
803
3011
2169
3111
3831
3789
2071
4891
1467
4305
2815
409
1162
4186
4505
1357
3532
2464
1559
3329
5005
4549
3313
422
1368
182
4860
1593
2093
3857
930
4110
688
1125
3736
4154
3844
1470
236
899
1627
1979
3738
2089
1838
1390
3579
319
1973
2401
3790
3132
2318
4136
224
1750
380
3588
3190
223
856
3788
4396
2428
4507
2003
516
4243
2454
48
3461
141
4215
4138
200
4048
1637
272
3718
2943
1184
3562
2080
1704
1170
4270
568
543
4214
1573
4780
2997
2892
326
3585
280
3285
1686
1449
514
4029
4395
1434
5186
3967
591
2251
3290
742
3904
1538
3035
3299
4649
1226
3595
2898
4548
1001
3645
5037
3215
2478
1548
1711
378
4236
4857
1355
1202
4780
2068
1310
952
4482
1273
4151
5101
1097
1619
4594
4731
1206
1195
3943
1138
4634
1131
5005
4085
3977
1395
1627
2504
4248
1288
4839
2921
3130
5208
5127
1779
5011
1671
309
2514
1006
1903
3899
3374
1029
3388
4675
4648
1663
2002
1600
3143
3390
4771
4960
2569
50
2994
4022
3949
3819
4162
660
2449
2067
1961
1354
508
1036
4440
3512
685
1545
4772
4871
4520
2427
4583
5088
3899
3032
133
754
562
412
4494
1486
1804
2841
2105
4400
1157
2645
1048
3297
3808
3726
2483
4672
290
2022
535
62
3150
804
515
2543
1160
3911
2865
786
561
4510
4171
5193
4360
3734
2942
139
2803
1129
1441
1331
2402
3060
5103
1242
5081
5008
4190
624
2797
3177
1848
4620
3032
3683
3168
322
3434
2562
2487
5007
4193
2313
4169
5057
337
851
406
4168
3321
191
2425
4220
3874
2163
792
4824
601
3573
759
1504
1829
1033
1756
4088
3479
2357
4660
1250
2454
2850
1823
2307
2635
5
1302
2825
1629
1372
4598
2736
3106
2803
3410
543
4726
430
1761
2738
2470
136
4262
2915
1401
4634
4105
5186
2135
5155
3243
5214
747
4461
1890
3009
3815
4949
2035
1683
5011
3415
986
1780
971
4753
4659
4288
2918
674
5160
1689
2183
30
1466
4400
4655
4545
1392
2088
1337
2545
2936
2833
3534
2342
4513
4113
2926
4074
3119
5021
2425
341
1877
147
4699
4776
4525
1039
3133
4261
991
4712
4672
1802
2660
2081
1465
2172
4742
1429
704
2399
3344
4456
323
461
1782
4560
211
4083
3791
4373
2425
3539
3849
4801
1530
4648
2440
336
404
2909
1372
1227
722
790
287
264
1608
1989
469
3862
1640
4020
4086
4955
4794
4678
451
1877
3266
481
5163
4581
4251
1092
4717
3475
4048
2871
3466
3834
156
824
3017
1971
3076
4080
4400
1866
2240
5043
1982
1241
4646
1460
1182
2695
3326
1521
1147
1400
23
2400
438
934
4405
3888
2029
2556
1070
4559
1822
4215
3442
2852
1000
363
1862
4680
110
3967
4520
1858
2070
3482
2829
2177
1694
1374
1733
4795
1985
3334
1347
3575
4452
456
1069
3231
2373
1473
4719
2325
842
793
837
1600
3571
4808
4516
267
4534
3520
997
1394
4959
964
1297
1869
2415
5080
3237
1147
2263
2454
2209
2231
2658
3803
3196
209
3417
1065
2527
4660
4879
2326
1068
1924
4296
1021
3715
2385
3879
1175
3443
324
3999
87
3250
784
4144
4911
1258
3384
2767
2169
314
1856
3916
47
2694
2263
2521
628
4023
2313
4136
3080
3962
913
458
4350
3730
4958
4034
1328
1438
2182
4220
3123
2749
560
4075
4126
4254
4596
879
2910
2812
3489
2169
412
1703
1044
637
1027
2734
1252
1137
3544
1156
29
168
2088
4413
721
3058
1665
1466
2986
4556
310
5049
4211
4520
3433
556
5178
3194
1458
1825
5051
1990
3054
1179
2743
1509
3541
4880
564
3915
834
1154
4030
876
4978
3545
3899
2252
4969
206
647
2262
3665
3210
3653
3232
527
595
5031
3388
4608
2368
2502
3482
265
2925
4850
917
871
1281
478
5182
4630
2127
3311
105
857
3717
4259
1887
3027
27
3873
3949
794
3153
1720
3610
1962
1600
4273
1908
3248
5198
1634
3977
264
4134
2840
2542
3768
4230
2250
4869
256
2957
2244
1899
3600
2957
447
652
3709
505
528
4951
2684
3213
2498
2975
3964
3670
3994
3120
863
2026
3822
2673
4449
226
622
2966
2549
4974
1607
2849
3352
298
1325
1621
2407
161
1281
2387
509
4224
1980
3067
1048
1290
1423
4195
4790
2227
3280
3823
672
480
2386
1175
2674
4572
558
3350
700
4857
210
325
750
1335
4430
4749
2947
1722
209
2203
2729
399
1702
5068
3905
5200
1093
3677
3412
3989
1481
4457
2016
520
5135
2
524
5070
645
4178
732
1863
3722
954
421
3331
4284
1318
3676
4771
2876
704
2875
2820
4660
3152
5131
4508
4198
2693
1891
3693
2088
1218
2282
623
1405
3171
1999
2102
2612
2203
1366
3813
3013
4975
2399
2780
1677
512
3028
2332
3586
4655
1200
1149
2260
3314
2727
2981
2610
2036
4497
5219
4274
882
4606
4147
2192
1321
1631
713
1094
155
4209
4002
1205
3097
3938
1040
1179
1799
2777
3497
2742
1728
2256
4907
4113
4590
3177
363
2782
4346
1462
3455
4885
2629
1593
1503
547
3022
1532
4074
2843
1223
4026
2531
1230
3332
2232
1216
2353
1807
2199
659
4338
3470
4267
4237
4991
2300
3147
3402
3738
4966
5056
1808
3754
4299
1298
2944
3223
2810
3078
2995
4407
2360
4187
586
2645
2006
5215
4972
2211
2112
545
3941
635
5006
2209
4269
3390
1372
887
1903
4438
961
4218
1016
214
0
1410
216
3460
846
2717
1490
1543
1948
1707
405
4226
5066
5204
2380
3666
4110
2587
1856
4692
2467
4610
2313
2135
4917
4069
1881
3817
4270
4615
2621
3460
2196
3944
3226
4261
1113
605
132
701
1060
2719
719
169
4010
4087
1767
372
1233
2846
4746
3959
1962
4913
370
3340
4221
2868
4517
2232
1718
4573
1159
1032
4599
764
3766
3527
2084
1249
3249
1239
3461
2330
3221
4673
374
4792
2026
2390
3553
713
593
3509
1054
3104
2303
2707
1375
504
593
2666
4428
4314
1528
2082
4405
1343
3781
1922
4187
859
4805
2352
2181
3597
3954
2295
3983
411
3221
1721
610
4724
4068
2457
3540
4473
2742
2547
3731
3750
2803
2857
513
3208
4102
2146
3646
1820
393
2217
4517
4961
5099
1660
1410
2635
1062
1438
1465
2680
1512
2960
3465
3340
3920
4432
4939
838
2457
3308
4094
4761
1422
2790
2508
2501
4602
125
1954
3176
597
3453
4859
3181
904
4535
623
2428
1281
4996
2915
254
4850
871
2488
3173
256
2906
916
1953
1509
1598
3962
1178
1335
4920
1506
4798
3516
1153
4982
2070
4838
4005
1776
3833
4720
4245
1791
1397
2824
2354
4878
5023
1721
2102
4332
2425
2748
594
4630
651
3258
3293
3456
2376
1512
3673
327
5067
4144
2076
5148
4718
1258
2966
3900
4822
855
2390
3236
3741
3106
1967
201
3885
1127
2582
273
414
2100
273
1822
388
3084
1338
2948
2583
243
2398
2161
2740
2794
1097
2397
4697
1784
1692
3421
1752
2029
155
844
1168
3699
3633
3341
342
1249
389
5088
4940
1713
1839
1796
2588
3610
5192
946
4584
140
522
1707
149
2389
2172
4177
2938
3656
239
936
1875
2789
303
385
4055
211
881
2505
3260
4994
2477
1155
4478
5130
2007
5207
4199
2450
3650
214
3318
749
4675
4847
2946
870
121
4609
322
3298
2610
1876
2223
312
4318
574
4074
2291
3062
3798
1052
736
825
3571
4288
4587
2078
1711
2001
4798
3714
1428
4314
4716
2978
301
3290
1233
493
223
4708
5131
1258
3638
1448
2598
2928
1123
3708
438
2325
2179
1366
429
3361
893
1171
3596
2680
981
3726
3210
2732
5117
2183
4672
5190
5106
1635
3305
4510
624
3500
4502
3486
1257
3597
1303
1713
2543
1445
4628
3762
4485
2238
1086
1225
4747
4898
618
3056
4793
625
1436
122
2811
4269
4582
705
1214
2559
5024
878
2593
2899
328
2243
2963
5196
1622
1905
2988
3941
102
2204
1771
2708
1979
2937
1155
3394
5068
3019
2090
2500
254
3293
2607
3921
4313
3240
3272
452
1104
4464
868
3112
983
1029
5152
3880
2876
2313
805
4325
4703
3065
4230
2244
2543
1509
275
4162
3902
4249
805
4697
2877
3458
2202
4206
4845
1290
117
204
3354
4456
4163
3716
2509
2372
4961
2404
1305
3391
1074
1289
4975
3710
2825
3090
368
1446
5
2174
2369
1997
2581
70
3357
3132
3302
5117
4530
460
3140
1604
961
4558
4308
622
78
3343
205
2961
1057
1217
1783
1824
754
4950
3893
4990
2948
3087
4587
1283
4872
588
415
2997
3222
3071
3017
2977
3704
4566
4886
1312
5135
554
1133
2779
1368
1718
2533
3883
3856
2594
1368
2034
3465
531
902
4487
2916
5008
2259
2128
2119
1913
4370
55
655
4351
4061
1970
496
3459
1014
2136
602
1185
4777
3962
3553
439
4849
447
5113
610
5025
3816
3599
3669
3515
2287
1995
3897
1379
1858
2782
222
3267
4940
2734
2952
244
4925
1881
436
769
3256
2295
3750
5019
3799
3556
60
3756
323
1741
2626
3682
969
5016
1070
2164
3024
1735
1950
4741
2056
3630
3968
1425
3496
1417
4658
3276
2257
3260
2929
3454
1244
5078
4380
5065
1391
1493
1766
2350
3095
1284
2952
3943
1033
2401
4936
3718
3967
4750
3051
4076
658
4146
3022
1749
2999
2264
4710
1451
1039
807
4101
5102
1700
347
4753
4954
5045
873
1772
172
4889
2690
2914
4568
4537
4561
4675
4453
2181
225
2657
1479
4265
1334
1170
4818
2937
4721
5106
4875
50
1800
2389
2468
3252
3913
1316
4125
4145
3651
5031
46
56
4430
1555
1345
764
932
841
2848
2828
1540
1111
4032
3560
2983
2721
4701
3814
258
1884
5118
1458
5147
1697
4641
2731
4697
3978
592
668
347
4203
331
1080
3514
706
4586
935
3522
4944
1792
4205
2162
320
3670
424
1956
3491
797
137
3933
4847
602
3348
2518
736
193
539
4727
4241
2438
1130
3770
603
4112
3340
4364
3382
3243
2661
4188
3172
1928
2996
1005
2962
1441
3396
3689
271
1183
4512
1100
4643
4225
4427
3567
2963
5047
2758
779
2447
4439
225
2922
812
5032
1066
1233
352
2564
2326
2129
2547
3617
2428
1691
289
1448
28
850
2938
1951
1917
2395
1917
3630
72
1765
3614
3203
4377
1701
46
1410
5024
533
4758
2256
3936
1800
4001
1354
1335
4161
2735
1714
4019
1337
4175
3973
169
4700
4147
5076
4725
1688
4563
2885
4462
2569
2484
4766
2328
2988
556
3337
372
2159
876
2587
427
5127
2578
2831
1067
1248
1532
4576
4036
175
5157
4723
4055
4410
3895
3518
4813
3981
3663
2929
1414
4417
754
2000
3519
2289
1668
67
3539
3614
1427
1142
3580
1708
5129
3360
3939
3031
879
2470
1398
688
2580
278
4696
516
3758
1403
2055
1547
2784
4232
3075
3771
4495
2748
3494
3504
1187
940
2696
2992
4815
3224
3469
916
1644
4266
3218
3405
1284
3721
4983
1469
2419
3162
370
2895
419
1476
1324
4398
4938
2141
801
1638
5161
74
217
2597
1163
3104
272
2408
3283
2078
2175
2266
10
1563
4949
2399
207
2780
257
3238
298
2143
3137
170
2780
1431
2276
3278
4349
2744
1245
1215
3342
3632
4464
2063
4953
3467
2810
2991
1208
1316
4086
2788
711
4048
3887
2487
3275
396
541
2663
3465
1841
3512
1541
1346
4580
2871
4378
1937
1805
1626
5125
4362
3847
1891
3639
238
1929
2535
1715
442
3685
5
3864
1436
4878
1960
2135
1221
1013
3675
1744
4892
548
4203
4836
4740
2874
952
71
1190
3412
3212
3892
1302
4641
3897
45
1145
4766
1202
686
1352
1029
4054
1979
3759
4107
3369
3810
3013
4774
1991
3248
1627
376
4851
2120
4104
1986
4317
4469
3497
3377
2296
480
3078
1294
1464
2413
3282
1886
4751
2604
2403
3645
4276
1565
1014
2205
3553
3517
10
1135
297
2700
1763
2645
3631
3760
4631
4963
577
2276
4673
160
3718
3462
1178
693
2562
4135
1273
3429
1031
1219
1446
2945
902
1358
4844
4438
3360
1723
253
2361
1969
4588
4275
4207
3691
4440
4148
1334
1623
4275
3162
1937
4844
629
4057
4071
2089
2950
4470
5008
2377
1561
726
4884
1762
2785
649
4952
3315
4592
4117
2004
1355
284
4067
1711
3552
556
532
3502
884
500
2488
3724
3968
2017
5020
2644
4123
3011
2150
1753
3334
3753
4951
3642
990
2303
2657
849
458
1380
4919
4611
1563
1648
3003
1971
2658
1829
3579
1648
1709
2529
2679
657
1690
902
3750
3526
2713
2106
5135
4181
1481
968
449
3416
131
616
3140
3399
3428
5096
4015
3119
416
4927
4239
224
3103
386
2668
4160
348
4423
3423
2648
4113
4113
1484
696
2895
595
319
1960
4807
164
471
1390
377
1016
259
2644
1537
1559
2049
2975
0
1650
2223
1146
3961
55
4952
3560
10
3213
1441
1
5141
2917
2734
624
1913
677
2561
730
2982
2991
1950
4883
608
3703
192
3990
2513
13
2948
2687
1777
1609
1228
4162
3848
4997
3283
1847
367
2369
4687
5112
3559
4558
2864
1674
3755
1417
2077
1680
5185
2505
3229
4460
1412
4932
421
2508
3329
4278
1157
3817
4397
135
5100
1970
4851
4083
2452
1331
795
13
2583
1741
1102
4417
3121
255
4329
4835
467
1996
1829
4436
2810
2044
4489
4308
2989
4866
129
1935
603
3346
4502
1074
4301
831
2122
1633
3044
2740
3350
1878
1824
5113
3851
4809
2830
4703
1214
3867
1400
2392
1568
5138
3394
2036
2303
1243
176
2915
2571
1075
4763
3385
3749
3080
3766
26
4306
464
1815
1823
1723
3352
4210
1690
1189
2282
3330
2889
180
4117
1242
4206
870
4514
2220
5211
1454
1285
4114
73
3782
5062
3765
3244
1278
1582
2799
3653
4910
1574
3584
3672
2932
1478
4826
3421
3780
4192
3014
1901
4537
4704
415
4867
2758
1729
550
3838
4977
2897
3579
1643
5163
45
2028
3603
4769
1192
1832
157
3647
4997
2796
806
1940
3902
190
2371
1669
5012
2434
4065
1239
813
778
3908
4724
4949
4649
4049
494
4644
2944
2093
3788
535
3053
3543
710
125
1274
2135
3044
2909
2571
202
2950
1626
4504
1626
551
4153
3881
2782
1144
2732
1183
223
2685
3108
4256
2326
2967
4894
564
2555
3261
3364
1628
4391
4188
4279
1147
3389
4597
3376
5196
1963
4051
1383
1034
4015
751
4379
208
1762
2949
1813
3318
3458
648
353
3360
5008
4229
1095
4046
2553
4680
1384
4493
4692
3557
1124
3213
4917
4499
4732
3620
814
2452
888
802
2223
516
1235
3399
1913
894
5052
127
139
3429
305
673
1873
4869
2451
2340
4594
108
3072
4571
3810
3680
1573
3415
1718
2913
4028
3502
150
1331
4623
1615
3336
4538
3608
1417
1082
1303
976
2371
1656
1097
4371
3198
3557
5081
2157
850
3432
3546
459
970
28
4160
3325
2589
175
2340
3025
988
1932
745
1630
478
848
4690
3478
1835
1530
1204
4618
709
124
4348
3279
3537
109
4854
4774
1134
350
4476
3837
472
4326
1278
3054
411
1582
347
1401
3320
395
4058
4674
261
1917
4247
2925
217
2444
1881
4126
788
2598
2000
3597
647
2449
1356
970
3649
3893
546
535
2071
5097
4955
1498
4182
449
1058
1318
3358
2128
1530
2735
1914
3837
370
4258
2215
3613
46
3939
826
4476
747
3962
1687
1476
922
2693
3800
1623
5107
3020
4795
2509
4617
5054
5188
2986
3530
4468
3883
2914
632
2708
1347
3226
4850
1656
112
1109
1946
927
3854
1177
2705
2821
4831
1391
2078
1266
4062
169
1615
1872
2098
801
3997
2962
4699
4712
3710
3089
1115
4950
4046
1831
5002
3038
560
2167
2912
1118
4535
3064
3805
1728
805
2818
3063
2005
3667
3347
263
1435
3399
4755
1194
2250
4903
1926
2314
2079
4583
5191
542
2943
3039
2278
4762
3612
2254
1144
1840
4911
3019
303
1065
4083
2479
3281
249
4839
3100
2014
1343
213
1146
2742
2927
4463
4199
4893
4349
3242
3380
1581
4127
1846
3746
118
4615
2027
807
2714
1572
3182
3884
4084
564
1809
3348
3191
3079
4628
611
4795
666
4835
28
1804
4811
973
2353
384
3368
3327
4361
100
3799
1867
4497
4131
3266
5009
4944
3409
2468
4223
3328
2374
2760
1362
4835
2715
2533
2988
4082
324
5140
997
2062
861
1151
4315
912
3851
1931
577
5167
1758
3713
1081
790
2928
4017
1445
4683
5145
1627
191
2424
2655
1495
2778
921
4809
849
2225
3251
4575
2026
1312
4999
3533
2886
2846
2810
1642
4187
3004
3542
501
1794
116
2286
1978
1586
683
4300
3595
594
142
5196
773
4460
3157
3625
3174
269
2185
3748
438
863
3142
3780
2669
2250
4409
5066
2740
1154
1216
3728
3172
3522
3654
2501
1937
1331
2546
3262
618
2313
4687
2940
1205
2964
1879
2787
3365
4069
5084
2666
419
4491
4344
5164
324
2436
3277
3083
54
358
4797
4951
1844
241
1296
643
1677
3302
3580
3121
2550
2519
2235
2312
5018
2629
2464
4688
2366
2115
2427
4713
934
1170
2143
4840
399
2528
2645
1162
4664
3990
1311
1755
1048
4114
2704
4004
18
1242
4668
4102
2563
1729
761
3164
418
1736
4024
3143
1390
3453
1357
4385
2293
4128
1181
2087
2028
417
390
1584
3530
1826
5030
1195
2660
2273
1622
4048
4771
2108
4286
5092
2782
1271
2842
4464
4607
4278
4971
5041
3211
2967
1691
1737
2030
4385
1239
4765
3921
4972
4352
3475
2420
1366
3886
1463
432
732
1157
1107
3925
4922
1918
1976
1362
708
4077
1747
3762
1606
5057
4157
4399
2014
193
1463
1790
2230
1046
3927
4133
1796
366
4484
2617
3167
4839
1324
1737
3145
4498
905
1608
1770
1064
3328
1872
3661
2658
467
3539
2684
514
599
5194
3198
4722
2226
1469
4241
2656
5008
3941
4747
300
119
258
1255
1869
2181
3382
1017
696
4041
2208
862
1460
923
1642
2437
2639
3438
2017
1636
178
3348
2138
3411
846
2297
5083
5008
4131
2424
1836
3691
4575
3300
1315
5196
576
4538
1439
3179
4700
373
1877
388
3078
4599
626
4129
662
298
78
890
1597
3619
3489
2724
1310
602
3555
3950
3121
2080
3854
4992
2927
4086
1644
293
1992
4012
3992
112
241
1583
4814
1795
2810
624
3087
2429
2815
689
3892
2819
311
933
1298
1202
2782
1991
3998
3363
4512
1264
3171
2959
1023
3687
137
846
2942
2567
3094
680
1264
3872
5080
3452
4752
498
3402
1325
4067
5000
388
4869
948
3477
4634
2800
1129
3969
1120
1583
659
2422
312
580
3455
710
4857
3163
4364
217
3420
3610
4093
2653
155
697
472
2806
4633
272
4909
3219
4901
5002
3977
2851
1555
244
2644
3260
2045
2163
4385
84
1364
4707
3621
4738
4277
305
3071
1985
5107
3151
4239
1868
4939
2835
2890
3824
243
1555
4330
3550
29
3529
4784
4952
3083
3552
1606
3029
3725
4181
632
1610
1159
2667
1162
2201
4697
4574
3727
1744
4877
2623
1286
2170
5143
4247
3234
1102
949
73
2266
3929
4062
3118
3182
323
381
4240
4296
