3802
5544
4488
7717
4156
1984
1091
5319
9480
2006
3299
4591
8229
5979
6517
9507
2363
7749
5866
1036
4292
9227
1848
5933
6899
4638
403
7874
4332
5410
3620
9010
2362
1428
4580
3127
3437
1000
6834
1157
833
8414
7450
6530
4593
1937
8017
3425
8892
5002
7106
4121
1989
5820
8008
569
9245
8845
9183
9282
4699
4397
2833
5613
2990
1117
3861
2843
911
9292
4098
3271
7790
681
7742
6524
6725
3593
4971
961
215
7709
5212
6981
4292
9064
1202
8531
6902
4653
9393
7947
1525
6591
8346
819
7469
6636
6210
3881
5188
564
6804
8930
7319
899
2268
3069
3229
7423
4712
6862
4931
5117
1749
2874
5368
3729
7335
7759
5933
2885
1624
9368
3650
1224
7350
4812
7407
3161
3596
4117
8389
372
7118
9537
1293
959
7112
8224
8971
6893
4646
96
6141
6180
6317
8194
4767
857
5204
734
4807
1254
686
5131
4241
9476
2883
28
7421
3031
4730
1003
958
824
734
1401
2123
350
8245
1179
4341
7248
7246
2936
7632
3479
3891
5295
4059
3639
7383
4703
8850
5744
811
1467
8355
4828
6400
9492
8214
3360
2409
1583
8366
208
3134
597
709
4040
2368
7700
1320
5493
6461
7321
8080
3005
9304
3523
8277
2019
2590
2635
6552
8187
8872
5287
4928
7390
8161
8132
5622
4589
7072
77
2063
85
8560
7465
4184
8184
2364
4165
2084
2951
13
8168
2449
2695
2211
6695
3376
4089
47
1509
6333
5458
4724
7468
7076
3208
4394
7295
8561
5033
4080
7269
4027
2258
1602
6166
3867
8303
2542
2656
4425
2846
3064
9464
4115
1021
2329
1623
7618
9313
1080
550
5511
5253
6996
3294
1011
117
3007
1325
7476
1174
689
50
1135
5771
3814
179
4506
4820
6685
7314
1862
2586
2636
7121
7015
8934
2993
2055
5629
5924
1532
6473
668
8022
988
1354
2164
1917
1824
3823
878
6220
5994
4970
8226
5840
8422
7121
4125
9197
6926
3227
8405
7171
583
6996
1536
1159
4484
3591
2030
5257
1390
1974
2119
6439
5035
7214
5248
7997
3349
4972
5119
2793
4435
4767
8050
5
7300
4383
5221
3547
2688
1203
8588
5313
8911
6012
299
4396
45
2523
2069
7203
1076
3794
3184
7137
8813
978
3363
8327
2794
3872
2636
5599
8453
50
9233
3990
3783
4781
3129
4769
5528
8830
8031
5869
5230
970
2170
564
3689
9455
1738
4660
6537
3868
8468
3483
1831
2788
7009
5229
6015
8900
528
2322
3876
9180
1980
4632
5318
5968
3685
5089
1557
464
3560
2193
1994
673
1247
3064
5899
4883
1616
3923
5012
5484
934
9062
2569
3039
7097
9370
6196
1099
1047
5528
7479
5475
2435
2946
8135
3523
6
840
304
2989
8193
6351
8805
2333
562
6632
6196
9174
5112
5705
5531
5195
5414
3470
9170
8139
3621
7061
269
1794
1989
4939
4367
5308
4309
9519
8409
4463
7179
2886
9452
4672
5820
2446
481
9167
1177
9383
2508
6882
1818
2836
3689
3693
5793
4850
3623
2795
2539
8049
4586
7832
3367
5487
6323
5603
840
309
2656
1543
8376
5822
7814
6359
7863
7226
6120
3014
5266
3566
902
7329
4098
522
4706
5000
8665
6019
1799
8761
9488
8379
4811
5225
396
5666
1292
1327
154
4992
1423
3903
8633
185
7678
6864
442
1084
3589
1451
8512
6057
8690
6492
2752
4261
4813
1331
892
8709
8167
5211
7991
1036
13
266
2872
6010
7093
2690
6028
282
7988
4288
8563
8442
907
8004
8787
5226
2812
3145
2096
5463
6649
5463
3791
4787
3040
2179
498
2859
2998
2534
5838
8365
1822
8102
5047
5011
271
8595
3650
7444
4182
8034
1189
1526
585
2268
7232
9426
3328
4053
6564
8269
2067
6526
0
6251
7718
7842
5861
4842
1569
8719
783
1388
691
6690
8170
4314
4361
5049
743
3567
4849
7883
563
3385
1490
1542
8114
3379
1943
4454
806
9070
583
1381
8927
2410
151
2951
1127
5946
4811
2676
5907
2075
3753
5245
4092
2367
8676
266
1780
8118
5981
3837
4850
42
7483
6215
8873
2769
724
2284
2529
2612
301
6556
4128
3542
6171
1139
4031
5038
1849
6962
4577
8801
7042
3808
7718
2498
4235
3540
5849
6749
8226
5960
729
9087
4306
8587
7969
28
4479
2556
2598
6801
8895
3339
4130
3884
5522
7125
8794
6675
8115
3197
431
9358
2195
6982
186
3278
4911
8544
8214
3996
1596
5611
6920
5189
2371
7834
7141
6968
6248
1477
1120
3505
4314
5330
4894
1113
9168
4686
5478
6961
4024
5148
4155
479
9537
9219
1618
9480
8572
8602
7027
9079
2067
6246
3591
175
5869
275
9246
2289
3227
5739
3359
697
2300
4976
9380
4780
9505
6913
4497
6203
7428
7249
1838
3902
1798
5660
1753
8584
1993
3754
531
590
5339
7674
7595
1283
77
9240
9180
2664
2024
5371
7031
7977
5117
4431
3496
7857
4413
9362
939
3154
1272
1831
8648
3101
6584
52
5184
4721
6310
2384
4387
7598
3796
1150
7311
9214
2642
4660
6367
8760
7675
4949
4609
2969
584
4793
3906
6816
2976
9154
3334
49
5592
3297
8677
6735
981
8579
6690
2464
3032
4356
8991
1742
2374
9218
8243
8107
1565
222
8566
8637
676
5287
7972
128
6862
4384
3201
6693
7875
8132
6652
2885
5747
9513
3308
1060
6343
2214
8671
6804
7587
7334
9179
9206
5314
5627
3975
8955
8233
4891
2063
1691
9459
5335
1920
3139
9463
8530
1902
5113
6748
3601
7276
6218
1805
9313
934
5876
5600
4361
7419
6450
238
6946
3123
8886
8274
3269
9152
5546
5663
6088
8572
7310
6360
4301
5893
4537
9025
1712
4601
1222
1872
4652
371
3876
1787
5610
4087
8571
426
3743
1091
6622
6594
6767
7398
6846
8007
5458
793
1603
7107
8315
8730
1762
6027
6956
116
8939
8447
2114
3134
3986
1107
2022
3523
4302
5133
76
7495
1994
267
2476
5418
548
2462
8211
4853
2486
4481
5784
7494
7987
8383
1881
4400
2716
6688
844
5304
8097
5091
156
504
664
2541
3753
2162
633
9146
6043
4410
1987
1673
2664
1724
5139
2634
692
5364
9487
3825
1427
2024
722
6706
5118
2748
7274
11
74
9033
7151
9529
5998
412
1996
8215
2228
944
2932
4635
6699
2831
7604
8543
7984
6585
1608
4408
5968
202
743
8293
890
3442
2751
1142
4702
3224
5150
5084
1429
8252
4764
9494
6560
2746
1930
4235
6996
6163
653
4355
344
8471
9076
3769
6352
8042
1614
4661
7981
9185
6564
2946
2357
8892
6903
8047
1465
3037
3419
7040
4270
5736
5377
2918
5689
3578
1431
6819
6927
977
8389
8263
5622
1906
8039
702
1626
3922
3674
6840
6292
6175
6093
4353
5197
331
3214
3694
8174
4219
2393
1997
3076
8209
3393
5092
1727
2440
985
457
4325
4285
9131
5230
8369
1060
7429
8880
1893
2569
3920
2431
4485
7809
7646
6488
5453
6801
387
9259
2511
4385
2157
3152
1219
4683
9025
9120
4916
3535
8178
2910
5949
7656
1937
8737
4340
7796
9230
7942
2618
8120
8515
7070
192
3443
5503
5976
7750
7548
3
5261
7843
8177
6889
9058
2808
2963
429
6352
1178
8236
7793
7811
439
3684
7436
5008
5721
2423
4059
1812
1971
3546
3996
3626
6813
2388
1593
3354
2103
3552
2734
3621
6205
3021
3643
2621
8734
5864
7756
7801
5031
3571
8334
2854
8888
2475
891
133
5838
3853
3963
3726
3244
447
4271
8454
3615
7494
2690
1472
4556
8851
6783
9202
4618
7966
5685
790
6790
4354
6675
1537
8836
1292
4693
933
3223
7024
6511
9003
1744
1842
9241
980
703
2067
4020
5447
20
7239
4588
36
1662
415
6631
4385
4499
8171
6601
3166
6203
8894
2362
3660
4161
7759
8434
382
624
1232
2792
1144
3912
2010
6147
3165
4943
2383
7438
6625
5359
2488
3878
5041
2084
2527
1765
4673
4786
7826
1302
7291
3573
6695
8532
4161
4694
3323
3766
7475
7700
1470
7153
9108
1936
7212
1489
2031
3377
1010
3597
8111
4219
8168
6532
6014
8783
848
1607
3483
6652
3057
5713
223
9513
481
1926
1817
3035
8829
3408
1391
1707
4530
7428
1656
8357
3093
937
2493
747
4428
2471
8669
7217
4777
114
3977
4238
8756
5343
1906
4225
3117
2032
3124
1998
9272
6220
451
4612
4861
951
7077
315
8668
8202
6656
7703
8409
2076
3144
6653
8238
1574
8744
3442
4825
5565
3088
7865
4901
8921
9115
4485
3266
9325
6280
4121
6541
4918
3972
1933
4310
6381
2567
9042
3689
2394
4951
4045
6828
4391
210
4030
9031
9162
2196
1688
4389
1615
5317
2057
9091
3690
8121
6611
3871
6450
7629
6353
1651
4807
5060
8649
3806
2593
3016
1300
7108
6890
710
6225
7649
973
8080
9366
1407
2161
6520
508
9385
7154
6955
5993
8252
1166
7685
7421
1606
5281
9077
8235
5542
7059
4781
8710
7451
2840
5763
9468
1261
4054
3044
478
5314
1110
1134
3202
2838
8449
3277
8602
7269
2173
2266
7222
2686
8205
3366
7498
5145
5457
5667
4661
999
7959
2218
7882
3690
9352
2778
8486
3380
4832
4618
8231
2077
1574
7016
6525
8205
6318
4918
2246
2896
2552
4977
2851
6296
1738
7701
113
8573
9166
3710
3682
7041
5759
785
5219
8315
6851
8076
7471
8282
9198
4059
9054
366
4785
7762
3231
6227
3474
120
2188
3179
5131
7042
4764
1851
1414
5518
6200
2942
4065
3164
4311
400
1347
4674
3771
6441
8843
8109
8854
3122
7492
6567
5269
6495
1671
4992
2025
5260
6146
8490
9491
890
7214
8080
494
517
3552
4940
3165
431
7824
1472
2322
4356
4754
1606
1571
3930
1426
8877
1772
4608
8548
4344
6622
1994
89
5383
2650
792
1465
9381
7145
8089
7758
7627
5509
4616
7125
2675
1617
5953
9353
4218
4203
2954
9201
4245
7635
2280
5051
2924
8348
7129
7868
3308
7339
5425
1202
5965
1763
4692
1657
7956
6565
1071
953
4371
3059
7867
8049
8149
1992
6208
5690
745
5681
1153
1656
3950
9159
7968
6491
4150
4390
9260
1972
3075
2865
526
5426
3331
3223
3243
9191
7068
4138
225
2857
1780
6410
7167
3464
8479
5006
3928
5729
4115
1900
7077
1254
7414
2639
1813
6712
2795
3063
8717
1802
7230
7504
1225
4493
9410
3015
5266
8963
1620
5569
2399
8773
2666
8626
499
2033
8755
2263
1765
5301
7299
6489
3158
3020
8084
3775
6773
3387
1891
2402
3481
256
7248
9136
2072
3079
3968
8234
2575
2068
4077
7223
8989
8929
6769
3666
6203
3440
2133
7323
6858
271
2397
711
2585
3314
997
4763
1282
2713
8962
6864
550
6602
8026
8072
3141
3360
9198
5456
6588
871
1459
1678
1651
6089
4021
1298
3943
4303
7456
2202
1044
641
7381
7759
3645
443
3576
1370
1917
5789
6020
6800
198
4345
9296
3102
5941
6221
7973
1334
8572
191
2489
899
3452
458
2246
7063
656
7324
601
6820
579
6349
135
9499
7951
6400
2277
5850
1146
3463
7917
2606
7961
8693
2081
4145
7760
4008
915
9199
2680
1818
523
550
5901
2794
7240
8964
7341
8592
3887
2528
2099
2121
9291
9502
3625
2508
6770
6353
8644
6799
961
2507
2017
814
8957
6776
8254
2855
1518
7355
1463
4570
1094
4771
5634
1911
4555
8617
8878
1606
3915
9264
5184
1939
225
8378
489
7312
7793
6845
8317
7921
4964
6742
5660
1167
1681
7593
8022
441
696
6587
4829
2043
8822
4437
2667
8656
6827
9371
7607
2459
5592
2098
8333
5566
7821
4467
558
8684
7478
5744
2883
6130
2190
3552
669
7741
7777
3318
4745
8002
1635
5551
7126
62
2622
8686
7480
7317
213
1182
2693
8971
6903
6663
1855
6739
2755
2529
433
3772
5450
8683
5875
8720
5895
5720
1989
4527
5260
76
4499
5618
6018
2541
6395
9079
1498
8785
2180
5390
3779
6084
9491
8857
2584
1244
7402
8824
5863
5217
4292
4283
3228
7586
6720
7105
9256
2198
3986
6623
4555
8751
984
4414
9484
8311
5363
2866
6496
8633
5900
5284
2018
64
1790
2286
5994
823
3022
1138
8237
7127
9486
8278
1545
4141
1088
7040
5791
6791
8610
4875
7489
2524
7064
9016
7195
2097
8894
970
4613
4184
4300
861
7790
1195
6476
230
1701
2985
7282
9226
4241
3621
1408
8476
9509
4284
7969
7877
6425
5922
3504
6451
555
9020
6518
8554
9194
7286
4956
4011
7691
2348
3412
8059
2788
7623
1459
5500
9030
262
4583
115
7692
182
1695
8318
3379
3659
2468
3932
1515
5232
4997
9292
7824
7894
6835
3527
7324
5358
5738
355
2962
710
431
8493
7690
8755
802
6713
8800
2573
6801
4349
4096
5559
4032
3648
8299
3673
881
5770
7879
1368
6720
7182
5381
9397
3703
2947
2731
6598
5215
7456
8434
4958
4874
6255
6074
4072
2410
7777
1429
6496
1024
968
990
7406
9366
7965
6938
4880
7323
5513
8250
4330
8809
3256
1377
2077
3242
4514
5306
8833
3323
3039
6921
8600
901
3129
354
3125
222
5871
2646
158
5000
2240
5370
6263
4502
2347
6900
6154
8740
3319
7429
8491
7920
264
9309
13
1291
3041
5517
4924
6167
6455
1198
6576
6676
8619
8371
3215
5142
9064
753
2590
2220
7310
2505
6192
8847
9075
1824
8053
3178
9291
6102
6971
7502
6167
8740
1447
4731
1278
959
1270
6682
8629
7823
7258
5031
4213
8694
3441
2058
4476
2814
8522
8937
900
5969
5800
2157
8484
7742
3915
2470
6305
5803
5184
5618
56
7359
3357
5458
3351
2774
5375
2976
3457
3744
1738
1841
8500
2393
7287
4826
126
4964
6072
5107
3224
4412
788
7612
8412
1348
393
4196
3785
7558
688
5372
3077
2277
9185
2848
9275
6525
2268
209
4434
326
5767
35
8315
3434
5082
2731
1335
140
3225
1666
1737
4500
554
4528
8111
4695
1507
7175
4399
3809
1383
1857
2971
8615
473
5441
7338
3556
8288
7878
4673
5132
4091
1061
1310
5804
8685
4908
8995
6345
3473
3149
4991
9046
686
1090
1155
8126
4073
3728
6812
862
184
4035
1393
6697
8362
2448
4412
3195
3076
6698
1098
7803
2217
4187
1269
5046
6757
9266
1121
2604
65
5077
2842
6771
7078
4237
8854
6886
1275
9008
8243
8339
8451
708
7152
8342
2820
630
6425
1350
1883
3209
9152
1639
688
5956
3972
7394
1901
3328
3798
2564
306
5562
7511
1605
7737
8818
1361
6162
6861
3400
5951
9111
3613
1628
6052
8751
6031
7515
7118
7653
1686
2168
2988
7111
4877
849
9439
6410
4493
3314
3905
5850
215
7804
9220
5198
5728
1460
6319
76
4995
2267
9098
6597
4093
1269
380
531
8267
295
193
3740
3923
3702
122
6324
1604
2658
2379
2132
8586
8320
1735
4289
815
1283
8579
2465
9365
5870
3053
9072
2480
9099
7255
2803
6623
3077
4157
2478
5319
6905
1812
6299
4385
6747
3473
3873
2241
7319
9122
631
8299
7702
8276
7222
8254
3414
671
413
9276
5187
3567
3355
186
326
4191
580
6532
6580
9255
1973
7053
3858
6218
2411
8933
9367
2014
6714
544
3764
1658
891
3773
5417
3468
461
855
1526
8296
7292
9128
5548
9052
212
9311
622
80
3412
2092
8592
1649
3704
6076
2578
8207
5938
1413
4787
4921
697
6509
5632
4226
2323
6363
3932
6158
4021
4748
4315
6598
7833
7429
655
5997
8212
2113
8319
3916
5666
2437
8251
356
6398
4707
8989
7171
5005
2121
6298
2829
8279
3468
3900
5478
5025
6546
6412
2723
7294
3895
6985
1493
7519
4072
1519
721
5267
9038
6183
7993
6644
3554
6024
4716
3396
8523
2683
4007
876
8588
812
6923
4507
8801
8176
8767
1024
8132
4007
7206
7393
6694
6859
8286
8516
7996
8729
5886
4412
5163
5596
6537
8925
9360
2727
4576
8685
4673
535
8217
9387
82
1441
5875
1506
1675
4800
1447
6708
3032
8727
1260
4050
2895
2543
7963
3547
8985
6031
2758
6983
4392
8511
9135
5437
5897
3829
3477
3154
1427
8398
8975
6735
828
1130
2672
6499
8560
1267
1700
8157
5575
8004
4865
2576
5175
2019
938
208
4740
4743
609
3005
6653
1040
4228
2636
5861
5705
4483
4503
7890
1028
2308
1598
6313
7262
3059
2148
3662
1399
5285
6951
87
6080
3369
1999
9362
4020
6474
5990
6020
3508
3036
7050
4618
7619
5034
7446
138
1123
3297
3502
9190
4081
5436
2893
1337
2858
5488
7669
7359
50
2618
6186
2176
5153
907
800
7892
4041
8235
3235
350
5339
5655
4829
911
9207
2234
6147
7743
5867
2584
726
3791
2237
7327
1149
8469
5480
4322
5819
8349
7052
3807
7282
1273
6550
1324
4559
4413
6360
4329
7786
8273
6959
522
7755
3668
2042
3489
2999
7493
678
840
7817
6641
4287
2089
1520
7793
5322
722
4793
4109
1755
8672
7035
8386
3475
6419
4819
7353
9171
1417
299
3058
1100
3128
179
9104
8050
7014
8254
6546
299
864
8763
7155
8328
8051
1596
4915
8195
6671
6964
9199
5733
8493
7805
68
2593
9217
8593
6871
583
7345
2318
1040
7314
2606
770
597
8455
2701
1812
8150
4082
4957
4017
323
1500
7783
2787
4029
1288
4875
4504
1635
8756
3347
356
3698
6211
5878
9144
4465
6396
7039
3867
6163
5370
1288
5259
5661
5167
8122
5937
2339
3548
66
1991
8747
8811
2975
3355
7267
348
8791
3068
5753
5722
673
4160
8832
9365
3657
2561
3337
3577
5750
2050
7308
7531
7121
479
1097
8724
9085
6965
2788
7116
4377
1372
6833
676
9326
1086
2912
9351
9418
2956
4085
7215
2579
209
6215
1380
5979
215
3149
7203
2722
7703
1534
8913
1990
5501
8566
7271
1567
3097
9134
5546
1540
1248
7915
3500
5428
5942
3388
5097
2386
1138
6575
3541
8425
2464
8579
4203
4412
3783
4547
9443
8739
6014
2594
6860
5990
1202
906
2392
8634
9491
7247
8418
5183
737
8918
4987
7782
5113
5036
6011
6748
2847
5306
1882
9515
5071
3166
5138
595
5513
24
2030
1570
991
8002
2309
1074
9181
5634
8947
176
6872
647
925
7691
428
3587
1141
3654
1745
7491
3976
2639
7093
5852
8147
7293
415
6695
9129
4397
4920
6260
8571
7041
4358
3769
7503
2462
9351
7298
5975
4984
7848
5881
9122
2020
4651
4852
1493
538
641
1238
5624
5045
8192
1371
4136
4568
2096
2279
1149
4782
524
303
5128
6330
9240
917
7078
277
8648
7822
1446
6022
9212
7885
4033
6666
4414
162
6069
6396
1140
1112
5495
6683
7599
140
1349
4530
8551
224
1860
4821
1550
9373
8999
8644
1163
4150
4163
3021
3883
6645
7566
7654
7798
8743
9039
5888
348
4888
2215
5862
6560
8789
6270
1528
2011
972
8657
4969
2278
3681
7565
9311
3358
8362
7786
4727
5376
6432
477
3363
32
893
7976
2881
2415
8840
4131
8019
1198
4080
2008
2839
6012
3174
5660
9234
4211
9437
6753
2332
2874
2031
513
7696
7347
6486
1473
8699
5191
8024
8608
7910
8812
6165
7511
2165
6944
8176
2777
1550
9179
65
1039
5927
6835
5954
4097
7454
7744
1984
5837
4923
7720
8861
6714
6023
933
2532
8082
9336
2609
3618
4744
5728
7003
2984
7808
3804
2091
3770
1685
2742
4076
8435
2286
6279
8447
8766
218
1419
6950
721
1317
7962
4234
3936
9539
53
7821
842
8255
9398
1780
5073
182
2162
8908
8812
7212
1089
1946
5174
2636
5123
4757
2101
7455
6297
5663
1061
4798
4778
5727
5092
7033
5658
4378
7391
7824
2826
9403
3906
2701
3306
6909
7745
7933
5355
1848
1447
45
5564
3259
4541
3641
6568
6885
9500
7211
8779
8731
7535
4613
5351
7690
2228
5572
5357
5562
6106
5806
5897
6030
1266
3712
6759
6113
7094
9517
3504
1214
3074
5039
6537
3884
9414
2876
2259
684
7941
8742
7428
4923
7417
4047
7113
2977
8259
9419
49
1400
7166
4448
3547
8999
4600
2604
6653
9190
3501
5311
2105
6719
8213
3156
3348
7563
4829
2617
5169
7999
1034
7759
8704
7727
8182
629
8373
444
3659
8970
4581
4722
1474
4298
1440
685
1
2453
4184
178
122
1382
2173
1886
2448
7442
9258
6138
8527
6869
5877
8029
7808
2532
7059
8411
3187
2210
7735
8816
2446
7449
7957
530
879
9448
5767
6653
4709
8986
700
311
5976
2822
7497
9432
9407
2070
6413
1684
3660
4027
1429
3876
1515
5187
4705
2563
499
5954
9374
3625
4842
2727
7117
8955
4984
8235
9469
4410
3608
9424
3505
9379
6539
2863
6909
116
3670
9012
4395
7380
6142
6192
4773
3005
7131
3761
6647
8975
8018
630
1495
2210
8497
1149
382
516
7997
9198
5321
1377
2070
1503
5088
8756
5320
8878
2612
8355
3829
4812
6539
1428
5103
3074
1291
6738
3684
3266
4319
1323
3485
2917
3674
5915
8113
1739
1026
59
3075
3737
8273
1601
2147
7362
5780
2216
5346
4126
8103
6356
6967
3445
9233
447
2899
4547
361
1119
3778
4877
8471
5227
503
2539
5922
5730
6959
241
2751
1447
7333
5165
2502
6811
4851
975
6469
1305
285
2599
4230
5700
7606
3668
6162
7836
8945
1158
6732
8327
2956
3531
9298
4935
7137
9220
6288
276
55
6391
644
6504
6268
2117
1643
7043
7701
380
3499
1089
3962
7334
1488
1987
2768
8369
5124
8097
1613
6544
1803
2835
7780
9500
9300
3791
90
9493
9012
9443
1681
5728
8365
4901
5443
7153
7446
464
31
7998
5722
5399
8784
5154
4534
5884
2563
7180
3709
1661
3040
7528
4835
3898
4344
5888
6297
9096
1339
81
8053
851
7721
8617
8862
1972
847
637
2948
430
2283
3324
8834
9426
2964
7695
5296
3391
8093
8353
1759
6280
3117
4342
4344
5941
662
9511
726
7252
2739
6140
9264
7895
6726
4618
79
1408
14
4882
5232
9070
3270
7236
8147
4524
8965
7925
2321
1189
3395
2479
4112
2210
7993
2410
3181
3815
9196
5028
9305
8464
1598
8754
4173
6964
1850
2299
6929
1837
271
8955
3424
1868
9233
3764
3434
5808
5364
4369
1314
2230
1305
7179
7575
8475
8195
6789
1611
81
663
5940
4216
5688
7505
2444
5891
170
7231
8899
8022
4499
6879
8044
4717
1479
682
8773
5074
6570
1727
8634
87
949
7211
45
6796
6498
4935
5589
5125
7650
7579
8943
2774
1817
8959
1117
8755
3147
1675
4436
6844
9262
2144
5621
6146
6535
8246
1247
8055
398
1309
2792
5031
9262
8117
1676
5224
7153
6082
677
8417
1431
3132
8369
5555
8357
4152
6714
2893
450
7816
8584
8142
9402
2122
7171
3489
8941
9409
5878
2065
1735
7127
9511
1043
1354
1267
4414
9137
6995
2223
1522
8201
1979
9494
8926
8411
5637
3889
8781
6896
5769
4847
672
6228
4823
3668
1513
635
1773
2519
4217
7992
8075
4072
9444
8890
1961
7865
6545
8721
8224
7223
6298
5109
7899
6417
777
6035
7490
6337
7356
2493
3152
3865
7743
6630
7133
4418
7380
2795
5518
4575
1529
9185
65
6841
6894
5321
842
4678
4922
1791
1809
3865
7480
387
1407
3065
3363
8061
3202
5849
1762
8547
1564
2128
375
7841
7976
9533
4990
3138
1405
3783
5722
5834
813
844
3642
3564
4582
3660
8961
1931
9480
5061
5824
732
4298
8325
6548
6507
4691
5028
5348
9071
8309
6889
890
7163
5712
6432
7145
1264
1661
5258
2144
2281
7555
5436
6278
679
5864
2037
7909
629
5830
2836
1155
6355
1600
5263
615
1099
9099
1571
317
6913
578
512
357
7326
2097
2615
7833
8928
6755
9335
5722
6045
9083
7662
3340
1785
4957
2786
7200
6137
5535
3513
7519
714
2230
1485
3394
3535
128
4917
1273
7777
7691
7152
2411
2125
3895
9311
3572
6603
5194
4659
8142
6450
8357
8797
7655
4199
8257
6404
2072
968
743
4549
1571
4194
352
4988
2451
3491
8628
5510
592
7954
2429
4015
1650
992
8719
4116
2356
1025
5751
867
2650
3136
113
6406
1708
3548
4774
5249
4574
6048
8694
3411
4652
19
5933
4737
6555
3241
9533
7631
4455
6761
6228
5348
9444
6771
6079
7356
7128
9069
2618
7213
5471
5651
8839
4820
7801
2070
1435
5402
7546
9359
181
6659
4768
2472
5654
2054
9122
386
5442
8379
3833
3605
2439
4954
6102
6431
828
5946
7708
1860
8350
7210
6320
4556
7772
9407
341
1750
5350
19
1239
6656
7074
5322
4774
1762
2550
80
1631
2339
2466
8815
6202
7135
5927
1926
9000
6722
3370
3291
2441
4906
2719
8654
9159
9006
2910
2304
3809
5083
5607
5276
8382
5159
1642
4339
8934
3488
1718
3535
7056
223
3359
2666
4554
6567
8823
3033
6734
5718
8954
3133
3038
4798
3222
4829
8214
664
8910
1734
1902
5803
2867
3484
6327
5768
6745
8763
372
7135
3121
4427
5475
7557
4004
2620
1706
8221
3956
13
9531
9294
234
8783
8535
2689
3055
4647
5226
768
7420
9450
3741
8663
3394
6777
6918
56
8496
5017
8213
8275
496
5371
1381
1116
4108
9398
4925
5616
2289
3963
8696
6393
5699
3990
8088
3491
9033
8011
1727
7873
8489
5655
4009
1770
3655
2714
991
1257
2629
5621
4464
120
7466
7721
8705
4937
6581
1095
8787
9348
1959
3103
6957
7870
7302
4677
2638
4351
684
4475
7744
4428
1071
7141
7859
6977
4082
3434
2037
5949
9346
4144
3014
1129
8584
4572
3761
3569
7338
4296
2797
1275
1817
5677
1434
8738
7861
9245
3600
9114
7789
7378
1323
319
8379
2957
8010
5488
7972
2271
433
3663
7869
2418
7449
7415
2757
959
4755
7721
8131
2428
5106
7483
908
3441
5519
358
2122
4037
5810
8296
1068
9135
2950
5232
3258
3618
2394
8006
1845
8367
8319
9503
916
9333
8639
109
9022
5176
5480
8719
2784
2659
1090
1489
8404
1203
5323
6571
7
929
3249
7948
3460
8403
2318
8330
7514
8809
5239
392
6064
7839
1103
2341
6817
6675
6392
4632
2523
7797
48
3637
7585
1966
4001
6652
7480
1738
7139
2436
1518
8122
5580
2163
3410
663
7474
2544
4608
5849
4325
5238
6830
4999
7884
781
1610
272
3074
5612
2319
955
210
4622
5502
344
820
1225
5232
836
2443
7513
4745
5459
1783
633
85
8973
2232
3281
2537
7874
6053
2668
6418
9487
5448
8600
7457
7507
7375
8076
9258
2346
1944
5730
9107
7278
2418
5884
141
8319
7915
8618
3402
6909
3554
9389
9410
6970
9230
4438
6499
9333
118
1393
5577
1323
1389
496
6444
4816
3566
1997
3073
6770
6996
3542
7676
3611
1087
8680
5187
6541
5238
2963
7476
9431
3518
2164
5064
5026
6073
1348
9232
8209
3777
6125
258
4335
5356
5995
990
288
9283
4271
6904
8447
7639
8296
9229
6467
1704
8782
2165
7800
4358
8732
1750
6101
9094
2421
8752
3401
4361
3872
6630
1323
8405
7566
3850
7031
7424
3956
8974
9006
7811
2733
2482
6049
848
790
2110
4003
5900
5946
6551
217
345
102
5378
8616
1006
8058
9469
5386
7330
608
6819
6882
9017
2882
4341
6526
7795
5207
8970
119
3957
2408
3743
6012
7961
5866
2995
402
7203
751
7642
7788
8079
7403
2535
5343
9431
2264
3708
7071
8135
3818
8010
6982
2868
5457
2905
3090
4607
2001
4073
2625
1845
2124
3265
6795
3396
6730
9472
1885
3909
9118
8674
5873
6538
1265
7601
8735
592
4030
4101
2191
3965
5981
6198
3508
5247
2645
3425
2973
8857
1676
4591
5003
8844
125
2861
2560
7090
2129
9401
5963
7955
2015
3570
3708
4192
5303
7139
9379
3701
1378
1967
8217
9264
2097
4385
1176
5748
527
9447
7965
1725
7582
4571
183
2940
5630
8589
5949
4083
3420
8298
8768
2972
7685
9055
2745
1394
5413
299
6788
8418
2909
9410
4939
9204
7719
558
8576
2054
5546
1439
3688
6630
6113
1207
4025
5659
8211
5709
7516
5075
4549
6503
2265
652
7853
8144
5192
1952
8212
8040
2008
7996
6867
3219
983
9272
6817
5080
1442
2070
2420
8666
6831
2133
5663
4706
6181
9085
3901
6072
4007
8401
8458
541
7298
2255
5699
4186
7720
1834
6442
838
6362
8142
7787
3786
5638
4714
2381
2797
4738
3490
7634
7396
2810
3719
6395
7524
7164
4600
1568
7955
6143
5810
3493
1330
4205
9410
234
7128
7215
8272
9441
697
2747
8820
5793
6814
3568
2496
3302
7948
5179
5696
1656
1936
6057
6241
5193
9529
1170
2834
7360
1462
8712
2534
5208
3067
4504
7864
207
4547
7395
2233
8448
809
8649
211
2403
4403
89
6718
2884
6849
2977
6283
8637
839
8688
7634
2330
2813
1805
5598
2328
1140
1794
4101
3102
5349
6195
1846
8841
2575
1666
2926
3891
5942
2768
7474
5431
8767
7701
7822
1379
7036
9521
2324
4066
8324
9235
4381
6172
1580
8436
3533
1005
8661
3889
6874
8563
8126
1189
8174
4518
5943
5566
5067
6130
6436
5447
9081
8526
5935
6012
7442
5463
3821
6102
5174
7031
7587
2993
3525
1453
6434
5600
4122
1015
8594
6725
6119
272
6779
7122
3074
5000
7603
5864
5267
8777
2323
278
3012
4599
8529
698
3192
6276
1499
4592
2481
4547
4686
3708
6739
7892
6259
9307
4241
273
8266
7434
8818
3819
4637
3047
9421
2267
4352
8268
1728
1968
6699
9502
6844
5299
1961
2727
9374
3979
4812
44
5949
6631
3978
8819
67
3897
6527
3013
8498
5764
4466
5823
4724
8182
6530
2959
6504
8488
3977
750
848
1512
3532
7498
6100
4410
718
6078
1808
4703
7815
4102
659
5354
562
7641
2616
2712
5514
4564
1933
7020
1430
1842
8940
8184
8664
2531
4726
6643
144
7718
6108
6880
6686
7154
2336
419
2485
1237
1928
8836
3048
4384
8762
7405
976
7375
1307
7869
8252
3467
215
4872
569
2753
5496
5489
5333
6150
6231
404
1466
9304
7988
611
2489
5463
1716
887
2874
6258
7920
6778
3823
7769
4978
2624
7772
4590
1809
1181
5414
6943
7523
6965
2012
5998
3694
9509
759
5828
283
7114
3529
3311
2539
8807
2030
5565
1753
8922
4131
5190
3793
8301
4033
98
8107
5755
1395
7264
4716
1862
4898
7394
2174
1190
334
4675
2939
1240
7833
202
8515
6638
8185
5229
4542
1664
6355
2958
8510
8192
7115
8270
4971
7461
5520
5501
3658
6869
6116
2310
176
4530
4873
7292
622
8308
7811
7901
4875
4750
1194
187
4354
8399
2529
7872
9169
8024
8741
3549
2215
8708
8832
7584
5978
5335
7933
6501
4906
147
1384
6672
6927
3008
2783
5232
8165
2123
3029
724
201
4320
2380
7947
1652
7510
8354
1798
1812
2909
7032
7171
5545
598
4674
5785
7953
7493
8160
2347
7451
7188
8515
2262
35
292
1733
2006
4431
4243
1377
8720
6466
9449
7162
3943
6925
5963
275
5101
1539
4945
8433
502
6683
8416
5762
7049
8869
189
1433
4742
5598
7249
2688
119
909
6870
3081
5991
7682
8523
1157
2801
3187
2361
7539
7831
4438
8769
6761
6034
6241
7102
8842
7477
3393
2360
76
5791
3714
5642
6696
3447
3346
3506
5427
8517
6257
403
9328
3658
2196
1144
6953
1307
1169
4016
4453
7426
2606
3706
143
1322
2376
4899
172
113
7836
5150
1483
8813
5356
816
586
3293
31
1958
6785
3183
646
4521
4411
5435
4484
7913
529
713
2259
1194
3011
8480
5509
1863
7690
707
8638
6736
3280
1137
5814
5319
2791
3098
6539
3503
5861
9480
7709
1315
8714
6948
1162
4970
9296
2823
5791
7215
2199
453
9480
8083
3289
6101
5220
4279
353
6265
915
2425
1772
1378
8273
3483
8473
3713
1006
2240
3618
6653
1945
8678
2793
6253
6455
4685
6681
1885
7503
374
9286
6193
6715
6992
6955
3298
1094
8
8457
222
3997
9239
1974
2471
5413
2706
33
9208
9166
9490
8754
6903
770
5894
6766
1583
58
3390
2336
7186
1962
7986
1848
6295
3017
8596
2152
9147
9203
1387
5809
3217
5710
4240
1248
112
6596
9139
7322
6429
6871
8416
8107
9067
5868
6417
8131
2492
163
8109
5603
5781
1567
3506
1621
1729
2862
7306
3686
5707
8471
659
3730
1802
6403
8398
7188
3974
7100
2003
6821
405
1097
3556
3591
7868
8524
7659
2057
7589
5881
9150
5488
4538
4771
7934
9494
1980
529
4364
6740
5958
6399
5033
8904
832
9448
9280
7720
6388
3808
5870
9381
5732
2283
5581
6200
8726
1921
3186
2411
6166
4653
2262
7985
6902
7285
8304
1323
2488
4632
3109
3094
2848
7442
8813
1374
8497
1929
4278
2362
319
6585
5759
7955
3727
4587
3427
1164
98
9479
460
8398
2943
1183
3563
8380
5113
9469
418
9083
6161
9129
7542
5536
7594
8952
9458
2240
55
1401
9356
673
9058
6277
7263
8530
1839
1779
5103
9417
8828
1690
2306
6409
8540
527
4683
5995
4925
4211
5405
6154
6323
8433
1573
4294
4340
314
3733
2404
1643
9034
5463
5248
8909
1066
6550
9255
5999
491
847
1337
5006
5111
4199
5118
6101
4485
1389
8809
6493
4576
3272
2701
8878
3615
6572
5640
3609
8719
3562
3171
1466
7682
8533
7561
6985
5720
3827
5529
5242
6441
4061
6598
4326
5481
2972
8325
469
1784
297
81
4090
2187
6568
6824
3738
317
3350
8230
3605
9439
7752
4063
5270
9445
4212
1355
1421
2945
2719
525
2540
7995
356
6142
8344
3812
1529
3011
5358
8250
9392
2889
7470
5308
1001
5006
1003
1417
3335
5117
2605
2358
7820
3708
5072
5061
2503
89
8502
3439
1289
2199
1996
2874
5052
3527
9415
5593
6633
6795
6810
3016
2960
9196
8084
5891
9426
5592
6124
4032
1951
2899
5344
9213
6470
4145
1164
1960
3358
3393
6251
4729
682
6938
2764
8254
9265
8583
3495
7687
7001
6886
9075
8817
6247
4786
2749
7241
4744
2785
3323
9038
5150
2401
8002
8131
9273
2687
5917
272
3245
2350
1145
3820
7754
7862
8910
3635
8327
1133
833
4786
6844
9216
4959
4164
4223
1543
8112
1493
5459
6762
2006
6587
5960
6479
1692
8300
4786
3181
7077
1274
856
1604
1751
3454
4249
5468
7848
6957
1575
3533
7104
8238
4932
200
6883
2504
8978
9127
9282
3887
3122
5450
7926
426
6594
2553
4585
9096
1668
1180
6643
6637
6664
9407
4093
5977
8450
3736
1556
6871
9292
1206
5812
6792
8703
634
8131
410
7435
1085
3170
5892
9034
2414
5239
7472
1139
2660
9374
1596
85
2163
1478
640
1859
9407
5907
1552
5182
357
4599
1698
4233
7354
366
5755
4757
5939
2743
8194
6338
7791
6960
7283
8119
8857
8457
6665
5866
3330
4274
7187
6455
2811
8836
8750
3739
1208
2975
5620
728
8811
1305
794
6780
6624
2973
587
3588
4599
5183
1368
7324
6844
7337
2440
6232
6052
544
1325
7853
1964
74
786
3334
7963
9095
5628
6495
2274
7886
6908
257
2356
1530
4182
3668
4220
5126
8512
4289
4625
4915
9427
9391
912
2228
696
2986
299
4024
7311
7888
3635
1853
7795
355
9312
8712
3682
9371
8525
6562
9008
2429
6969
6570
1840
414
2990
9096
4175
3419
6262
7642
7176
4873
775
8558
7353
7221
8092
7845
8213
4881
6581
5539
6268
9042
9034
3359
8527
659
4481
5750
8332
1791
8644
8933
6426
2544
7862
6232
5343
1628
5617
5002
2383
745
9405
5762
8085
9408
8038
8175
6289
8817
1044
3861
464
1231
5728
7404
4993
6896
2702
6967
3993
7620
1409
3374
1757
5188
4356
7753
7473
3949
9259
241
6696
8187
483
3380
5288
5504
4967
7549
8452
633
4026
5538
4840
2561
6958
6775
3910
2208
1560
4640
9526
1712
4387
5971
3101
6868
5976
7379
799
1862
3419
6969
495
8471
7739
6993
3368
5324
3563
8333
7173
4436
7885
174
5263
4021
7185
8840
283
3349
1955
1406
7883
6703
3259
9162
8993
2298
674
7315
3323
9334
4314
8200
8647
7005
462
6664
5039
9305
112
2689
4742
7886
5063
8598
6489
7534
7265
3047
1332
1850
8115
483
297
1312
4145
2361
2211
2173
7150
4396
3860
4614
4515
3243
9337
6466
6184
3746
8352
4123
9535
6623
8225
5483
7374
7722
202
7166
5797
2584
2756
6859
3536
6406
7950
4383
3087
6906
7525
7745
6004
7890
391
8193
4839
943
1497
4388
8961
606
800
7130
7966
2613
6883
5811
6548
2488
5827
9254
8562
8682
4941
8164
3323
5909
5344
5850
3528
3550
8104
8287
4204
1754
6743
4432
3637
7702
8935
6565
2809
7580
2145
5341
3949
5724
4380
4651
5655
7131
5915
5933
8775
3843
6573
4705
946
24
3723
1767
4270
1681
7639
9361
3766
1948
7360
4495
9226
769
4854
2972
8161
4625
7605
29
3747
6604
5851
7905
6014
3108
4062
8709
6857
7429
7980
3607
6374
6219
2497
7778
649
7531
588
6929
1154
5079
26
3730
1206
1239
7172
3377
6291
1364
3239
2529
2693
6253
5617
291
7160
2297
5732
6071
8955
4750
5824
3977
5184
2975
4876
4933
2870
5704
6965
1510
5372
2747
4725
9468
488
1394
879
404
2772
4426
8796
3411
3910
5771
1958
4056
3843
5114
1250
978
7290
3972
6304
9494
8750
8644
3343
1598
6929
2896
5715
9252
5029
5808
4734
401
7044
9229
2871
6958
9185
3770
8423
7336
3043
4358
650
7140
2810
7961
2627
4367
4717
1600
8011
6688
2521
8084
8947
7909
9269
1419
5294
2691
7219
5919
32
2763
4831
1475
210
7449
6640
605
5260
7243
8583
8793
1237
1763
2005
2045
3443
2574
7173
494
2558
9131
7246
4621
8455
6124
4990
4980
3861
3399
9387
128
3516
1940
725
6730
1194
411
7511
7909
8227
7474
5751
4950
7138
8702
8183
79
8271
3475
4413
3230
1061
8025
4519
3003
2163
6537
4994
9453
2598
125
3818
2789
5689
3629
6613
5780
8601
2323
6652
8745
7365
9422
8650
5796
1183
7539
8138
9013
3202
3705
8606
9276
3847
4423
8310
8629
2303
9336
7314
6076
5055
3111
7418
1365
4571
1313
2948
6659
2109
5441
8957
5758
2017
4594
957
8590
1474
4220
2849
5111
1348
9348
9299
8643
8193
7418
3597
6799
2024
9174
7504
9291
1085
231
6284
6821
3346
7709
8085
1329
4782
465
2324
5287
543
3711
1564
3777
9448
4576
6840
6655
537
8094
633
6949
240
4621
602
7698
2712
6787
4448
3208
3295
3652
8333
3591
7762
3845
7409
3015
4046
7075
5935
2681
4040
4105
702
4753
6272
6563
4495
5920
4674
7769
8280
5705
2985
1504
3827
9017
7206
2723
7061
8112
4387
1690
8655
5443
1264
1120
6583
6409
1327
5648
5672
4826
8258
5771
3711
5023
9331
8265
5138
9319
4706
2126
5763
78
2787
1323
5118
1125
4847
4573
7808
6755
3299
3993
4676
3708
1911
1923
8736
927
2058
3366
8149
8237
6560
4175
1788
6273
7102
7590
9429
4642
65
2428
8682
8206
3565
6942
2186
4065
8293
6774
9200
797
2736
2766
6518
5430
1632
1018
1579
3273
7979
5915
7705
7155
7691
3822
333
3487
783
422
1576
4761
7308
1264
5766
6863
14
7117
1962
7373
6587
3730
3174
7474
4610
5159
3831
9513
5026
2024
2021
6406
8354
7318
5967
807
3817
7855
1129
3559
1958
402
6243
6819
6342
4958
7667
4658
8667
2445
5548
5422
8717
4700
4478
3834
5768
5926
7801
4983
4945
7150
345
3004
2110
7035
3685
8954
7528
6980
6761
5624
4193
661
7326
8536
5359
5401
4340
6327
1960
8284
4835
3100
9323
7461
7286
3317
9120
3646
5754
297
3181
3676
2388
2382
8036
6759
5190
1031
4031
3717
7480
9470
2970
7231
6429
9113
795
4038
2750
9158
7144
8692
6370
1797
2614
8516
7717
4610
4652
803
8989
6233
4034
7493
1670
3607
220
3048
5413
3526
2983
8688
4538
3432
8938
1784
6904
6925
4183
1544
6916
4711
4297
7688
4971
2119
1209
4362
7545
2699
925
5905
577
2858
437
802
1081
2004
2978
6340
8616
6928
2434
7483
2773
9272
1925
7460
6088
1640
7618
7669
6655
9294
3109
6284
6285
8322
4421
1423
2362
6034
8119
8144
5024
89
3273
3923
3720
862
8429
7805
6762
5548
3683
2178
4862
1596
7994
1828
275
5011
3208
3115
7886
1539
1553
4929
7328
2801
369
3387
2753
8616
2717
4597
1669
7337
1163
5447
6313
1347
8947
177
6055
4526
7070
7723
4492
513
6907
3534
1718
8385
3517
6706
8226
1897
4160
545
3520
7884
3104
3841
3062
3274
2104
5390
8684
5162
8057
971
4641
5852
7974
2923
499
5015
3512
6428
4664
4332
3862
6380
2897
7623
3114
7132
6662
7426
5240
190
941
8907
1897
6354
7400
6062
4712
6869
4644
2137
7993
5675
235
5261
2907
6511
7846
6011
88
6605
3957
8311
4884
8417
5941
5868
7318
8767
6215
8904
3087
7427
355
4524
417
97
7360
2985
7349
6873
3383
658
1882
8162
3075
6950
4325
1458
6348
6817
2190
1040
1469
8619
5905
5293
3144
3861
3370
7831
5324
1492
7466
9324
4794
5468
82
6955
229
4551
791
1214
2808
2035
9441
9257
5178
7523
6150
2042
6393
1937
8298
243
964
311
256
4360
8247
9348
112
2933
4098
9339
8509
7061
4338
6893
6515
6376
1183
2252
8217
1872
855
6686
5837
8515
7132
3195
1976
6281
4893
1847
6961
1074
3487
4845
8826
1710
2419
3364
2038
9181
4717
6555
976
1802
4275
9410
7469
255
9096
1175
1372
3656
1204
3555
2218
5830
7012
840
776
3406
6460
552
3714
3870
481
8096
7236
6828
6574
1919
6779
7171
420
4785
2214
5839
4181
7820
1746
921
8877
7670
1640
6340
5407
277
1376
7699
6431
4584
3946
4777
1886
1012
6329
3383
5143
3944
5863
6688
2366
7785
5796
7678
923
5149
2200
8261
5412
4042
1640
6058
7585
2880
2633
242
4320
6764
4236
1185
4212
7925
1085
2394
2555
6434
815
4461
6929
5892
8846
3012
1957
454
2056
1471
5915
7727
4734
9191
1508
7841
7706
5494
349
5920
347
6241
9075
5085
529
334
4
3953
6531
597
4567
2370
2567
4343
8910
6186
5275
6727
2573
9039
3319
1633
6756
1955
3348
7524
3177
7595
641
8688
6176
3307
2609
7029
636
6611
8239
2763
4310
5497
6306
903
5998
8876
8013
1754
6051
2472
3316
1961
2656
847
2765
2713
981
8392
6261
4110
8031
1075
2212
748
5684
8242
4312
6046
2699
1091
5946
6375
6647
3686
1011
730
8481
485
7757
6657
2003
2927
383
9318
1576
8623
979
5819
8158
7772
4111
6413
1819
5795
5503
1348
8301
8307
4316
9345
4340
2240
5227
9184
6331
3202
6089
8676
4398
8377
1784
6658
8066
5583
352
3915
1644
3598
3680
3099
7837
8593
2432
5031
8319
6387
4150
7838
8492
7211
8245
2896
9091
9026
1273
2487
6817
3450
246
1756
5642
8903
7325
8327
7722
5872
4993
7250
9387
7209
1228
4688
6687
8457
6169
145
44
8659
230
1050
2884
6466
6
2837
544
2862
612
4395
4577
4597
5304
7218
1485
3851
4352
388
3864
538
3696
6989
8463
3519
8995
6991
1467
310
4789
2448
6871
8500
4593
2618
1086
5364
4884
5303
6052
3299
4685
9354
1852
6941
5164
250
6288
514
7006
1082
8135
9485
4214
4191
6083
1652
2334
9143
8790
5253
8650
5335
1958
2010
6894
1092
2002
2985
4079
1430
3141
1114
1683
6645
6002
361
8538
521
7125
5319
3810
5221
6240
5789
6511
3960
4410
1529
7812
8393
6147
3786
3478
422
3654
6327
434
7960
967
6904
7311
9510
6352
3762
4218
1771
346
7420
5226
3405
1542
3126
2688
3828
5102
2346
6023
3068
6286
1297
6557
6821
2679
5009
3806
4537
8556
2357
5043
6972
5973
6063
4464
5279
1929
4607
882
9357
7572
4424
7615
3340
973
3216
8464
7385
807
3671
7841
2744
9326
7129
7522
2402
4185
4726
2070
5276
3906
1640
9444
7818
9422
829
2345
1317
3061
4486
5736
2271
8385
1795
7146
7585
6443
1816
9475
609
5195
2654
1471
94
3962
3704
9174
5066
9107
6209
5349
524
9438
4155
3677
4722
4775
593
4923
4761
6678
6798
6719
6028
4245
5787
1031
6208
3061
8527
2920
1391
9251
2581
6831
5272
9326
5722
7089
2014
8085
7214
5649
2919
1294
3954
4255
6658
6734
188
4702
106
5794
7408
3479
8381
3443
6978
7914
1605
8534
4704
2763
4869
7918
1633
2457
7049
1966
2296
1367
2201
2908
929
9196
9419
9524
494
7185
8567
6971
2211
5202
3180
851
6059
3709
9334
3032
3773
1722
2752
7665
5216
4624
988
8685
7791
2299
6693
5398
6589
9445
3789
8620
3785
2655
6695
8710
1294
3595
6340
2217
5252
3054
7675
3206
6143
4696
1275
4907
2932
5605
8842
7940
7829
288
8131
3108
6665
4139
544
282
6850
642
7458
28
7684
1549
7091
5654
8135
8057
2831
4877
7652
9427
2847
6660
8393
3536
1907
5869
9455
1461
7693
6333
4154
6154
9083
1218
8476
9270
6094
4974
6982
2110
1718
6632
1928
5952
8283
2390
2064
3328
3769
4766
4463
2445
4712
6587
8920
1073
1302
8925
9498
3959
395
7350
8972
8775
2584
9051
2596
7876
4036
3266
1242
2786
2567
3425
8518
222
9032
824
7342
6839
7506
4665
4333
8168
8855
5917
3805
6908
7398
1376
1648
8126
5931
5414
7006
9453
6677
6392
9000
137
4532
7714
24
7605
445
7639
1494
7224
7644
7747
527
2822
9157
9342
7609
4256
2375
5009
5515
4084
5609
9038
9187
4260
7205
4256
8777
6038
3139
3253
8670
9033
3924
1570
923
6999
7178
6153
6217
6650
3981
7207
5214
5726
8419
4295
1281
920
5471
6258
1150
7161
1923
4821
6570
3791
46
210
8487
7449
9530
3513
8317
8219
8415
5734
8528
5944
7856
4020
9461
7331
3990
1071
3856
4970
2575
5827
3340
4145
5877
5690
9407
564
5650
4112
7128
5656
340
5291
8431
6371
6465
4737
6964
9212
2061
6834
8757
8217
2439
8587
7178
7881
2247
9457
9427
38
1810
4396
3785
7667
273
6467
5389
3044
1268
269
2902
4299
773
8651
6778
6555
2053
2604
1745
9488
2138
1238
8206
7361
6165
5578
4858
6666
8848
7108
1867
7622
3888
2498
5098
5922
2525
8087
8577
3909
8465
8552
3761
7751
6339
2618
5507
8001
2334
9355
5626
1118
5971
2051
4546
5072
9192
4335
3196
9167
9401
9124
5563
5723
8161
7474
6021
4337
1422
8689
8994
2175
4914
3590
4971
4581
2440
5083
499
7109
8803
8013
4845
3820
5482
8659
2873
6358
6744
8968
4176
2919
47
613
5807
3468
2884
2008
7467
5690
8961
8585
7805
5399
7383
1823
1509
4325
8495
6464
7781
9316
5745
1055
5616
1784
781
5759
5656
872
2882
1725
4229
1020
3564
3807
2168
6357
86
5463
6060
7743
9109
631
21
7412
8104
1674
395
2279
7348
3556
7489
3860
4008
5424
156
9287
3831
4623
3730
4821
1250
3883
9409
3460
1414
3042
2981
8743
3814
9000
7744
1461
6214
1742
4858
2058
7836
4264
73
5151
988
7431
6476
5196
2667
6665
5533
1469
7396
104
4879
5250
5560
1345
6386
6628
2588
6174
2514
612
4225
210
2755
7807
5304
2708
1073
4453
7360
1640
3470
8664
6489
6725
4689
4425
8451
898
7599
1193
2340
5244
796
2029
2651
5012
369
8276
802
3047
1108
4694
9539
1837
9097
7095
6171
1128
8429
6390
9516
5622
5012
5348
3473
9166
6225
2353
5496
5738
1233
6572
6583
4713
1273
9460
9444
8875
3418
8552
5092
8297
5190
4585
5804
8931
5462
5691
5668
9150
2226
5304
7263
9092
4854
7681
8183
1074
8415
4375
4285
7737
393
8078
6058
5661
7800
4999
611
1135
2501
4443
6451
7664
8341
199
2515
1717
7946
4528
7617
206
9037
7316
5770
9023
731
2943
8079
3441
3595
7007
9219
1184
4454
4099
7860
3581
3619
5200
967
8660
4602
6850
1581
6980
7704
1662
9128
3098
104
4430
4836
948
3222
8432
1612
130
7773
772
3973
8564
5582
4526
1381
9355
111
2171
9512
2002
7194
8073
2373
6009
8153
1025
2000
4197
1160
1990
2029
1979
6806
8640
5612
9020
5335
4270
690
6026
2794
4190
2649
629
8395
7351
7833
6325
8522
9113
9536
19
4176
3349
7192
9127
1762
8304
6623
3027
8248
1949
564
2979
1314
9043
6017
558
4510
8325
8676
2342
6187
9367
1520
245
3451
4222
5869
8662
6105
3759
7363
9447
1353
6204
7369
6293
5061
4318
8426
3778
8444
2861
9229
3316
3869
1575
2567
4658
9203
3362
3226
5772
6256
4136
5512
6976
1209
7011
2461
3243
3753
1467
3026
1652
6498
3915
4492
1535
3001
4993
2013
5579
1673
8273
7858
2730
8072
1036
5610
5304
2921
1152
3771
6348
7493
1996
8403
6322
9433
7911
6194
2388
3814
4517
4243
1556
7494
1253
4661
6410
8132
9307
5888
2368
1878
8257
8005
7662
5705
1578
747
9036
728
5683
6252
9155
3050
7794
3008
7240
3284
1945
8088
9384
4660
3047
8036
2281
5498
6410
6355
1430
7068
7989
7260
5698
3563
7658
591
1383
3601
8512
5636
2747
2957
7083
1036
264
9511
2893
7919
8488
6717
5661
6243
6392
4419
8331
8527
2454
705
4554
3611
9066
5010
3670
5352
8461
3357
3199
4527
4822
984
1856
1603
6775
2283
1264
3732
1724
6780
8510
8620
7855
4565
4504
8694
9487
2823
9222
1726
6218
1475
5186
5676
2843
1127
7000
8951
1990
9224
7340
8942
5143
3469
4500
7011
8141
8947
4919
9352
2039
1909
5313
6436
82
2027
6444
1714
2246
5304
120
4900
763
3089
805
4907
6092
1657
2685
2279
3947
7242
3229
4795
5405
5030
84
4588
7869
5028
1123
8096
5348
2153
6197
5789
6803
2760
4475
2290
5016
5838
2249
5862
8968
2482
7151
332
1838
5129
834
7904
5006
4982
8043
804
249
5586
4514
8179
260
670
5341
807
1744
574
3668
6989
9047
4187
1485
759
7022
1232
456
6538
6861
6835
8013
8930
6809
6215
7443
6868
3661
7189
4465
7367
4110
2728
2880
3550
4900
3654
3480
2813
8586
4710
240
2787
531
6520
1520
3613
5536
612
1738
8338
6742
6507
6114
1078
8100
2663
3571
2540
4450
1297
951
404
6200
6450
7299
6755
5378
1683
4468
2084
3306
8678
338
9083
8393
6271
9282
8731
8420
9392
6943
2280
2771
1862
5134
9080
4219
4584
2764
5081
1419
1033
4750
4521
8696
5838
7747
7564
7227
5522
1437
7334
8674
859
5809
921
6063
7874
7599
3443
4017
4054
575
8206
8987
5009
2409
7223
4635
3520
1936
5222
4406
622
1453
3724
4890
21
2276
1387
4621
6074
7499
4808
8191
1151
1555
1221
1672
2478
9169
6402
365
5424
9502
7643
6756
5743
1708
6457
431
1386
7876
9134
6237
743
3604
8605
8269
2215
5349
1371
3194
9335
2187
4269
8820
6431
8470
2884
8483
229
7342
1827
4176
9487
2615
2811
6517
1065
8066
2047
1780
3021
7255
3604
5366
1005
7807
5973
8938
4397
6852
2057
5180
7742
2240
4974
6490
7847
4251
40
6818
9318
1445
8832
1051
3503
4839
8762
2226
494
427
4360
6758
6242
6087
6793
1131
8539
8555
5648
3416
3732
1819
1139
8409
1510
787
6527
7204
1435
8230
6347
3007
2762
2898
3649
38
8576
1018
5077
8399
3218
2880
1278
3504
1138
8290
4414
8638
4022
9499
1702
7704
9007
9003
7283
2699
3332
1963
7523
4787
2478
8823
3508
8956
1912
8598
2488
8996
738
3368
1955
124
2566
3220
6829
1183
8111
3093
4512
5758
5852
3239
1954
8398
4893
9287
6531
8724
7943
532
1379
3670
1378
565
7027
7336
929
2780
4011
6498
4664
2152
5539
2746
469
4159
6383
4026
122
6312
2153
9087
1500
944
4933
4805
5266
5756
7085
4938
3604
8218
1191
8883
1637
2749
553
3679
5192
3792
4999
4943
7640
232
3267
3795
3896
8749
9178
525
3691
7578
71
8792
5623
7745
2818
7165
9473
4643
6572
7343
6717
5669
5854
7950
8901
1247
648
7152
2701
6527
6103
7040
4909
5098
1086
944
5738
5919
4174
1678
5434
4181
7017
4823
331
8038
6855
5511
688
3158
8036
4582
2461
2774
5497
5128
2596
2123
2493
6945
2745
5863
1100
5800
9402
1159
8493
7821
5936
4704
4896
2
1547
2491
39
9291
8384
8695
4373
22
4249
4749
1722
966
5265
8900
8892
5997
8924
6377
5229
1353
1387
3978
7762
2207
7196
5298
1462
646
7517
9296
676
3152
6489
6205
8314
6828
8313
3237
1243
1283
8150
1478
8484
989
8287
1860
3182
248
9239
7532
6143
2080
8795
7376
5904
2707
3708
3173
6975
4280
5173
7712
3638
1945
3990
4163
6488
1026
6998
371
779
6174
5601
5239
8568
2246
6059
4340
8540
2109
7022
4441
1555
9042
6474
2355
4231
26
8132
5914
8394
209
2909
2102
4877
3456
2981
9416
4587
4169
8028
8281
4674
7070
8055
2809
3641
453
2552
7450
5101
2817
1421
7572
9385
4711
8896
4009
5842
148
313
6650
33
9026
744
1616
7590
2919
2545
3793
2610
3421
870
2852
4543
4560
2420
2748
5726
1106
8622
413
4011
5520
6668
929
1990
3507
5280
137
7879
1658
5807
8704
5959
3067
8434
3034
5213
2642
7931
8714
5048
6498
3896
8391
6799
6507
4516
6700
1906
8156
6074
1334
859
4673
5662
8851
1724
6538
6514
7592
4028
1863
446
5426
5088
2341
1972
1758
1721
5558
192
8663
8124
3184
2883
2454
4102
983
803
5484
1058
5393
3699
8452
0
6625
7245
6023
629
2876
1130
8861
3117
6652
7930
9530
5605
4730
6325
8350
1163
1902
8410
912
6719
5015
6030
7145
9496
7126
8513
5265
451
8468
5782
4567
8880
8919
3012
5597
3200
2257
3797
2108
1556
2117
1670
6481
3048
6144
1338
2646
7646
7887
1546
6952
7798
5495
7082
7889
9532
1825
3945
3795
9126
1
7113
3631
5056
8328
1542
2121
1757
865
8179
4689
4134
4173
4804
4059
3639
6549
2886
4236
4100
8557
1172
4700
6570
8652
5958
8633
474
667
9385
8330
5802
344
3071
7697
1360
5311
2677
3351
9436
2020
5007
3544
4562
4484
6050
2880
5245
7471
4038
1134
2839
6503
3256
7780
8029
290
7063
6841
6900
4706
5907
2017
5394
4397
9466
5744
7423
4185
8699
2274
6985
6794
209
2166
3790
8775
1822
6603
8058
5940
6637
3595
931
2357
189
3200
4057
3865
840
2321
3144
6546
1437
8746
8244
1984
9254
1744
126
2233
2133
4423
6193
6691
6673
7246
243
6810
6818
2109
5818
6186
4179
8679
913
6140
3405
7200
7489
2449
5041
4958
751
5360
3357
4607
4084
5325
8819
5201
4968
6520
2719
5226
554
8924
7448
1533
5669
9224
4183
4898
2633
7955
1985
4399
737
3288
8743
8399
2554
3587
1039
8759
8832
7515
7384
481
3584
1260
5118
6024
7902
5309
5429
771
2186
5195
9402
7690
3243
4142
6222
5334
5207
4065
7002
110
1658
7008
4390
498
4094
173
741
2680
5732
784
1074
7915
3998
1570
6187
1392
6708
1521
3831
873
8248
8157
6966
980
7906
8523
5945
221
2217
4051
3547
4176
1354
2649
8752
4873
1454
8188
4439
7350
6395
3102
6331
6175
4540
4105
3012
4613
6570
3880
3545
7297
2540
9210
4060
1902
9365
3192
8505
4914
8326
7008
4931
6741
8798
2614
3387
2492
9095
2796
318
2384
5132
8878
1387
5547
4884
6662
1968
5148
3295
7889
6855
4560
6518
8087
4657
1353
3681
468
4241
7666
9490
3622
6482
8258
8561
7520
8304
2486
4952
7618
4162
9502
1472
5452
8146
5112
7461
4901
92
2936
2023
6708
8549
1743
1247
1938
7656
8067
574
6336
7963
4017
7689
7812
5365
7766
7469
1002
9023
388
4149
620
3049
1061
9431
9067
1020
5238
8303
2503
4202
3721
4500
5510
1814
4413
2681
2908
6217
207
5120
3079
4478
5123
3339
8518
2799
4937
2811
609
168
4474
1374
776
5006
2255
596
6760
3744
5536
1522
9482
7530
187
3212
6439
1080
6572
8630
2298
1973
6710
6874
9194
122
1371
9036
8343
4245
1060
2234
6728
1027
3584
7363
6412
9370
7146
12
4358
6208
3680
1399
8703
8130
5667
1336
422
1673
925
6277
8854
1531
766
6793
8732
6814
1502
8177
4501
5810
7618
3627
5996
5064
5105
3805
2934
7091
3522
3738
7249
1162
2128
2364
6691
9045
3508
4471
8704
2810
384
8874
1954
8780
3481
4168
7678
5747
3536
9180
403
3418
683
9386
1737
5311
4155
3946
1440
4337
3409
7680
3351
7240
5601
1951
3620
2244
9338
3394
7496
8936
7273
6813
152
9023
8182
7420
8195
6070
7733
5855
7541
5966
467
8146
7306
6839
1208
4032
5672
4106
2485
8672
2573
7688
6930
2879
5915
1853
1578
9033
8319
1333
5088
4366
7494
729
5566
4905
3200
8937
6429
1661
379
2401
1575
5872
2771
3718
4345
1542
8824
3681
5165
7786
7889
911
1529
4132
7205
8316
9175
1111
8548
5366
7292
4278
8411
317
4588
5222
9453
4921
6651
726
5661
7056
9046
3272
9481
6454
