757
540
742
416
294
33
658
20
878
647
690
591
639
312
753
893
706
903
138
62
739
114
267
390
438
898
180
953
101
874
233
836
298
701
586
781
245
308
819
617
759
728
569
506
618
169
392
689
605
891
734
750
362
482
401
91
667
269
41
948
395
757
685
708
891
701
168
601
426
382
524
878
473
507
887
566
479
210
890
641
961
410
735
719
554
970
38
477
883
561
384
169
730
533
553
342
804
833
796
268
733
369
217
478
880
489
380
905
24
750
900
914
612
342
208
73
774
359
381
517
50
974
24
731
254
962
884
478
373
56
471
618
651
880
772
506
544
613
408
116
157
321
461
455
568
529
748
660
734
304
587
42
16
104
329
764
844
393
447
118
758
713
119
179
303
88
818
557
289
337
103
828
729
716
279
509
798
924
646
940
695
533
600
101
269
518
775
879
575
800
345
291
383
847
918
759
634
427
710
408
927
663
289
127
484
646
387
476
262
482
571
861
801
34
319
633
965
885
635
452
171
429
287
620
35
787
611
770
359
240
830
459
229
432
335
187
903
43
949
627
128
545
748
719
2
172
265
782
939
229
603
159
85
820
417
98
464
929
902
52
510
795
283
721
781
272
599
638
789
224
80
398
360
915
134
818
360
394
586
370
529
806
1
64
213
283
307
168
640
612
499
357
92
429
257
690
330
79
231
977
775
431
617
90
466
949
775
402
743
144
598
383
217
719
28
263
581
196
776
251
873
25
734
961
72
140
903
179
723
680
338
317
748
46
23
543
562
67
481
547
582
918
132
945
901
26
548
848
216
290
337
410
721
481
756
429
463
243
866
644
89
600
8
913
656
417
399
120
396
688
383
834
345
653
436
621
79
25
225
811
147
138
25
975
545
417
327
59
668
907
261
696
509
655
881
524
252
374
733
974
663
657
962
333
677
760
700
2
732
665
275
340
228
483
526
410
949
780
717
512
99
642
662
560
145
677
346
684
707
263
653
704
477
154
832
385
737
4
310
737
968
121
875
839
90
965
145
632
957
461
369
724
541
239
622
695
634
470
145
635
269
175
970
767
504
715
570
386
650
43
202
478
899
383
136
821
766
40
461
76
573
151
811
340
181
814
636
562
64
581
368
915
87
379
501
650
233
440
109
165
803
675
78
535
665
173
945
132
655
773
680
479
29
167
251
346
120
375
922
136
467
515
482
679
677
94
913
890
605
604
796
672
356
183
128
335
174
64
944
513
146
743
267
729
104
429
890
823
941
771
61
214
210
460
823
379
718
640
451
134
546
909
639
924
374
324
812
872
618
640
81
328
802
194
777
441
572
680
66
224
305
425
540
567
835
676
959
806
890
157
299
759
77
941
178
946
808
49
220
631
912
952
730
6
23
162
715
391
607
282
93
871
590
242
157
420
749
342
95
34
321
386
868
608
106
380
257
588
147
502
406
287
442
962
288
233
618
764
617
625
503
65
654
94
363
652
889
644
123
303
433
678
408
641
775
974
581
504
321
352
522
867
234
224
798
416
304
758
14
615
242
688
210
822
157
315
345
361
895
640
643
83
551
38
639
761
68
936
605
67
300
884
629
588
729
536
782
583
545
462
500
787
199
638
317
309
166
184
62
729
677
483
923
758
76
750
133
295
939
847
916
330
224
22
597
958
795
68
500
90
95
447
675
621
340
927
700
905
149
655
34
226
588
258
200
732
36
918
242
561
251
319
397
609
120
420
697
32
228
747
453
783
518
787
175
184
781
726
307
179
71
38
736
634
511
45
934
780
795
838
718
826
48
83
379
264
412
788
382
719
107
258
85
64
962
892
681
468
385
104
650
487
158
595
104
316
83
335
453
547
101
134
711
306
620
535
59
254
956
41
759
502
393
612
732
270
451
332
597
129
644
940
797
869
136
344
171
792
944
621
217
845
415
30
270
909
1
232
966
421
129
738
668
217
310
934
570
761
802
689
865
828
924
475
956
665
396
480
96
863
773
66
574
666
887
630
353
884
907
802
58
571
73
269
794
580
325
111
7
332
285
349
167
884
79
765
498
278
962
179
764
328
899
726
616
421
59
614
239
366
824
792
700
824
410
913
108
787
43
913
715
969
574
798
339
557
609
901
217
701
670
776
50
147
942
790
574
520
914
170
305
232
822
91
504
782
959
338
115
563
715
380
641
878
748
722
716
611
620
171
135
930
849
413
870
149
845
82
718
509
732
682
406
580
697
734
290
227
832
147
