7606
4527
1678
6590
7421
1896
6951
7517
182
6611
4508
2223
966
3933
6660
6191
720
1238
999
5651
4576
2593
4760
8167
7741
7428
679
8111
7490
2247
360
2919
1660
7994
6171
2841
1853
5438
2450
5059
2858
1005
6137
8134
414
5516
5803
5475
7406
1211
2176
5608
5917
1670
8243
2510
5845
7307
2470
4602
6665
7998
4352
2475
5418
4638
1029
1569
3037
3583
3006
7848
1146
2650
1413
7851
6179
7570
4534
6158
2713
1339
3032
3919
4136
656
4729
5786
899
4601
3440
3033
7942
4940
8069
1208
3908
1494
3412
3905
4541
3267
6120
3504
4108
1131
1451
1593
7922
7107
1222
2110
1722
6920
3087
3372
422
2127
1451
279
5369
2698
1459
7096
887
5671
8334
2255
8089
3875
5036
2573
7453
7945
1691
1298
3938
7025
6243
8172
3422
2888
4213
6982
3485
4620
3401
7248
762
6150
224
2293
6593
4683
5065
637
6431
5891
3164
7664
4643
4715
1437
5434
42
1163
8292
4944
7273
4181
469
7353
3512
425
1075
4237
3838
6430
6874
6511
4829
450
2685
1803
4107
5570
896
1331
3975
1329
4391
4575
5972
7836
8243
1639
7543
4986
6570
5805
77
42
3329
2892
5874
7458
8263
5037
469
2170
5770
4020
8173
7378
3630
2715
6029
749
4898
7723
1482
3817
538
600
1797
5084
495
1816
1676
3157
3366
4320
5125
7151
995
3459
7930
4754
6250
1000
1217
7008
5829
3339
6760
4768
7966
6303
2470
5043
1413
4207
1500
6047
4065
2375
4830
6893
4791
1366
3673
6190
6327
4022
7827
4466
2379
7121
6003
4150
6208
6307
4271
7337
1299
4517
6837
4038
202
2788
7909
7524
8111
8142
3597
4958
1033
1611
6010
6114
1284
1840
6683
4373
6714
404
2601
3147
4749
459
6346
2561
6203
8046
4899
2403
4341
29
3416
4024
2425
2863
4803
6488
3414
1473
4642
4959
6106
4034
7146
3607
3886
2531
3625
7284
6142
6888
5835
2256
977
1611
1
4348
8186
1605
3021
2312
1801
6271
5794
6643
6571
5598
5451
2012
6256
7891
666
6189
5871
7435
3711
7337
2569
838
2328
4921
7608
2803
3347
6507
2971
2536
4226
7107
6039
296
4324
7227
6224
5316
8130
4063
5610
5574
7499
110
551
4821
8281
7817
6397
5197
4074
2214
5142
5282
7890
2241
1884
4065
8036
3206
5188
8179
3237
4302
7690
2715
7382
5248
870
5615
4860
116
3875
2003
605
6368
2554
3394
1827
1407
4303
6029
1110
7636
3543
18
5821
5111
3433
7906
6053
4807
2346
3199
892
4676
6092
4366
6017
3371
5460
7205
1577
4321
8092
5373
8162
7621
152
7890
937
5075
10
5944
8069
2866
4417
614
1932
3132
2591
5246
6543
3929
2050
7497
6681
7182
1669
6513
8213
6477
360
6013
6596
1403
4781
8067
7986
1857
231
7890
4534
6892
4165
7964
3045
2416
7753
867
3156
3959
2835
4596
7858
1220
6740
8288
4983
291
1968
1471
6008
5728
7436
6059
5973
733
2486
5367
8001
228
7070
1113
4974
4146
4689
214
1116
7614
3069
328
52
5010
1173
8198
2465
5544
5389
4152
151
3904
909
8114
5460
2818
2478
3672
4080
7304
2745
7652
4946
5775
1137
5800
3034
3363
4141
3934
246
2324
2103
2226
4420
1091
1376
2631
2705
6190
2719
6458
592
8333
7846
8016
2214
450
1715
2407
166
6520
2529
5849
5971
3508
3696
4434
5533
8125
6178
399
905
6126
7109
5876
5940
5578
1121
3578
1603
6200
895
4109
5082
4817
656
5406
6222
2912
3820
4033
1038
2608
6232
5968
4626
429
4443
3211
6023
653
5612
4671
4171
7057
457
1374
596
4865
807
4440
7752
7492
582
5006
2405
6329
5925
4437
2244
2512
148
2253
4564
2294
5730
5711
615
7973
7949
5436
5756
2186
7646
829
1641
6140
701
5877
5585
2882
1862
3750
2267
3741
3406
4524
6213
2185
6753
4779
3420
7254
5070
696
5929
7443
3360
3139
2524
1172
5440
7080
3981
3861
2884
6988
2199
5379
7615
6496
2754
7605
3792
5730
3523
2323
2277
4215
5711
1184
4015
2237
757
2867
2948
6169
4015
7066
6874
5424
1075
5198
3071
956
7421
7914
5611
4382
7045
3782
5725
220
2704
7187
7878
4977
7847
2146
8301
4012
7730
2059
312
1551
1276
7950
3376
7668
5528
725
5755
7714
1170
4819
930
843
4056
6464
3935
509
986
1725
5089
7904
5162
4092
5407
4135
1832
167
1292
7979
1131
8174
7235
1592
4873
66
1424
6818
7164
5728
703
8273
4826
496
6709
1377
5759
4276
8035
1367
3596
3660
3210
1072
3120
5500
8105
8088
6102
7148
6528
2830
8300
5100
4269
7594
7167
3025
3339
3278
7773
2525
5403
3541
6914
4515
5248
6095
3717
4486
2303
8222
5765
5860
4427
5157
1110
7202
5460
7240
5384
5395
55
3355
7099
8202
3306
1296
3008
6346
2256
2148
3977
622
3587
4998
6665
6790
4452
6813
2894
4577
2089
5395
958
656
2890
5286
708
6251
809
5870
6196
8203
5851
1674
6624
3064
3961
1165
750
662
861
6513
3872
5676
170
2219
4378
6528
6903
1849
1534
4998
7830
550
6970
1283
1286
2756
3491
7834
175
6588
4744
3640
934
7682
281
937
418
451
5306
4743
8329
1809
5664
7758
6713
2070
2386
5961
4994
2873
6530
3373
4684
5215
10
5955
6527
2462
2926
3997
5067
3552
2969
8018
311
3883
940
2610
1598
4012
1420
3643
1928
4070
8143
7177
1615
1821
3469
3229
7965
501
5853
985
951
5385
7559
1792
3916
4820
2794
917
2669
2932
7042
3325
641
6246
484
7263
2160
6761
7263
3192
5418
6426
5696
7757
6645
4682
7030
3493
8320
1180
7267
4303
4674
2610
5495
3644
7983
8123
625
7613
3160
6382
4709
1766
2570
6454
4206
4191
1173
5635
2793
4692
6638
7989
8295
7441
1206
35
4199
6387
6280
2838
1480
3943
4582
3457
3318
3020
2631
2626
5277
955
3296
6183
512
3335
4597
4975
6652
2159
6817
3948
3484
2378
4898
5870
1021
6766
7271
4609
8338
4105
7335
4900
1021
7420
6326
6853
3302
3045
2476
4142
2474
4440
2638
5459
4844
1398
4486
7822
244
1391
2531
7217
7725
2631
3149
1405
4713
7419
4815
1268
4028
3650
2046
5633
1345
1143
6343
4448
7793
7670
8286
2094
5626
2599
2578
1730
5453
2842
4837
4234
37
370
6024
2653
423
7213
3391
43
2575
7942
1239
5452
7989
970
502
6269
2829
4579
5069
2388
6296
2731
205
5091
3115
6813
3559
700
2663
4495
7061
2372
1544
2801
6079
4082
3204
8073
1932
3975
6295
1165
6351
3853
2724
7965
4129
6137
4663
6202
5607
3138
1259
6912
4513
2432
656
5090
7666
245
7797
2886
3268
2023
5476
383
7433
8047
6414
1736
8236
6406
506
2888
4713
7003
1734
1935
1264
1988
889
7917
4657
3687
7138
2453
2058
6085
1093
5846
1250
3533
8180
1717
1193
2508
6329
3214
7413
5528
4998
8261
4143
7999
7503
4661
5388
466
2287
6277
3832
4463
6342
8187
784
2725
5872
7638
860
259
4219
4532
7440
3816
816
6206
5340
5242
1531
2460
2399
4192
2156
4688
633
5894
5286
965
6370
989
4879
406
7331
7605
2811
3358
1812
7541
6870
7564
7663
1489
2397
1460
4135
6693
3929
6423
5045
7957
3923
8257
6873
7649
6975
5933
3075
4904
1428
6499
6007
7214
3286
1157
6411
3847
5375
3483
3568
6710
6496
5714
5199
8295
3819
4412
1416
5898
1535
1958
3252
4130
8080
1362
4041
4497
6353
1052
7295
6060
6988
6441
1601
4563
5367
2852
3410
6008
18
5030
4304
3826
922
7772
5381
6162
3734
7134
4062
5993
49
1722
1437
5584
934
3931
5823
6121
916
2126
2378
2379
1298
6708
513
2918
3860
282
4298
7448
7556
5302
2485
7212
5799
5066
7755
2394
6116
5119
7282
7671
1248
1667
960
6895
4241
4204
6396
2909
4321
6521
6860
6432
6030
5548
6573
5085
7231
6748
6473
3324
5102
8219
5231
4143
8245
6028
6294
6157
2760
5422
443
4765
4968
3634
1162
2284
678
7552
1183
1469
707
399
653
1000
13
236
3653
4129
6052
6736
1193
2487
6467
1039
873
2421
7202
5594
3734
6761
2803
7040
6958
2233
8245
4501
6649
4527
7440
916
7829
6765
4732
7195
998
3089
7106
8329
3824
2134
8145
5448
8089
3722
6235
1540
2388
2724
7459
8017
292
8114
1531
1085
6335
7112
4882
8322
5942
698
3423
3375
4338
2953
4698
7233
781
3942
2013
6150
219
916
6292
2906
312
4324
3054
359
5635
1406
5643
7607
3666
5611
1082
632
6565
5238
4640
784
641
7812
228
4354
793
7057
2134
6813
5507
2776
8043
4360
5069
2151
1362
5432
2820
5641
7281
4203
7559
3785
7140
6950
6921
4980
5631
2922
3464
94
971
5771
5214
34
3782
1329
3594
2132
1188
2712
4137
2133
47
2003
5575
7415
8039
7325
5116
918
5687
3281
7387
794
4444
7885
4334
5754
4571
1959
3269
7390
5227
3807
542
1786
85
4643
4854
916
8124
1840
3741
3745
1149
3679
3848
3355
3491
6722
7644
1798
4468
2941
3648
769
5696
6600
7371
8176
2788
550
7980
4441
6479
788
4151
3484
7081
7285
7193
1592
6761
6351
3428
95
3909
3623
6205
741
4845
6133
6636
5434
6013
6751
2025
5702
2576
2828
402
7183
2261
2716
6684
5638
1125
3855
5046
354
3475
2595
6238
3031
6076
916
3507
239
5800
1392
5897
5779
5467
4723
5291
1357
2769
5410
6767
2413
7507
7751
2745
5526
5726
6272
2114
5771
7583
2950
5416
3287
2658
4341
7422
2790
7817
8107
276
538
4397
7633
801
671
4103
2497
1435
7751
3848
5162
4414
4762
8150
3223
5206
4525
7616
3748
5161
4414
7162
7803
1991
552
6158
3362
480
3801
7524
2332
485
5591
672
1743
8101
5447
1989
1986
6287
2153
2198
2313
6504
3832
2854
4186
4239
2681
4106
5918
4038
7700
3090
6089
2908
5011
3224
1642
5288
4557
1908
8263
6573
5370
21
3238
848
1500
5871
7746
3775
2602
636
5825
2680
2149
5884
2010
2710
613
7492
7322
1844
4945
6078
2036
2984
3992
5443
1471
5004
4488
6703
3121
1219
7584
7657
7561
1450
3118
323
3729
79
419
3097
4311
2440
5903
2759
3790
7833
4418
6822
8129
3024
2006
6823
1968
5773
3358
3503
4571
8181
5594
1515
6269
5337
1584
2479
7401
6644
3709
3630
6467
4639
7987
7473
3546
6553
32
3026
5914
3314
887
7181
1895
1877
7785
5533
7806
8097
4669
2896
7286
1514
201
2648
2838
2293
6575
7232
2806
1326
7361
5640
2921
947
2314
2793
5431
2610
638
4264
8039
3172
6940
3944
5568
4096
7438
4108
2024
7674
6253
2367
5738
5789
3896
504
210
1197
3408
5170
2859
4027
1810
6097
5838
1499
1753
4656
5354
1471
4290
8286
5231
3966
8258
5639
2771
1788
1935
5676
3000
1190
780
6415
6841
2106
5427
4338
4864
6640
5504
6243
8185
2072
3620
8297
1749
6555
6607
698
538
1457
7796
5092
6792
4242
4380
119
5865
2498
4875
3640
1553
8044
4343
1516
6495
7434
7037
8141
7725
5714
3546
6634
3900
796
251
1855
904
6463
6181
1399
4164
2872
7884
685
4173
983
1755
8091
4793
4845
7793
7397
3443
5791
1232
1231
5526
4108
7148
4030
1851
1426
6130
2768
6980
3411
3830
1616
5222
2712
4494
2760
440
4607
3906
4307
406
8033
5570
8215
2453
6086
1335
2127
530
1533
2134
5355
5544
4077
7122
1992
6908
5010
7541
2436
5108
439
1447
7848
7788
1900
95
1704
5525
4719
5834
776
6047
1119
6997
7203
5039
2653
475
4002
7290
4809
2446
1468
4053
7809
4288
5773
3330
7541
6466
2938
5868
1513
464
134
7624
6240
114
619
7840
5895
5788
485
3416
4055
7365
2824
4231
7405
8119
4825
1712
5946
2511
966
5783
3259
7574
2351
947
3295
3354
442
4521
1336
4822
836
2655
5676
3262
5141
7968
612
2319
5941
3926
848
7570
6057
6834
2954
3717
6694
4398
4934
3389
3918
632
6311
2725
7271
2826
756
6640
3765
5951
5777
1121
2868
5554
629
2216
3103
6507
3617
2333
7394
6247
2726
3630
2514
7316
129
2722
3731
6618
1836
7281
611
3472
7226
5135
8277
7420
8092
2040
6761
1502
5867
2997
6299
6252
4525
3899
1604
3079
4987
88
2690
6237
6321
6235
6739
8172
254
2470
3069
991
6212
715
5685
100
504
6340
5025
7855
1255
5407
1813
3541
5064
4466
8060
7381
6681
4996
6493
5600
2766
3014
4150
5939
6685
7681
6469
7476
7868
369
139
4373
1582
769
5572
1032
600
2730
5850
6344
5385
276
3062
5233
3856
6032
6529
5641
7078
4497
1588
2143
84
1241
3322
3333
3754
4687
139
6281
124
5467
6335
6400
642
1769
581
348
6883
1308
6430
6116
3322
5832
8094
2698
2448
3483
2760
4397
8170
3493
75
1796
6440
3206
7622
1400
5632
3073
5546
5422
8313
7404
71
2705
6219
8191
4195
5463
2640
5761
3743
3990
4518
3438
3092
5911
4307
4439
3226
5191
4274
4949
7209
6971
504
4425
7261
1238
4227
5092
5132
2533
5584
7671
7488
6406
6811
3606
6031
894
5984
7179
4317
2178
8145
5114
7988
8233
2974
2559
4611
6945
5623
7976
3683
8223
852
258
7192
5060
3267
327
6051
2751
6132
898
1077
6789
381
4370
5579
1100
3214
2532
690
7972
4447
4253
4795
848
3825
1213
835
7250
7007
5755
1340
4469
6121
3965
4915
3975
6280
7442
7414
6463
3574
1147
6564
201
3437
6544
7401
4699
431
3338
5920
2372
1152
6954
607
3231
3339
4247
5865
5214
1276
405
6344
6956
6775
7934
2886
7162
7651
3106
1126
7786
5137
6224
6371
1130
6812
4923
4072
3656
8014
2419
2360
6003
4728
670
3107
6807
2589
419
3706
4197
3769
4086
367
5838
1581
5024
5544
6537
6066
2579
7214
636
6218
6623
6331
8008
5144
1336
2877
3014
3780
2720
4282
887
2048
2120
7836
3559
62
1511
1254
7755
3373
511
4370
5000
4140
6681
7403
2432
6078
7851
4518
5212
7036
2153
2740
2543
8270
2018
1498
1639
97
7409
8266
7158
7154
4004
636
2524
3742
4940
6121
1004
1054
1471
5128
5029
1135
6239
6105
2048
4035
1976
374
8255
5592
8010
2762
6680
3422
7197
5249
2764
8115
6046
2012
6547
3575
987
7666
6
6583
4898
6879
8225
754
3190
5809
2543
719
6092
659
5699
4930
2398
1787
3801
8070
7322
8220
1626
2232
3862
166
2236
121
415
1955
5970
7667
452
6170
713
4534
6353
6315
7841
3271
7645
8101
3651
3675
5990
5564
8275
5097
7408
496
3881
6465
8069
2088
4588
1632
1144
4311
2873
6805
7164
6792
2963
8247
3008
7932
3900
3974
3453
3390
172
1068
4908
2733
5580
8052
5902
5962
4063
5465
6758
3153
6596
5917
2195
7760
6844
4538
3640
7126
3704
4527
28
4827
4623
7629
754
1633
5604
6804
7882
5392
3330
4393
1694
3276
763
7341
1896
5819
7523
7703
5713
4258
2934
4795
6652
5324
2058
7659
6617
2190
3308
668
4741
4543
1256
2858
3678
4120
7580
4211
6543
5473
3075
7749
7623
526
5640
7655
7492
4508
2371
1421
6676
2488
446
5595
6635
1074
1768
4933
2871
1244
2311
3524
8053
7762
4824
6283
1521
7130
2473
5365
4274
5592
2031
3246
227
4444
3126
6069
6350
7305
5951
6397
5732
4302
5585
5820
5406
6992
455
6297
4847
8183
6982
7918
2398
5894
22
5950
494
5081
3711
5486
6798
5946
6919
5067
1103
6301
6327
4032
8062
3033
4275
5765
2196
5328
1799
1159
583
5583
8228
4256
5184
6199
4768
1743
4962
8072
2590
1289
1358
7855
6374
7747
5310
7179
2677
380
1663
3001
5368
2543
1920
4702
1248
4267
636
3303
5623
1631
1044
5211
2670
5080
6619
7552
6534
1950
958
1003
4140
3994
5500
7336
5053
2679
3595
2259
2095
3477
3710
8328
3964
7747
3608
5402
7117
6777
7017
3626
2510
5701
4019
3268
7061
2791
7603
5490
3104
4156
5662
1901
6056
631
4441
70
3272
6455
285
7630
4324
5198
6016
2371
8021
4192
973
5910
5830
7705
3206
5329
7379
6124
2249
237
7545
7215
6992
6586
7757
3028
7842
8060
2343
2351
1388
2455
4473
867
7521
8231
6456
7435
982
6709
7455
2645
697
5749
4871
385
5508
5416
8220
245
4690
2168
2926
5386
635
7655
2118
2451
6570
1001
6164
5549
2725
4170
4366
5766
4149
7779
4812
1488
7195
1746
7316
5906
530
1813
5988
4947
1110
2504
314
6271
2402
4007
8332
4610
6471
1582
619
2892
4482
1796
1782
3339
5005
1955
3612
3164
261
4566
1454
2189
3287
591
7830
7108
1845
1588
3577
8122
3020
7916
2128
6363
4901
1574
4348
7777
1445
3889
3147
3936
5258
1769
8019
4112
4731
583
6290
3974
8063
1384
8024
4414
6111
6043
5065
327
6871
5063
3795
4189
703
7144
3356
6696
6483
6231
3992
3245
6876
7402
655
3642
5570
4235
6150
4395
7327
3901
6805
5164
1182
1556
3285
6647
1274
2342
7359
5162
62
4918
6321
8090
134
2721
6367
55
7436
1468
3846
2996
5556
8061
8155
8287
8297
2203
6184
6578
1254
669
2813
1493
7946
6472
6956
7340
1685
748
6246
2078
1487
8008
350
1396
6042
218
5205
7255
4715
439
1141
6568
6938
892
1658
911
901
5053
1127
3924
3056
1300
6025
378
4594
6090
6080
7737
6655
7906
7070
678
7946
4003
1244
939
7222
231
6101
1965
4518
518
7833
1239
2425
4337
737
2541
316
3753
4197
4693
1939
584
2506
1434
2676
5415
6370
6750
5244
2291
1833
1695
5366
6453
4143
2286
4854
948
7016
3153
6155
661
3335
8060
8170
6895
2044
8089
7203
999
4800
6872
3622
5063
2584
7482
6286
402
2827
6592
8209
2451
1957
7776
905
8027
69
3071
3299
6702
901
8126
5251
302
249
2363
1284
5903
2278
6952
594
4542
7094
7599
2278
1957
762
1209
1109
1117
7512
7637
6325
1550
3242
3782
3430
573
6139
1245
7221
1724
7533
4772
4179
7071
7805
7803
832
3095
5924
4486
1457
1675
5834
3909
2825
3652
7465
1620
4386
1378
5279
2026
4045
7441
189
2560
4452
1082
534
1440
1550
2126
3724
4561
6613
921
7474
6858
7037
2033
3097
1614
784
7530
1261
7082
742
7266
4517
166
2323
6206
3726
6536
1360
4967
7198
11
1393
7207
4645
180
4132
4157
2049
6826
2650
7276
3636
5235
3711
3276
723
332
6267
219
4261
4778
6338
4370
2993
580
1789
5388
4836
3549
6723
861
3673
7282
4243
1848
5476
5321
6891
7736
2938
7001
6234
5036
823
6686
2379
7553
8244
4386
3538
6321
2563
7533
3008
6609
4082
7686
1336
1534
7797
5438
5041
2889
4233
6726
59
4789
5227
4295
7462
535
8316
5426
6245
1624
7439
7927
8208
3311
7736
4381
4845
5389
8212
243
3289
6193
4672
1311
339
6814
610
7788
1374
5801
1687
563
565
4030
4342
2762
6985
4214
974
7852
5466
5685
5184
3670
42
2122
3656
271
1743
2583
4135
820
3336
6988
6394
2063
4372
6009
6777
1881
1555
2892
2119
3296
489
3094
4425
170
1469
6510
810
1880
4367
2843
5911
5263
1618
458
816
3856
3386
3723
204
1392
7233
1758
3781
3239
1234
8315
3664
767
1051
4371
560
7869
859
7518
793
1627
3949
490
825
513
6407
8298
595
7382
7684
5632
1776
2119
656
7249
39
8335
4553
2585
8132
5511
672
3024
3986
4880
5438
5917
2663
3995
5703
5770
6177
2861
5397
6430
3178
3636
3725
3149
7268
4635
2406
4419
7891
5821
4251
7752
8008
3974
327
43
5852
1146
120
7279
4675
2710
4661
7946
1919
4318
7669
2922
1637
4381
7758
2170
4282
484
6066
8146
6038
6258
5250
7867
6786
3362
7133
105
7560
979
2564
3127
1557
52
1852
1761
1251
7051
6864
6778
6805
5253
277
4110
5337
7305
884
2155
4905
666
2987
6695
7533
5671
1008
6776
4812
3580
7935
2764
4769
2127
7843
3158
5339
7562
4365
5542
5582
3781
1358
5358
6425
6441
4846
1809
2545
7614
7181
4724
8062
2786
818
4933
6961
4422
1059
2015
3498
6274
7669
5873
6917
138
2837
5446
7665
2708
7767
5878
5525
730
5447
3113
6807
6941
62
5744
4657
32
3443
2113
3534
2162
1256
7039
2667
1047
2891
207
7248
6578
6059
971
3975
2576
3032
3081
7224
7073
1850
3993
2274
7968
4819
7575
1282
7425
387
5107
1826
932
4702
3431
6521
3981
6873
5455
4061
3166
2109
120
4710
7892
8225
4307
6175
3254
7671
4619
7515
7330
2518
7906
3703
318
5759
4780
4283
1135
815
4685
5730
6916
6377
2109
5654
4765
6641
1263
2869
203
1800
6487
7519
481
5231
7341
3665
4818
3167
334
3348
606
5647
4502
6611
2368
6683
3677
5117
1612
6320
7408
4843
21
6524
4163
7586
746
6900
4276
98
3863
2889
5455
6540
3805
5580
4989
6162
3422
6378
6668
7092
854
2057
6317
2050
7437
2753
8161
6869
1563
1975
1866
1496
2780
2032
6818
1849
2581
1005
614
3560
8264
187
3776
7556
2655
5746
6127
4320
7524
2552
3848
702
2721
4108
3243
7952
1251
3036
7928
4167
2950
7032
7252
2405
4391
5800
7396
2298
3738
1838
3988
6796
4835
4074
3502
2980
7979
8087
46
4973
5777
4068
6899
2176
5032
3279
2687
2305
2313
7873
7951
3638
8265
5151
6882
362
7159
8189
5015
1594
5640
602
4208
236
6029
5451
5586
5228
2803
8221
1939
2188
4858
554
2967
7383
2319
5360
2246
394
7563
6410
4285
7887
3689
4960
4379
20
4869
5810
2495
3369
2616
504
3308
7926
6296
3725
1971
167
4492
1078
6870
6249
5217
4403
2414
3526
760
5693
56
6830
6617
4247
2794
8062
2761
5090
1809
2585
4647
7947
6098
7658
789
2853
417
964
3401
885
3457
3566
3416
6579
6095
1224
1404
7286
2703
1586
1810
6099
2905
2860
6395
3902
3094
899
2102
5043
386
6647
8243
3741
1578
66
4380
5606
102
4780
5929
7094
4545
4989
1635
7292
1770
313
4437
4107
4731
7335
4091
923
645
1762
336
3766
7262
4913
4636
3926
39
6789
6740
7815
4946
772
2956
5841
7473
7329
3622
8080
4410
4511
2672
6889
1710
6237
8298
1911
6837
776
4135
1071
299
4228
254
5652
3573
6384
1222
2586
4131
3919
2141
5714
1735
3458
8022
955
6532
7772
4010
8192
2144
6181
1244
2430
4568
2315
6678
930
8205
5387
7423
4004
4396
6628
2224
2830
395
1382
1272
3064
2676
3945
5356
2801
5995
5958
289
6044
348
2091
6839
781
295
2011
966
1647
6760
7414
8300
446
7607
6949
6739
2082
428
279
5303
8176
7149
5229
1907
2361
7928
692
6715
1300
920
3688
978
5492
1117
4452
7515
520
1928
4821
2583
2992
5941
1660
586
6113
5404
5733
3086
1004
6879
6166
2057
6989
2378
1025
1679
939
7516
22
2248
2428
2390
2685
3760
5990
8082
6845
8252
468
3226
7838
307
5108
4897
512
2887
7383
3463
7793
53
5600
252
3160
1931
2801
5510
6468
5083
4443
2208
5025
5242
4488
1319
4857
6816
3036
601
2072
2064
886
5005
4310
3744
4089
1058
711
3554
8271
5024
8205
2347
4421
5985
6621
669
2073
817
3188
2712
8261
5488
1072
2565
2145
7841
8068
1933
289
620
7440
7266
5232
6770
4642
2693
2737
1089
5295
685
641
5983
5535
2989
4718
3636
5661
3667
5536
2104
2177
2781
7557
8067
2019
3224
3734
1879
7501
680
2996
5704
4497
5885
1201
1156
5490
6084
750
7366
4994
4331
4190
2801
1361
7666
1717
6881
3324
7649
5146
10
3621
7147
6095
8334
4542
2741
2655
2974
2045
1677
5167
3369
6792
419
3618
6355
4582
249
3034
820
7534
7108
6269
7037
2711
8254
6236
1938
7170
4015
6204
371
3277
5949
3066
2585
1405
1983
533
1120
2691
7203
5136
6450
3067
7847
8061
3631
7725
7833
2814
7781
4069
7276
5327
2923
3791
6871
3301
6085
3808
7602
1361
5415
224
7136
2260
2436
6993
2034
6164
1831
3888
8134
2620
5928
524
5565
3394
877
1452
1016
5318
667
6702
4263
3491
2936
3971
6135
7610
5352
1693
532
8310
39
1472
1215
4628
6622
5756
5694
3934
5798
4372
4848
8219
1323
5573
5660
4172
3836
2355
7985
4542
2019
2894
7781
6737
4335
3239
3606
4984
3833
969
6958
3798
254
2926
4671
4061
2064
4668
6907
1057
4906
4811
7610
5337
5455
2004
5678
2771
4212
6317
377
7466
7908
4883
7122
3882
2372
2761
1001
7719
7732
4716
8201
1538
3325
8182
3899
6060
4558
616
6445
365
538
840
826
1454
3516
80
2110
5156
5573
6223
823
430
7612
3602
1878
5773
4916
6071
3719
4623
3543
6910
59
6081
3386
7351
7488
3126
812
2132
8284
773
7450
2951
4264
7162
4369
2226
5476
3418
6044
5961
5932
2
5901
4608
1917
879
1821
1469
1917
8283
2544
6951
2869
2903
127
4646
8094
4317
6886
7028
6300
7445
6718
3942
3083
5945
1887
2604
1004
1542
4932
246
3539
3937
3004
2596
5751
1983
5017
1956
3827
6461
8064
168
940
1437
4023
2306
2252
4122
3691
2845
2801
4746
4199
4363
4652
7239
4598
5572
798
6514
610
7039
4080
7745
1469
898
3228
5965
900
3324
580
8136
3311
2859
6558
3682
1643
7901
4290
709
916
3661
699
3403
1516
2583
1078
7203
390
2964
3218
1285
6564
1143
1277
5108
2339
5866
5308
414
3856
3717
1432
3491
4481
2174
6653
1850
3482
2753
681
706
1189
3142
3602
1156
3633
4461
3462
1991
6575
3250
1312
193
5352
4159
6788
6452
4196
7856
7771
5969
1867
830
124
3716
3573
1848
6795
1670
356
4754
5809
4068
7794
4907
4018
2042
3834
822
5779
6965
4232
3573
3936
6034
5593
559
321
6531
1318
1613
1265
2623
1024
4220
2564
7369
32
6881
6794
6898
485
565
3109
7365
819
5440
4500
4965
996
8082
2702
1846
350
2378
818
6184
4980
7171
2037
582
6178
3799
894
1643
2356
2314
3063
207
4022
5837
1513
7044
1994
7398
7493
8244
6527
7473
5190
3071
7634
5292
5611
2615
7605
303
4822
484
2607
5090
5579
5057
287
40
603
1453
3613
94
5218
4834
6003
6633
3915
6770
5874
3821
3091
7220
3195
5163
5057
1723
8317
3513
3753
5250
713
7565
7740
358
4769
7953
1884
6476
6879
6971
3394
4266
1925
926
6916
5351
7107
5067
862
480
3857
6089
3984
4519
627
1948
1785
6298
959
6573
6260
8032
7997
3673
2000
4992
2431
7843
7236
5503
6824
5788
3084
4853
2155
7558
7178
5963
2077
6845
5821
233
5279
4790
1922
1835
6911
4866
323
2106
2958
4811
3189
6861
4758
7018
6907
1985
558
8257
1070
2262
6803
4175
3870
87
2212
2835
7907
5193
2282
5518
4839
4445
1201
6422
5873
7861
6838
3712
8069
4578
1737
8124
2755
7812
236
2856
7119
8206
4279
2527
486
6476
4676
8241
502
7291
1111
345
6324
6904
8102
182
5934
5801
6642
1995
4361
8137
2949
7850
8305
2959
261
3204
1332
6583
699
7287
7641
593
5013
4468
7101
5163
6410
2024
3149
5489
6800
5127
5488
892
1029
7485
6021
7040
7082
7218
516
3175
7040
5200
2921
5800
461
4534
3513
1481
6931
4831
2889
1342
349
6706
5367
7393
2519
4550
5448
5046
4435
2615
8268
6792
798
7912
6196
6663
494
3214
8301
1835
2187
210
6902
7178
8041
7751
4384
7769
8283
7533
3888
4823
2226
4710
6287
4544
3285
3218
5945
5126
3769
5298
5483
8194
5974
929
8334
2689
545
6828
3574
4725
3146
7000
5897
996
3773
5607
1493
1065
7080
3971
4564
2003
8224
275
2905
5406
3821
4600
1070
6935
4921
2407
2562
2928
2017
3122
925
1534
2999
4552
7919
5157
6444
439
4740
3090
69
6377
2751
1779
6962
2207
6543
2823
7519
7291
6391
5672
5339
2540
213
767
6715
5820
1248
3420
5867
8010
4960
6431
5396
2913
6881
3306
1810
3294
8289
3557
2722
5718
6771
432
8033
6908
7319
5977
1823
5442
4438
7262
7582
6382
1180
2322
2940
8070
3142
6036
2504
1565
6035
7775
5137
1236
951
2854
2808
3641
1095
468
6039
5242
4512
464
8016
6642
4865
2213
2981
578
7509
3544
2039
3551
3693
7635
6330
7144
180
7265
1423
6135
5626
1587
3013
8009
8098
7336
3162
4792
6933
7720
7457
5880
2303
3836
7272
3037
7686
4373
2376
2945
5729
1030
91
7646
3506
3178
2835
6539
5833
5943
1401
1736
641
6218
7956
2435
358
79
855
3351
1
648
8327
7373
6687
2761
6085
8038
5128
7712
765
8
2473
2916
4659
4954
5066
408
8295
3007
4322
3738
114
3673
6352
5009
5535
551
98
7252
1272
7682
3645
4048
821
1800
8201
6714
5443
2571
6557
7347
2315
2398
5695
4814
8094
6105
4604
6148
6832
2535
7634
26
4154
2316
7971
270
5669
5937
7691
3819
1769
2290
5199
469
4911
3286
1668
1970
5118
8282
552
2540
2349
5340
1631
7887
638
3002
494
4422
3560
6976
6273
230
868
2675
7118
88
374
5876
8032
1584
7534
73
4014
4454
3649
5395
3953
5169
2049
726
7620
4147
4918
7266
934
2725
6605
4778
4439
7195
4743
942
3532
1876
4553
7681
2330
2996
3670
5545
289
4795
2019
2845
5726
2808
1744
3767
8152
4042
8105
8115
3635
555
2175
3755
4367
50
1253
491
951
7035
5691
5504
399
4283
6457
1554
7917
6852
7282
6096
5316
292
539
5445
338
6722
3899
7645
3432
3439
690
13
3500
4072
6406
4204
6479
284
4142
1827
5901
5920
1050
3751
5241
3578
7476
2354
7236
5032
2925
776
3810
2251
5831
7461
5136
4757
6927
1726
4533
582
2252
8064
4994
2811
5838
5664
7754
5157
4870
2480
4063
6933
4283
2075
4307
806
6542
6190
1215
7923
5627
3498
5582
2816
7651
5142
4703
3767
50
7893
7712
5777
3474
6501
5527
3939
2776
1433
8075
5954
2603
5524
8292
5183
1858
2807
6304
7372
1670
612
2206
2813
7252
1862
4545
874
1459
2438
47
1103
6210
2959
5281
2158
1142
2606
7718
212
1282
2981
5482
2523
2366
1190
8124
1112
3224
4904
4625
3358
6553
1270
1554
4319
7957
7139
7178
1235
5030
159
5608
6358
695
3012
6311
7062
494
2249
19
6043
5434
2320
7024
752
6155
6131
1259
4320
2668
850
8254
8105
7695
2967
4765
1140
1029
6270
6191
3149
8302
7440
1202
2374
8135
4136
5798
6457
1023
4097
2329
4583
2935
4007
3201
8193
6918
1585
8037
277
5082
872
3317
6525
5528
1443
4096
4640
5613
2847
1904
7438
8097
7409
2329
2151
3612
7810
5983
2275
6488
134
1042
7517
5786
766
6384
3366
6310
8085
7030
1158
1262
2603
2949
4722
1960
4254
1324
6388
7435
6837
1098
6460
3683
7966
2017
6984
1565
187
1338
3820
7951
3756
593
2564
1990
3545
214
1575
3061
688
3746
56
2453
3995
3136
4392
4446
5792
4599
7104
7273
7821
7756
6424
2890
5667
3066
2877
4986
1574
4182
476
6230
6656
5406
3269
495
6483
5954
6955
7317
3177
7449
1361
7746
5219
6154
1050
6175
342
4727
3870
4646
6122
7235
2862
2048
7620
8172
4247
2480
1972
4164
3958
4806
5964
2321
971
6797
7785
6105
1920
7818
5012
3235
3821
2761
4520
5184
386
2399
606
3158
6320
1435
6726
5363
1074
5199
5978
7607
4669
374
8149
3935
3676
2287
4462
5750
1278
3717
6467
5334
1652
3810
709
2704
2478
707
5125
7806
794
662
4006
2362
3110
3523
442
131
2128
7677
1364
7811
1779
1884
3628
5372
1444
7196
2797
5077
7367
8174
3496
4838
908
2531
7848
4648
2059
1639
8140
4735
1276
5851
5041
5105
7775
4586
5737
4271
6600
1178
5758
7868
2070
4283
962
3430
1380
450
5609
4466
7569
7668
5669
5968
4021
4918
1590
6740
4573
4525
3863
4299
7770
8223
3255
3341
5207
5316
4957
1161
6682
1956
1104
215
5890
4074
47
578
1510
978
2006
3425
181
1459
149
4189
5953
5451
381
946
4086
305
2318
1976
1445
6470
5145
7524
1059
5346
2547
2750
2653
2985
2474
2630
3613
917
6098
1268
783
8013
7409
8086
357
3380
6437
8252
4681
4862
3663
4615
2798
1444
7142
7691
4034
6900
7437
5684
6598
3011
1582
5996
363
3966
2632
6410
5618
1220
2976
1227
1295
4842
2476
7157
1200
4990
7629
2238
7797
8046
5703
3171
1292
5993
2187
7822
2831
7988
1545
1436
8261
4487
7604
4219
4126
127
4475
5863
7994
5272
1009
2907
4818
3067
5277
8027
5108
5229
8040
2847
5189
6137
633
5011
4708
3300
6953
3109
341
3848
351
1247
331
6302
6330
226
6211
7896
1221
158
3351
2011
1408
3185
8228
7286
3131
7366
3437
4706
4588
1786
6588
317
7813
4329
6634
4498
3323
4811
7351
3850
3141
195
7344
2797
5223
3726
5103
7308
3152
4745
1312
4988
354
2925
8073
6553
278
1283
4351
128
1866
1695
7912
6611
4628
346
8179
4006
5086
7441
7591
7759
1750
7971
5029
1055
1829
4746
2564
3212
2283
673
1258
5684
2515
4738
5145
6568
4330
2458
1739
6167
5501
943
3580
6994
2868
259
291
2856
597
2766
2200
3886
4578
7030
5005
4980
7637
4195
6671
5416
2106
55
152
6421
4570
6116
775
2069
871
4720
4589
4123
3387
5974
3055
7683
1399
950
1493
1052
2661
3383
26
3581
2850
1402
6501
589
3742
6325
4200
2164
1949
1957
3755
7298
7796
384
1109
2566
649
6851
4608
5837
5293
867
2363
2047
112
5577
3433
3919
6754
8216
3600
3810
6980
3030
1568
469
8317
142
3495
8072
3229
5705
6202
7463
2125
1966
6229
8108
7093
7388
1728
1964
7682
1359
7654
6964
667
3334
6680
6560
6423
3708
7291
7418
5938
5142
4670
3112
1814
3913
2171
1387
5520
3029
4857
4209
6368
489
5425
6499
7114
636
6977
112
5243
3769
753
5282
824
7647
141
6043
6934
4447
948
4469
4683
6234
5644
1970
2848
5024
3102
590
4900
6659
213
2835
1670
2982
847
7495
3412
2049
8308
4986
3436
3426
3480
847
6343
262
5468
2244
4712
4014
1661
5866
4959
5134
4673
2596
348
6483
6746
3457
2096
113
8249
793
5995
6376
2476
5740
2119
7017
1117
6093
5628
4521
1287
6113
173
7357
82
1764
980
4140
7623
3967
3210
7558
318
6841
814
1039
3565
216
3832
713
5962
1363
1858
828
2176
8149
367
5498
1711
7541
4072
119
506
925
340
7591
8203
690
4360
5483
4754
6438
4700
7302
5226
4037
2241
3360
789
1126
6756
1114
5743
7130
3012
6613
1719
8187
2416
6594
6870
5914
660
5899
2553
8095
5102
5899
3413
3795
7452
4956
4210
1896
58
7994
5821
3929
4786
7261
5368
2504
1421
4063
6756
921
5156
6316
5061
8278
5903
5399
1603
2265
3187
8250
1484
3023
4350
5959
4254
8105
6110
6933
1063
7497
8062
1698
7320
1892
7945
3938
672
7398
913
2774
5870
2948
7044
860
4366
6525
6591
7011
1177
6093
3198
8163
426
2548
2640
4030
6366
2182
7512
2122
777
1452
2854
3654
5306
2586
3877
6073
5950
6540
5774
3370
3448
1596
4529
6458
3870
6550
3660
6184
2756
4146
4765
5603
3533
3787
6193
1911
5740
2009
3311
6054
4631
7902
965
2906
1304
2387
5815
599
1866
90
431
2763
3083
1740
7798
4678
1680
5735
5346
8200
6513
2033
6515
938
5343
7148
6303
6080
5456
6067
4918
6878
3091
1095
7383
3898
6601
3392
5159
934
844
6515
4520
2472
4346
5096
7617
1331
3530
829
2861
7590
7667
6125
4917
4667
7550
2903
4732
3868
7191
4067
4246
5381
3547
1783
6888
6403
1518
2880
7196
7138
4472
7156
4869
4611
7266
6548
703
8309
2802
4947
5989
4021
2443
2722
483
2278
1652
4164
5330
1987
5464
657
5667
3444
7261
8134
1825
2091
2262
5275
2379
2490
6733
5845
1114
7631
745
141
4711
4481
6373
6503
8082
3275
3096
4816
5972
3440
2930
4290
1287
7265
2228
5709
5624
5738
2155
5043
5980
3755
8169
5641
1384
5551
3269
3606
6304
1652
5146
7550
5031
3751
6000
5887
469
6807
5535
820
609
697
6768
4618
1830
5214
4938
6952
2378
640
966
6283
2239
2987
6492
7571
4254
2749
2186
2066
3041
102
6698
7063
1828
6390
1649
3892
8001
509
1210
5969
4898
4896
7578
8320
4875
3701
2898
188
620
5165
194
278
5725
6256
86
4636
7574
962
1778
6087
5475
8265
4831
4744
4845
3570
553
6194
1694
7485
7588
2323
6030
3489
5324
2655
3371
868
4725
4440
2316
4614
351
6352
6582
7412
5567
8253
5944
2705
203
7635
293
3121
633
3162
5180
5108
12
1037
6668
8054
7602
6462
6838
5009
6086
5597
6756
8334
8334
8097
1120
7750
7969
4065
830
1556
4460
1700
6095
2688
5438
7635
3743
4506
6851
5352
302
2176
250
6944
99
6806
4223
1127
1133
1020
7404
8000
1560
491
3106
7317
5460
4662
7532
2088
4986
7205
4384
407
480
4123
7284
2382
4161
5360
7373
115
4390
5105
6174
4100
3000
7472
4236
1789
8324
2593
4397
1613
698
1752
3548
1183
3874
6062
2860
4822
3852
1033
8224
6501
5746
2079
1391
330
3844
5191
6068
5725
7897
584
7310
3581
7757
1780
747
2009
447
1497
1395
7004
5786
7035
3036
4783
6219
3417
6340
1791
1414
4178
247
1067
8070
1408
2948
4909
7750
3443
6583
4344
323
6020
5013
5283
4820
674
7179
493
450
2719
1532
3476
512
7957
5171
3114
4586
7579
8082
3794
3426
6418
382
5808
604
6389
6907
864
189
6548
5710
3032
3163
2702
7310
4905
2128
1874
7201
3343
6540
2308
2597
3631
6036
2746
7464
3350
5413
3585
4520
1025
6342
5247
6052
7644
3208
794
8143
7070
668
8250
5894
667
746
1325
7618
4185
8165
3852
1904
7182
94
3924
3103
2315
2859
2702
2792
4034
5589
7131
1919
4242
4890
6203
1065
4227
3817
6248
4098
6661
4459
4710
2055
4579
4132
7290
6878
6037
399
3244
501
2119
5787
6829
5892
6445
5351
5337
1370
8287
4198
3860
3532
6074
220
6740
8314
1186
3272
3331
5835
5327
5886
3114
7915
6059
2720
7493
5704
2770
3538
4214
1203
3792
7657
7946
1193
1153
2022
7600
2670
4971
4723
5905
5009
725
3165
1205
4706
8132
4960
274
1901
5317
5302
1295
5505
5219
4771
1853
3413
6851
2687
7331
5274
4804
45
6493
1538
1586
7479
7485
5645
7729
6421
2889
7203
6102
1758
5657
3906
1973
5634
6470
1253
8267
7169
2185
510
2340
2917
6298
7657
2262
5809
5609
3115
6740
1430
7854
3635
6573
5146
7713
2986
4325
4299
1853
3122
3679
390
782
7437
3173
2546
138
5064
3389
8213
6145
1912
4461
2093
6293
8128
3281
2047
4345
7253
4209
2970
4278
2719
530
1679
6320
1674
6555
4758
4076
8030
6974
5452
3051
703
7709
6416
5015
684
3258
6109
6977
5918
7542
3372
7534
2206
7737
795
6783
1197
6668
5038
6309
6836
5637
4759
3419
5484
2600
7402
6311
3850
3128
2531
6151
1221
3272
3999
532
886
5231
1920
6046
6097
2575
3362
272
4298
2990
2184
6156
4858
7224
6257
6042
2781
1966
6368
1128
604
6639
671
1953
5088
284
1124
6024
7042
6866
5227
8106
4810
4016
8117
6533
5604
7673
282
4863
3366
5947
1843
98
7880
1870
6196
2397
221
8136
2532
3977
6847
6861
912
1963
907
7180
4572
7157
1439
720
702
2944
2716
7509
2865
4692
7408
6611
1873
404
5689
3490
418
6042
8012
6097
7299
1387
2218
6376
4802
8180
1473
308
5562
3476
6462
7914
1152
4438
4587
93
566
8095
4732
1866
1273
1241
5872
3249
4411
7935
3374
4929
2355
7245
6177
2361
7657
4320
4858
7382
5170
1939
716
7314
3500
2449
4867
1631
3262
8203
7842
3089
7652
2119
4618
2870
2142
6430
6376
2768
4339
3011
6278
5057
7785
4161
7984
3774
2099
5219
2034
5330
5216
6736
3382
3395
2907
6610
5640
467
4028
8292
4689
3928
2343
4583
517
3678
3091
3925
3861
7595
3946
7129
3346
3669
295
1243
7688
7312
5637
4757
2654
4863
8124
2105
2975
473
6403
8306
6918
3853
6029
5953
5831
5595
6432
1675
7267
7998
724
4892
8294
5030
3908
3488
4776
6079
6800
6240
8273
1316
3303
6541
2218
3115
1715
4472
2570
3502
1479
5125
805
7623
3993
6830
5497
7885
235
7572
4270
366
6185
2517
2572
2553
3980
3645
489
5041
3157
3670
3016
237
4640
2444
190
3840
743
5191
5383
7621
3816
772
2921
2223
5525
8211
3022
2434
1363
754
6532
17
126
3603
4250
1233
6627
6327
4569
948
2527
1763
1136
608
668
749
4358
4371
498
7581
107
2682
2686
1099
2938
5242
2603
6476
6430
2263
3257
3312
2327
6477
7439
4873
3536
3325
5124
7427
6928
3804
5791
4261
4018
7796
6985
5321
166
2295
5607
1033
7549
3842
1308
7441
7380
6635
1357
5305
7158
2871
3625
742
1400
2740
3717
373
5483
1881
8329
1868
5797
6377
7755
3446
865
6792
3569
4232
3801
4390
7058
4085
4178
6852
4307
7318
7459
6644
4445
5698
6437
1030
8298
6201
6339
1274
2798
2366
4978
4182
7239
2923
5210
7326
7213
8285
1637
5999
956
7648
7037
2662
1564
3216
3736
7072
5067
1196
7654
2959
2045
2151
1908
7556
5293
8049
1264
73
6464
3068
7190
3447
2021
2628
3650
2564
1772
7821
3079
6518
2016
4180
6560
2320
1447
478
4238
3403
4324
3424
1407
305
4240
504
1974
4206
3942
533
8051
1511
1774
3230
434
3628
253
3366
1412
5987
6036
7472
735
2751
554
1310
6252
3484
6053
390
7786
3631
4373
2716
6816
1526
4503
7237
387
151
3876
50
7540
3565
5136
4002
6015
3641
3156
2449
6374
663
7098
3377
39
3181
265
7102
5711
6121
7584
3746
2176
106
1154
5956
1255
1462
4448
822
3228
3143
140
1291
5179
4899
5007
7259
4691
7207
7934
34
5482
4263
4332
1083
2021
2617
1571
4625
2694
2824
4826
533
4904
5572
1992
2047
858
1580
3409
360
6301
7594
1554
3841
3351
7697
6385
3497
6841
5865
1402
3941
29
809
6376
3808
709
3693
3049
4027
6821
4990
4198
2023
7259
7939
6379
5054
2258
4461
3288
1717
4688
1105
6465
3311
6778
3215
1172
4868
1450
3911
2360
1881
23
6891
7297
1119
4818
5407
3375
7119
1208
5692
1464
5996
4001
1781
5547
2537
3947
7329
6075
2614
6323
8143
4878
1414
4262
700
459
3348
6004
1302
2774
3566
412
285
2611
7408
1240
5342
8032
3990
4535
7857
1921
2232
1496
1185
4935
2067
7377
1560
6401
1424
3022
3525
1376
8170
193
8249
4210
1645
2071
1061
130
6318
3120
6225
1542
3159
4380
5231
5765
5015
2054
772
5659
7539
3395
4600
1548
3544
4112
8153
6438
2249
7224
7033
7885
2094
4973
122
3933
2231
6242
7648
4037
2954
575
2885
3330
5480
7429
4453
7066
5554
6712
7292
3348
3685
3327
6657
8246
6653
2936
1074
3767
4270
1557
3565
4975
754
6647
8190
6508
922
2125
1263
7794
8240
6521
4527
2775
6966
3179
4840
158
4201
7371
4334
6751
2370
2370
4052
2384
289
1681
1709
842
2028
4882
4184
318
5539
4111
55
2087
7878
821
615
2394
1408
5886
2237
4106
8263
5751
2316
5690
6937
4330
1134
4892
4026
6308
4865
6263
5281
3302
6131
69
6273
1118
6291
4911
7120
6309
627
1475
3487
7337
4119
2961
3993
3445
1135
2022
5666
1181
7626
6485
7709
140
2323
4999
3201
3007
3360
3127
7709
6849
811
2811
335
1970
3329
7098
6175
3361
6147
5927
7277
3513
2147
4170
6664
7488
6555
7735
3127
7711
4961
7156
2363
3038
6618
8168
2323
918
3114
4103
952
240
7619
6272
6580
5425
5338
3571
4161
1671
8227
3626
6284
4790
7647
5018
6341
2013
4759
5513
6162
5096
5293
4711
1447
7737
584
1616
6801
822
7830
6256
4315
6189
5949
2476
7570
3647
4182
6093
7520
4474
5458
2342
3685
2128
3032
1325
2934
6997
5108
7572
5328
6589
3142
5254
6842
487
7507
4249
537
5537
3209
7629
7265
1642
3718
4551
1224
4509
30
4753
4872
3384
3137
2047
2310
7573
1837
4171
1518
2093
4890
5008
347
3636
4133
8220
7111
7121
3063
3729
5072
4567
3269
3671
4802
7496
4746
5449
1681
2434
2681
2970
3256
1715
4232
5187
2584
2032
3470
3499
4283
1431
2597
6162
8044
5660
7129
4450
5619
4695
1014
2651
4954
5039
404
1158
2352
5715
1004
6775
1615
4582
5227
7685
93
7113
5147
7520
5251
782
3984
1193
4617
2412
956
824
4591
870
5646
1647
1750
4521
3846
7363
888
3873
858
5526
2624
5747
1197
6540
1653
5610
752
3118
4370
4076
5174
4148
8288
5993
750
6739
5437
5508
3216
7096
8304
6281
753
2352
2683
7142
2400
5589
616
6598
7841
7918
1868
3596
1542
2204
4566
2194
7301
4808
788
5677
6636
6541
6765
1556
1648
1903
7011
1506
6177
6433
2807
366
4301
4641
4954
7892
3928
2954
3039
4077
7783
1447
3656
5686
7716
7467
40
4697
6737
6593
5934
1781
2599
8034
2107
1348
4243
1445
886
2668
7815
99
6877
3668
662
1697
1544
2802
1449
4528
7758
3122
7479
1952
1460
6336
3066
8181
4102
7043
2868
254
7197
554
4937
5691
563
7108
4857
6686
398
3545
2946
4218
4276
5003
5008
4850
5477
4867
5641
5241
1291
1650
5942
5130
106
2804
7463
5234
1812
1932
2171
4506
6096
4996
2698
332
2547
3065
84
6898
2960
3496
1821
2743
1385
8156
2216
2069
6472
6580
602
5764
1964
4228
5866
2493
261
5632
4046
7471
50
6509
3517
5975
7392
3653
1424
4350
6961
1958
5560
6261
6712
3883
4877
301
5041
1302
3285
2609
7273
3590
4961
4269
2479
3265
6893
5201
4735
5010
4584
955
7107
5698
2242
4574
4928
3656
1829
1199
5271
867
5847
5430
3841
3420
1150
4383
1962
570
7035
2628
3454
3139
4610
7900
4890
7456
2306
153
3400
7128
3681
2445
1329
6438
6162
2762
5729
8045
702
6629
7251
8065
5359
2906
1532
3780
2564
5495
542
15
703
2126
6712
3244
956
2329
6851
1409
4254
4221
7897
7291
4884
6187
7827
6033
4238
6348
423
5247
5855
5787
307
3219
2411
317
7928
6855
5486
824
7499
1865
600
3089
738
557
6972
4805
4600
5145
4952
2543
2146
1875
4939
8040
4681
4187
7773
4016
5645
6228
436
8009
6453
510
7040
7510
3658
3746
1894
5450
7783
4325
4122
7787
5073
6374
4958
4638
8047
1976
3080
893
3610
4124
5292
1909
5775
3601
7591
8061
1627
1318
1384
3611
2836
7077
5500
7778
3841
3610
4882
1846
5908
3663
4633
5533
2008
2779
5902
2394
5510
5508
4550
3456
1241
7058
8240
6784
4637
2375
561
7504
1987
3106
897
1690
2335
6376
1521
1505
6314
282
2978
2010
2720
2057
7598
4970
1149
512
1260
1028
4456
6928
6907
5331
6260
5285
7702
1207
6855
3916
3842
6693
174
7661
6817
1200
5328
2932
6447
1238
5316
81
6072
804
229
5817
5216
8331
7248
4348
387
5828
7288
5225
7402
1439
343
2437
5600
317
3585
8232
3202
567
7902
1089
1848
4903
150
4304
2740
1182
7788
5911
4194
7083
257
5439
7007
80
4662
4041
5037
3903
112
373
4515
3296
6825
7478
3236
1566
7144
1104
3365
5367
2119
5243
3536
7918
6312
1657
1842
1748
5238
3811
7005
8099
7234
3310
5720
5196
942
7313
4867
4591
1999
3095
3526
3257
4491
7559
7859
5934
7086
6567
6172
4905
6392
2327
3203
7069
3912
7246
6456
3133
1201
4031
7049
788
7762
4738
7526
8048
4769
4838
6548
6934
6429
7948
692
6487
312
886
737
6781
3580
6781
3078
5264
6154
4860
3455
416
6973
5636
103
3545
773
5201
5558
2438
2160
1188
4777
7623
2795
4862
1943
7702
5434
6179
5568
1318
3889
8209
5282
7475
1126
7875
2047
4697
6692
5284
2825
6471
7407
3166
1401
6316
5695
1751
3728
570
6272
7475
5445
1911
6843
6318
5699
5785
1946
6173
8210
6777
909
8073
1033
1873
4508
3220
3167
4123
799
4566
3568
7619
3794
2064
1632
513
5603
4319
7606
6927
7761
7771
6227
586
7545
7854
1877
3962
4768
829
99
497
3449
7310
2939
2462
4163
4805
7187
1020
7662
4953
6079
6062
1226
3882
2963
7713
6352
878
6057
1744
4269
6345
3074
7444
2626
7594
3517
5929
7830
8143
5186
2774
316
8056
3544
941
325
1717
7974
5390
3386
4831
5117
1770
3127
2826
5203
2559
178
396
2933
7151
5871
476
6714
5387
7542
3254
1991
6423
4551
1080
4123
5195
547
4175
6516
3940
3227
3773
8085
7237
3210
7390
4927
1386
7497
3373
7979
7536
1139
2365
8217
7671
7791
4513
179
3620
5732
1138
4642
3694
7219
4223
3035
3541
1598
7275
4274
5951
4986
5020
1942
7822
7027
8227
949
6414
6048
2777
6087
3884
1412
673
6847
1701
2721
2235
5082
5122
2773
6233
3543
3372
298
2821
8224
5380
7883
1684
7468
2200
7624
6630
7515
2049
2037
4358
6186
114
1868
1777
635
6546
7727
1768
1053
167
2273
8003
6866
1115
4564
953
1386
7632
4956
89
