5512
4138
1389
7307
1586
3448
1472
5761
1219
1834
6790
1707
5100
4348
6403
385
6111
5854
3350
4363
5866
7279
3395
789
3640
1664
3011
5746
5001
214
5305
649
4939
987
3142
717
5637
5923
3492
6695
6880
5944
1379
234
6813
338
2557
6232
511
5454
1724
7080
158
945
1686
6006
2749
406
144
5720
2253
6114
2163
467
2686
282
1310
4127
2099
2327
3973
4728
2342
4181
524
6796
3682
84
1844
1962
7365
6697
6190
4734
3087
7085
6810
5553
4769
1384
5670
452
5926
4923
6177
6323
5668
4643
5263
5971
3895
1690
3671
5265
3188
1197
1216
7011
5225
6917
6885
30
1266
364
2292
738
2015
2932
4354
4185
2299
6302
4393
2210
497
337
2871
5050
5599
5910
4167
6719
3298
6839
2810
369
3096
2112
3516
3026
5101
4106
340
3334
7008
3499
1870
1906
3109
6448
3176
6166
2249
2278
2114
6563
6822
4352
1496
1248
5450
1826
5096
1281
2651
3183
4745
2677
237
7277
5298
3681
2039
7001
6384
7142
395
2822
6720
3008
4870
5548
1213
3193
1829
4846
1311
2233
7148
4945
5401
4300
2492
3796
2276
4903
1286
2048
3821
4808
1630
7009
5647
172
1613
6808
2019
6323
1033
3321
2307
3810
4636
188
1625
2750
2441
3839
3194
3849
1547
167
4105
4819
3138
684
5138
4631
6064
200
7313
7195
4809
3112
296
831
5603
2982
2254
1520
6797
147
5053
2250
3367
4193
359
2756
3863
5057
2729
4112
3251
5342
1209
2628
5820
3858
2406
195
2188
4966
1782
3402
60
2462
2940
1773
6387
3524
6600
5734
5511
4445
668
18
2405
5402
688
5860
261
2268
3486
3396
7133
1595
1673
2036
4207
325
6733
4065
2190
567
264
1044
4940
3367
2823
2728
4196
3200
5463
1481
2950
6007
31
7236
601
2783
396
5421
6505
7279
3316
1787
5765
5113
5820
4102
1913
639
1753
147
4767
546
4762
1437
873
5646
3565
5483
7235
1404
6503
4112
1768
5857
7018
3762
176
6808
2642
4996
6368
112
5580
3395
1962
1060
2911
6391
1210
1446
4536
3931
4698
4915
357
6230
3691
4872
4402
5854
5906
5731
5710
4387
6183
3306
6713
6622
676
5682
3599
3780
6482
6097
3272
306
6608
5192
6278
130
5292
1003
5837
2535
5300
7326
4869
7375
6330
2537
2807
1877
6545
2218
7118
2035
972
1655
5365
4271
4133
2236
1290
3642
667
434
3453
6118
2620
5294
4788
6812
2322
661
2408
6466
2016
2072
4973
3259
546
2441
5938
3725
5231
1508
6923
5888
2528
2829
5052
4356
6657
306
3757
2641
4774
3625
7348
6405
3241
6941
3038
1124
5264
690
4665
5883
6643
4212
359
2262
5651
1279
6497
5336
7192
4513
1251
2429
1009
6717
5900
6539
5343
3525
206
5606
6021
6004
4520
4245
5563
7073
5744
1631
1345
5032
6864
3304
4592
1462
340
6170
1620
6025
2659
3667
5529
5869
6676
795
2440
4370
2452
2303
3084
4612
2817
1941
5351
2801
605
2792
5975
2179
4773
1856
343
7288
3965
6164
1975
5746
5943
260
4123
2873
3316
5502
7181
4657
1498
5165
3705
4994
5944
1088
6162
2667
3583
2297
1783
2186
3375
497
1864
5465
3846
2320
1528
2006
2585
1947
5729
1221
182
2379
2898
560
6484
5609
3456
1220
6055
1308
6423
6382
4996
3470
2925
286
564
7226
1315
779
2163
2487
1119
3941
7327
611
7365
5925
5247
5073
4173
166
4581
5956
1487
6365
6060
4120
2563
4546
3009
6239
2652
386
2624
248
4120
394
1892
6413
3465
3066
5263
1564
4359
4427
379
5348
5470
5298
7155
2733
1163
293
1650
7002
4748
3510
438
200
6701
5668
1592
5303
1523
934
3137
6732
1995
5862
1226
2942
1326
1705
161
4863
3992
1041
7175
2864
6348
1310
1553
773
3928
7255
6379
78
2386
3517
6108
3995
6879
545
4161
3651
6803
3778
6905
5261
2547
4910
3110
900
6386
2169
4547
1856
4779
4541
1894
222
5520
6182
6597
5416
6280
4495
3292
35
6433
735
5485
3562
1408
6465
4352
808
3406
773
3386
4519
2347
278
1314
2060
2413
6626
2027
6303
3416
923
6006
3758
2265
1665
1203
70
1782
3885
2622
1967
5205
5531
3417
5854
169
408
3985
2949
1018
2952
2771
118
4091
4923
6280
4405
3235
752
4692
1815
5621
7161
5145
1397
5038
3594
6632
1907
7018
1074
6689
5890
1562
5871
4408
7241
2917
3847
6647
5843
2620
3343
5200
4394
5424
6860
5037
2355
1032
226
2443
7302
6745
4113
6347
1415
2919
4392
3246
6491
7036
528
1117
6285
2480
2245
135
2028
3144
3833
3355
7302
2664
1477
2461
4971
3517
3030
2208
7308
7060
5453
6774
7063
4549
1838
2205
2827
399
712
803
5626
241
6393
6737
4951
7251
7062
5164
1268
3295
5350
5433
3405
5255
6160
6635
2353
4095
4367
1274
977
4203
2441
603
4886
6275
2576
4047
3382
5900
6450
2542
6424
1125
1037
5022
613
1914
134
473
179
1401
310
6308
712
5158
1134
7080
484
6841
4105
6659
6649
4656
1862
5484
3447
5958
4704
61
239
3684
2477
4315
1806
615
2170
476
3895
1955
1953
1848
3039
6306
982
1205
6516
4816
1360
5206
4184
7164
932
4614
545
6741
871
1599
1130
1127
6049
3382
1619
433
2942
6423
4554
4779
1458
6978
6904
1168
570
4923
2402
111
4409
2171
1441
7292
826
544
4806
5063
4222
7153
5092
4772
6074
1207
2711
2721
5107
5835
4089
293
2130
2680
1225
4921
5484
1349
6885
5282
6118
1374
626
5888
4067
3975
4078
3002
5235
2534
6780
6190
1489
1385
5064
970
5881
1093
710
3621
5738
5227
4574
1693
5895
216
6923
1422
3725
1772
6617
4978
5237
503
6213
3379
5865
705
715
4537
2572
2644
3051
5402
3016
873
2585
4007
6077
1567
1776
5170
5415
4343
3438
4225
3525
5033
3852
2426
4415
7237
2052
2490
3807
1855
2369
3282
794
5309
706
1467
3781
7038
5747
5134
2371
319
4892
484
1253
2874
771
3956
4557
3923
6624
5709
2450
2229
1229
448
4428
5265
1244
4663
4016
3555
1077
6409
142
5018
1616
1366
2030
7029
6445
310
3055
1931
1280
1603
4507
7055
1956
5832
3129
3415
2876
4421
3368
2411
3168
68
7339
3439
4246
6049
4135
6778
5400
3763
3981
3777
1728
4352
7035
5991
2759
4183
359
1735
2402
2500
3601
1705
7127
6745
5209
1070
3963
5437
920
4064
1170
1815
5849
7005
1205
5288
6433
995
1980
896
3932
2613
3491
5627
4111
1674
5778
3017
5199
3641
266
4073
3676
68
836
4108
5883
4249
4649
2208
5134
4058
5772
1468
5837
2672
6446
860
2278
721
3204
1585
4878
2619
7320
4920
576
7361
3535
2538
5103
4561
5755
6497
920
5184
5068
1612
2098
6287
4021
7360
673
1619
1944
4595
11
4923
472
1684
4750
3157
6816
1437
5960
2067
868
67
1816
4228
6164
6085
3660
2785
3969
2088
2212
3321
213
2361
6371
5941
6019
5819
2315
6153
2703
5261
4919
5607
5917
7242
3900
4320
3964
1921
892
136
7130
596
2111
3884
5299
2543
417
730
6790
4249
2370
2840
1592
6092
2008
2835
6696
1863
1882
4486
206
1693
4098
6540
5025
3364
689
6571
3095
1508
724
511
2936
6203
5187
1527
6530
5270
430
4335
6027
7282
1216
5127
2274
888
2887
2704
4956
4078
4031
2085
6471
3172
4183
898
2149
936
2529
1820
4707
682
2119
1508
6182
3991
1706
1571
6863
1606
5284
4114
838
2357
1631
1336
521
4878
2676
5165
3734
1745
3918
2374
2236
3373
6186
1960
6464
3352
2764
3545
2615
2532
4714
6974
2297
1934
253
298
7100
5021
2590
3280
759
1863
262
5710
122
2813
1937
6634
4691
1712
442
6734
4952
4797
2824
3411
3535
893
2150
6897
4111
5853
5991
3231
5377
3623
6264
2026
5711
6370
1732
1277
6237
6744
6379
4425
3114
6841
5488
3002
1170
5027
3412
2595
4342
4295
4555
3810
4098
2907
4006
504
7375
6574
1776
6792
1645
2833
1959
1330
990
3186
4966
1028
2513
3524
1312
5005
4079
5983
3304
6194
6068
4730
5780
4219
2724
6755
6413
5254
2572
3026
6265
1899
4739
3978
6052
2688
4205
974
1709
11
6659
5979
6709
5210
4382
4387
2690
391
3071
4994
4098
2710
872
7017
2694
385
4920
2734
6094
3643
5413
5158
5739
4824
6331
1726
2600
3193
1170
5796
5124
1999
7313
6553
4864
6303
4845
2533
2877
3685
2084
3971
4904
3521
3
588
610
5600
5504
3763
5880
4796
6506
3415
5016
6741
5955
6704
6579
7
2792
3392
6274
2432
5603
4494
2203
6686
862
6254
7256
2877
4572
1745
192
4788
1860
1851
5599
2643
4339
1034
5145
1010
1227
5585
5763
4400
131
3799
7093
364
4934
14
3959
1792
1071
6341
3791
3372
87
1022
6177
6730
3418
2356
2841
591
3100
5265
4155
5843
1429
1840
2529
4629
1267
1547
6274
6459
3091
676
6966
2914
7269
6834
5405
3581
3312
7079
6107
7312
575
524
4518
5740
4353
6769
3796
4033
915
104
6427
5445
4485
853
570
5156
5303
5955
4295
7193
4236
1741
927
4653
4380
3908
3906
5062
6730
2546
3943
7263
1464
5634
4588
6619
1351
5192
5888
5991
1112
3050
786
4014
7185
4995
6086
5936
766
6107
3690
2687
7220
5354
4663
6254
4543
6592
4044
231
6592
3006
4995
593
3458
6806
5659
311
3415
1391
41
37
263
3472
5647
4037
3932
5856
5124
3629
3877
5821
3837
1315
2100
1166
5054
4153
5420
5370
764
3773
3308
5470
6036
6370
3394
5114
3134
7209
684
1952
6619
5694
1149
5714
665
6365
1122
3220
3756
5446
787
5623
5134
4551
1464
2601
3945
4834
4801
6073
1501
5606
1701
6986
4689
1089
6052
4556
3158
5887
4456
5535
5847
7
3058
5376
685
3757
3851
4046
2879
5180
6141
270
1787
3789
5089
5240
6843
2492
6406
531
5042
1792
1355
419
1070
2303
3011
1277
2803
143
5198
2179
3500
4480
4477
2750
5787
5326
3619
6526
300
7219
194
6846
3398
807
1569
6194
3488
6768
872
1906
1294
2365
5334
2204
7124
2323
2768
5125
2929
1916
2870
1720
4514
6116
7315
4788
5531
7293
6250
609
6367
1186
7103
4427
4051
4456
937
2247
6932
1078
2
239
1606
1123
302
673
1990
2698
1258
6080
972
1242
5216
6655
5022
3076
695
1478
3192
2059
4652
6494
2856
118
5468
269
324
564
3406
3508
6980
6345
2345
3171
6738
5165
2147
303
2472
400
3641
6630
6139
6249
808
6735
3826
5396
2025
2528
2375
3246
6553
842
7220
2215
2184
3028
4731
2632
1566
801
5927
2358
6300
3420
7037
4660
4149
1737
4090
1432
4103
3923
2992
2114
4206
5748
1140
2459
2643
3729
5000
4524
5841
6824
150
4252
2911
3636
5613
282
2334
5548
5973
864
4564
5227
3921
2366
880
2252
2805
6231
2185
1002
7108
4671
5741
4435
4060
4850
6390
5463
775
1968
5584
1384
3194
458
5218
6688
4046
4920
5703
5712
3074
2105
3965
1300
5304
3049
5680
3359
3756
5253
7042
2625
3958
1410
2859
6972
2480
1708
4321
5160
3708
626
686
5187
3281
6000
1925
2658
4570
5841
1587
734
3007
3883
4906
7111
5063
6903
4881
2775
1211
1310
7299
2470
1581
3526
2499
821
3414
4754
3817
5798
982
1387
4807
3296
2718
756
3415
7024
116
2233
3016
944
1615
1890
6204
5916
6538
7154
4808
4167
5394
1485
5115
6183
4196
5439
1718
1965
906
4968
6953
5763
122
4861
843
2652
5449
3855
6200
3744
3021
5496
6005
6353
5738
6495
6430
1958
132
2717
4883
215
326
4254
4344
4786
2864
5773
4534
5837
3522
5262
7191
632
3692
1306
5799
3482
4974
5804
4653
6472
521
6750
1321
1122
3565
6914
1128
4103
1779
3568
2827
1736
2262
2903
5506
3220
7209
3041
2668
2035
3180
1883
5415
4869
6012
6252
4673
5426
2854
2677
1438
749
1024
1163
6854
5754
1887
2682
5235
6089
393
6076
6316
3629
6514
138
6530
4985
1515
2741
3180
486
4015
4
3322
3842
1061
2645
5710
3869
556
3499
7014
5999
5690
2080
3854
7210
3376
5477
867
574
3094
5727
3755
1798
2055
4575
4143
5153
4221
6995
7262
2895
5699
7148
3435
6943
4197
2076
3210
1691
5480
6861
2178
3318
4366
7000
367
5341
716
4912
71
1668
3356
727
1786
2264
2020
5196
5542
3060
956
3678
1918
4533
877
1352
2035
268
3874
4734
3074
998
4219
1557
3633
3570
565
6667
3476
4935
2612
6778
2228
4088
3458
4291
4686
6623
953
4351
7103
6134
5956
4510
6941
3605
6612
152
1858
1224
3044
3413
5508
1664
1204
2084
6100
5471
519
3813
4329
649
4087
6961
5313
5346
4151
3531
3516
337
1671
4956
3037
7063
2377
2291
7253
5706
1692
6339
1711
1649
6933
239
7014
6477
4511
3581
6550
4596
1756
6942
1149
4722
6270
1322
3631
5534
5176
839
1030
4329
1232
6225
6196
1734
6875
53
1239
1016
853
5734
4627
5433
2931
5934
4634
5636
5724
3614
4180
3491
5619
578
1386
2811
171
3412
3370
884
6588
2683
4134
1872
6786
2356
3706
5093
789
3228
6179
5444
432
5733
2929
4710
5368
6288
3489
1093
5744
828
6685
4630
613
18
4043
7111
4448
3024
3272
812
3745
6428
1666
7092
1905
33
3036
6918
6088
493
5846
6469
3132
6968
3565
5030
3797
3848
5672
3233
3110
7110
1186
6547
4530
7097
1756
322
7292
242
1340
4722
1529
5104
6048
5505
183
2393
3920
5879
868
6451
6478
5308
5217
3454
4545
1390
6549
1786
2009
4683
2010
7125
5667
3712
5250
6182
1977
245
2088
6957
6428
6414
509
3733
1174
5809
6290
6852
2454
4822
5837
2786
493
1088
520
1939
546
814
491
3543
2586
1915
5768
637
7179
4754
3369
3463
4778
3751
174
902
16
1259
3985
698
62
3895
5649
5518
5101
6044
3798
1118
845
3313
5912
1673
5647
4774
1106
977
38
5442
2145
1226
4314
4421
5570
3140
5907
5049
3300
3361
6197
5435
3109
2811
950
4816
1381
1898
3562
2637
5132
3915
6092
6796
4357
6518
5193
4566
4071
5350
3972
3095
6268
1775
6157
6245
2570
3535
1568
5670
4841
7277
1955
3708
5861
6256
5204
6590
6076
3969
6668
4653
5279
4693
5348
1057
1695
7306
1443
4590
6610
2861
4082
1287
262
1696
5960
3486
1125
1853
2045
2810
2782
6527
849
7247
5960
6313
3763
3413
5796
723
5684
7252
3779
269
1683
7374
5091
5155
1494
2394
6211
3853
3967
3769
3893
7107
646
2160
827
835
4418
4234
6210
7191
368
2708
3015
3683
7370
2763
6833
6931
5250
4718
5936
1690
5315
1885
428
5839
6309
5237
4761
7141
4554
1542
4195
6614
2684
7255
7355
1092
4467
2686
677
968
6743
7224
1154
665
3511
4547
1385
1594
1253
5086
6881
651
4230
1230
4290
2650
650
1809
273
3070
6985
5641
4227
4121
4729
5139
1982
5984
1272
4324
1367
2635
4202
7289
676
495
3873
1082
834
5931
1381
7026
6663
1014
3418
192
4602
4114
4797
6500
3319
5261
1167
5774
2142
4282
5493
4647
16
2771
429
7230
6913
420
451
6847
147
2269
5820
5142
5567
551
807
7225
7322
1683
2577
2623
4958
6725
3375
2268
2095
6715
56
5890
6151
3715
6442
6333
7281
173
5431
1564
34
1174
3471
5168
2181
5167
4195
2075
149
1418
1786
3670
1618
752
7182
6031
1900
4347
7276
6099
1796
7219
2591
6496
734
6616
2465
871
4849
6094
6460
7117
510
4462
761
1535
3039
5417
6108
4184
1510
4516
1091
1566
5259
2646
6301
6478
1928
2498
5811
2274
1984
380
4006
1989
3671
5151
781
2210
4019
2751
4069
2117
146
2140
3134
7204
3520
87
2990
1325
4140
1164
42
3229
5744
4714
6749
6321
4236
1216
4420
2765
1917
6973
4092
2652
5423
4310
1436
2062
1208
123
1986
985
2173
5675
6489
3406
3254
3286
557
3495
6990
4723
4922
3504
226
5691
4052
882
4354
5789
2620
6596
3332
3915
7061
2773
6336
3353
6826
4240
5968
4805
5696
1988
827
1372
7084
3383
5647
745
1137
5069
5037
1960
4892
5645
7377
7113
3189
3616
6542
1982
4611
1043
1404
5363
7077
1717
3413
2874
5972
1238
2519
7323
5321
4318
3476
167
1199
1833
3760
6984
1266
2075
5580
2344
559
5001
6324
556
2784
4688
3370
4183
1292
4074
651
4598
1868
5575
2743
807
913
6052
1645
2509
358
2096
713
979
5911
5021
7185
5939
3540
3682
4251
3795
1431
2187
6225
3156
3681
1285
6736
6168
6256
1853
1371
2382
5946
2619
2036
4664
3746
2080
5609
5825
920
4713
3985
3945
6435
6515
2682
1550
2751
3661
5466
580
642
4553
3942
3922
2276
7224
2559
5608
3322
6603
353
7273
5407
3398
4511
4394
3663
3169
6008
2664
733
1326
1708
3212
7008
3007
4634
7146
215
4697
6670
2001
6697
5478
7180
168
3705
1080
5315
876
3007
4630
7261
198
5395
2560
6176
4129
4619
3059
2082
5559
7
3346
4198
2157
1366
3309
714
481
176
6753
5294
1359
2907
5681
3527
3340
2592
2821
4677
6671
5178
84
622
1353
5210
4496
5072
3885
3522
6277
3187
5405
1320
6470
4648
4044
4916
6513
6210
2077
4470
746
3562
417
4813
2516
3566
2973
5793
1644
6664
1751
3024
2199
7354
5467
2133
646
6821
2837
1737
908
6586
5990
6982
4481
637
117
6546
787
2922
5213
2378
7043
4395
5033
3086
6917
1206
7035
5468
844
2980
1269
5520
3709
2567
5406
2422
4891
494
950
3000
2141
3720
934
1287
7031
957
4051
6289
6371
1893
5469
166
3212
695
5375
5240
882
3544
214
7261
5713
1221
540
1599
7299
5890
3060
7314
7374
3368
1652
7374
2846
2777
6849
701
2205
6473
3483
3789
6368
1353
2441
3567
7334
1220
1121
4211
2133
7085
7314
640
5484
6680
770
1856
193
954
1567
461
4883
3413
1398
3084
4380
5941
6956
1578
3002
80
3412
5793
1272
4952
4237
6341
2160
5962
6273
4368
2071
1668
3236
305
7349
5944
1332
4316
1343
3409
3669
1400
6643
1424
3249
4809
2367
5415
105
4016
1295
5406
6763
34
7061
2459
2538
5573
902
6235
1011
2654
5180
675
4335
2708
6722
506
5945
3307
1845
5817
6577
7289
6785
5829
924
3357
3515
3805
3306
3370
6115
5363
6052
7171
1940
6629
5354
6645
5117
6437
2557
4210
344
1812
5542
5849
3030
6088
4831
2748
503
5487
5436
5177
6034
5781
1220
6494
2324
4905
7146
1296
2114
4888
1595
1537
3210
6228
3867
3290
485
2847
5553
2152
2455
5309
2515
3225
506
3572
7263
7367
4360
1831
2296
4177
6213
6786
3793
4254
326
5064
1561
2517
5093
6428
1303
563
1365
1450
2692
1449
1724
6242
2131
5351
528
1646
7141
5798
4512
7357
7056
1509
6302
6561
2815
1615
3954
5706
2483
3689
3649
881
6987
1595
1999
1688
2329
458
922
7156
4753
1792
1745
5181
1041
2092
1513
1949
1713
4897
5336
848
3348
1810
3891
452
2843
5588
686
381
6341
2860
3660
3622
4881
5021
6465
2814
7192
5117
6653
6902
1747
1448
5177
528
1817
10
2744
1816
4125
2095
4220
3723
5160
4821
5921
2969
3350
929
5264
5453
4279
5970
333
3133
6873
271
5370
1696
2053
5841
2962
239
1212
4026
3046
1587
6155
1909
3939
944
3263
5034
6807
600
259
4795
2726
4428
2535
268
6545
5688
3555
6860
2094
4899
1981
4053
5358
2717
6816
3862
4956
6549
6750
848
6012
6970
3585
58
6460
2109
1738
4119
2638
3127
6578
3591
4567
1581
3950
6939
524
3594
4903
3377
4040
3488
4724
7087
1138
3738
840
3343
6309
190
3227
4772
689
4026
5425
1065
5373
5251
6697
4947
4727
6246
1445
3010
4404
5615
4700
668
5850
1277
5172
5542
5796
6579
3850
5049
6421
2545
1666
4972
4544
4743
2985
4789
1860
1023
5471
3637
6904
2238
3355
1436
1386
6159
6751
2359
6301
6800
1291
2381
6006
3223
5497
1203
3200
298
2943
4755
5000
1544
502
4454
2680
4983
4387
3142
5610
5703
6200
4863
1794
2429
3277
5908
7074
2245
6009
3471
1978
1750
1793
3929
1208
2899
1459
747
4473
4907
3067
901
5070
5546
3147
2269
7090
304
4778
281
1469
4196
6536
1631
3427
5577
1600
1837
79
6965
5879
2073
1939
4802
4392
6071
3381
5869
6242
5702
539
4979
5518
2667
3015
568
2718
2336
4595
6684
4116
6577
6025
5645
5539
39
415
5150
6533
4805
233
4057
500
5490
6544
1867
6874
5005
6768
250
441
3086
3693
5178
2129
6677
6572
6497
415
4715
5897
6580
3154
7201
3401
5154
3320
4370
5133
2939
1566
6750
2706
3279
1177
2645
2960
4451
2579
5546
6593
981
1789
480
4357
4795
4559
5475
6000
477
6453
4444
3453
1520
3757
4195
313
1815
1060
142
6483
6518
4593
2610
4251
5303
4118
3063
2909
7188
1133
7061
1561
2894
1662
2426
6810
5259
4124
1397
2576
4372
1717
6956
7179
4823
3796
1462
6001
1057
3606
4843
2156
1937
2713
284
6918
4111
2622
2323
3789
4527
3677
2124
3384
1042
1423
44
2715
7310
3016
6359
3147
2751
951
4957
6055
4191
711
3386
3342
3595
3120
4110
2819
4769
2826
3519
3510
6589
2098
6250
2102
5260
6980
4066
4748
2235
1641
2437
6810
3836
6403
6021
1058
6105
4482
6715
3073
138
1146
1066
3112
4554
6695
1090
990
301
1785
2329
6512
3480
6550
4144
4838
7370
1381
6487
3916
5847
3404
6298
6589
1337
622
2135
6787
2394
4359
5721
5600
4037
3585
5816
10
5001
6110
1272
6523
623
2612
6001
4639
3880
4221
1944
1758
1078
1335
4895
4161
6578
1055
3994
6153
4644
6655
3686
7157
107
2830
2604
3790
67
5497
7115
5316
6603
4655
2680
79
3973
7301
4111
4283
198
6268
6086
822
4764
4604
5630
1369
2970
143
1634
7015
5282
2452
5180
1293
251
3230
2831
5286
3322
1121
6111
7119
2295
5351
5561
6478
4976
7275
3358
2257
1141
6703
872
718
4864
412
980
5923
6169
5060
5897
5553
2763
4556
6826
4125
6142
104
659
5079
6784
3352
2724
5526
2950
1741
2044
1176
3080
3326
1808
7353
5437
6865
2807
7290
3682
5485
6617
3148
3174
1961
5260
3296
827
143
2981
6497
5992
7327
384
2226
262
3376
6598
885
626
158
6188
2229
2425
1078
2464
1817
5859
4175
3909
1410
3953
5177
41
3791
5602
6907
4875
5976
954
2709
5511
6540
1498
4285
49
3784
5716
6464
3717
5741
3886
1114
2082
1933
2538
5579
7330
2483
6129
2404
594
350
891
4430
464
6833
7052
1878
1297
2180
1163
3642
2653
554
1847
1228
3018
5511
862
6349
3061
5265
3954
7253
4933
4420
5484
1273
6078
3595
4189
3013
6641
3765
1598
1474
4598
7233
7100
4865
3078
910
2315
1555
6880
4948
5099
548
3092
6512
3063
6241
2402
4586
5167
2306
4093
4190
691
3665
568
1644
631
3246
2503
401
3566
32
759
1679
1702
2029
647
1565
1678
474
3418
1609
1554
2610
3219
2703
104
154
536
803
6328
1713
1060
4590
695
4094
3072
1966
4245
2787
6055
3296
1781
6560
6555
4848
886
4489
2956
3580
3847
1321
2545
2898
5513
174
6514
1928
5997
5362
4103
6237
2909
860
2380
1846
2080
175
1458
318
6589
1555
3010
5907
1241
1642
6534
5859
2181
5731
1688
3829
2904
4087
7287
3582
2407
2996
6037
4754
3006
3135
6220
2095
4139
1117
2569
6972
1417
4207
1810
755
6107
5687
3267
6515
3139
5463
4448
6985
5678
3365
2647
7030
3271
6972
4134
1557
5504
3891
5505
5307
5034
5192
269
2001
4065
2809
6824
1249
6943
2743
2756
1114
6625
42
6975
1082
5895
4302
4997
3377
1242
2687
4786
1788
5669
641
757
6772
2997
6556
210
6554
675
969
5703
5784
735
123
660
2181
266
1584
1304
2058
5137
1049
5498
1773
4045
1002
3574
6088
3907
3826
3781
6619
3862
7008
7207
2502
6421
3430
5283
3970
5707
3155
6426
6519
521
336
2430
5997
4921
4703
3774
7139
4374
5572
319
3840
4013
4797
5133
2848
1563
614
4759
2895
1865
3275
1794
4295
4668
5502
6445
6625
6347
7220
4882
182
844
2764
3726
4559
6962
5186
4702
3346
2380
1647
1934
4803
3718
4882
5551
3128
5366
775
2561
1728
6700
2800
765
5672
2098
5336
4847
4497
4566
450
1876
5514
5202
3674
6970
1431
6179
5243
4033
6050
2348
3585
6484
2757
7125
5514
873
6597
2170
1232
2730
5974
5901
3617
5643
177
3640
656
2010
2739
3762
3044
1062
4899
614
2735
3833
5967
3425
5177
2545
2476
4805
935
361
2696
4238
4695
5381
5453
3145
6498
7191
5329
969
5637
1478
6205
5693
753
6701
6255
2201
1678
4358
4096
2193
4667
3249
4442
2100
108
3991
2575
3247
4372
4032
1955
2444
1570
388
5264
1366
5028
3719
4293
963
2900
6601
92
1678
7363
1613
5249
208
4524
62
1113
4401
4409
7235
1448
279
1820
4083
1983
2694
5861
6093
5401
4465
1952
1311
7105
4690
4655
5399
7365
2733
3535
676
5310
4849
7064
4509
6585
6923
5134
2139
5862
6813
274
7202
608
6040
4406
2186
6045
4827
7050
109
5816
5655
4564
7096
4104
6715
4671
6139
4743
3889
144
610
3424
3756
2082
6790
1343
2581
5861
4742
5856
2297
877
1862
6776
3225
4557
3530
1992
2073
6214
4700
154
2275
4714
7253
4494
3507
1551
6250
2569
4028
6869
821
1154
1830
5090
7352
6095
4928
4683
3061
6887
5290
604
6529
2802
2747
6224
1917
1221
200
7098
4013
1760
7236
3670
2008
5498
5797
3109
6572
5700
3858
121
1496
4875
1872
3519
5005
2204
6670
3438
754
41
4751
5417
1584
7243
4957
5341
6245
6347
5993
3534
1401
6046
4252
2685
2187
3168
1830
5742
4594
6513
1598
3500
4943
5687
5812
6350
6288
5864
6016
7325
2512
1681
3560
156
286
847
3273
4387
2015
5726
4059
6861
3295
5840
1281
7217
2432
2245
989
1849
7103
2870
6134
5022
3998
5582
5300
1383
1643
489
897
4420
4706
3752
1849
3906
776
6574
3013
2934
6260
6715
6574
5672
6860
2834
2712
1048
4277
7044
6714
6932
4640
1644
7276
919
4937
1286
3935
1537
1275
641
3711
1651
4786
1152
7323
3687
1689
1876
2374
3691
462
6633
5622
4019
2283
7188
73
1128
1881
1694
6665
1228
205
971
2941
2532
4312
2636
18
4521
6595
1302
900
3054
5446
789
1837
3303
1570
2977
7048
3924
2427
5317
532
7118
3421
3750
5288
283
1619
6514
4523
908
589
7247
668
6999
3175
5350
4620
1331
6051
845
265
626
1516
7218
2587
6669
10
4377
831
4895
5046
478
4903
6396
5381
1511
1616
537
3969
4877
143
5697
2925
2987
1843
6494
2274
4503
4997
2262
6200
6118
6330
5042
127
6391
2086
4362
607
5056
2362
4159
6886
3748
5607
4269
4888
2965
6406
1908
2794
2330
5617
5115
424
265
2888
2236
4706
2552
1049
2703
6390
6697
606
6145
7191
2660
2333
3733
3353
6369
4466
3856
1913
984
6861
3834
1682
4622
6462
6389
4358
1341
1485
529
1391
1963
5012
4189
2833
3120
3941
2102
5804
2142
3663
2001
2095
5906
752
2760
5417
2730
5355
1046
1574
909
5775
151
3694
2700
6836
6945
4289
2927
1416
6716
181
2683
319
5573
6268
2243
1976
6170
6603
6657
4339
4466
45
4677
4315
4196
5271
5489
4437
173
7028
5880
4583
5336
112
3741
5544
7239
4346
2195
881
3632
3655
2843
5429
485
3283
6330
6302
1908
1882
962
5195
562
5032
5508
1987
6284
3346
1804
1427
2670
7153
4568
2741
7176
145
3918
2997
5482
3551
134
3132
6264
3844
7069
2985
5027
7150
860
6480
6484
5210
7108
3999
1490
852
827
3903
4614
1090
3269
3935
7188
2544
2786
2327
2540
4009
1143
6628
4928
4503
7255
2974
1869
381
4227
388
177
2310
6078
5877
2809
1034
3105
2
5219
5789
5511
1147
5011
2320
841
3507
5438
6521
6549
6851
6564
3915
3316
2197
6501
6386
2794
3554
2851
3157
1430
910
6914
453
4679
3005
5164
6383
1879
3501
6100
3771
2355
5787
2058
1472
1736
723
3834
355
1025
4653
2555
6704
529
3496
1023
16
7144
4888
6773
2741
1966
4299
1082
5876
7364
6756
4136
3801
2456
92
1721
2354
2091
7012
2244
4905
5018
1225
7095
3696
4335
5575
5426
7319
3498
3552
1804
5353
5696
5737
7244
6736
6883
2182
5209
3424
612
3347
179
2806
7058
2651
2502
3666
2092
5053
6233
2620
3387
2567
1434
1215
6534
727
1069
6480
2907
7114
2602
6501
5587
5083
903
4527
3925
489
3647
6559
1979
1405
1366
3349
7190
4702
1215
6239
165
4667
5373
1308
6071
1203
3025
2472
1470
1356
6639
4637
2771
7266
155
500
5364
972
592
2874
5967
2238
5977
1371
1326
4190
7280
4540
6536
5960
3877
7125
1331
1960
5811
3322
3065
6695
266
3555
2236
5722
6785
5235
2588
3952
4794
1034
2027
36
6897
980
5479
1766
974
3974
7092
94
5863
4355
5044
6886
5802
6204
5889
870
3311
5545
2927
1847
2335
1544
3539
6538
3814
457
4724
6004
1251
2151
3637
4261
2290
6069
4703
3680
7181
2386
2293
3262
1920
1163
4246
4908
752
4220
6464
1669
6583
6518
1683
5185
6122
6691
236
5559
787
5600
3788
4161
7022
3515
2645
6017
6140
1546
4913
5710
5844
3589
4330
5497
375
976
5754
2698
6154
949
4475
5183
629
6004
4395
223
6742
6988
1558
3525
5904
2959
3301
948
5468
3463
2748
3771
3887
2003
879
3398
5282
737
2523
5339
4759
3977
235
2948
488
4328
2358
3398
46
5808
1173
2758
6775
4663
1890
2197
3833
4472
2465
3785
260
6837
729
6364
4751
6267
1658
913
776
4560
6462
1325
1633
2095
6135
3733
5882
1163
2102
113
2969
1009
3266
678
1030
2180
6279
1405
405
4987
3241
332
4841
2690
7064
7174
2711
4519
6959
6839
1496
5556
1990
490
3688
4249
6229
3306
2924
4815
3730
3636
6683
2792
5694
5567
6361
1127
3057
6555
237
3469
665
2412
2753
630
5934
6671
6980
6846
416
5699
6256
2852
6520
3794
4161
3752
6488
4687
4623
100
250
4844
3824
3705
5041
3468
7158
6389
6369
831
2348
3781
849
4962
5327
546
6890
5266
5265
5317
5858
6735
2434
747
2478
2669
6748
3315
985
5895
717
827
2483
2720
2931
6091
4899
4742
5332
2184
1938
6935
3331
4300
1700
2470
3600
3332
4765
6452
3907
5067
588
4049
3108
3871
4920
3736
1668
3527
6208
1448
2924
3318
2549
5824
3373
6890
4692
461
6879
7193
1293
2877
6230
1118
1772
2856
5270
4633
4598
4968
394
4077
1124
1686
2389
5031
3176
1930
4123
5067
1830
1484
1103
2559
2075
6616
5670
1743
3648
6809
3071
1936
2077
260
4976
1390
2960
2080
4014
1266
1933
2070
4054
2590
2653
5445
5866
6111
4701
6788
1582
7208
6069
4356
1926
676
2441
1837
7357
6562
6170
6206
6708
5330
3958
785
4059
3561
6079
1293
6385
769
3147
2570
2650
6327
3658
5004
2217
1730
4588
6912
4872
5669
1766
7340
198
3834
2351
5822
3495
5314
964
4719
1823
3005
6449
2942
6776
4102
2766
6860
2526
4684
6876
4925
943
299
1077
3541
3376
5390
6879
6444
5647
731
3604
739
7237
790
5806
4495
4296
7131
184
5869
7070
3078
5753
3765
4302
5181
6146
4853
5565
6417
862
1790
4328
6215
7080
1597
2485
1066
646
535
6496
2641
209
6259
1277
2454
2974
2769
5735
111
6004
5604
6647
6806
3871
4430
3419
1272
4469
2480
2006
6330
4383
1533
642
6343
1141
3824
5726
2474
1791
1098
6214
116
116
4474
516
6932
3682
7263
4333
4995
3186
2904
5981
1755
5230
5179
3819
5644
5148
5029
1142
6533
1867
4023
3889
1798
6630
6225
2878
1298
7009
1147
722
4468
2628
2513
2824
3423
766
4057
1405
154
1651
5708
3724
5555
2646
3694
2616
4147
5879
1115
4903
4476
4881
2278
2252
3300
3876
2586
4745
3006
4417
6240
6812
2692
2423
4359
556
1658
2858
2543
6417
5441
4203
1638
784
552
4496
4094
3740
5025
4086
703
1287
5166
1645
5269
4520
5082
6715
1729
1299
6962
7061
7352
5595
120
3099
4934
1829
5467
703
5006
5978
495
870
6040
6838
7200
379
3164
5372
5378
6021
1897
2440
1870
1720
445
4729
4812
935
19
621
1974
5753
2832
192
3613
6677
2816
213
2876
3325
5437
3727
673
5252
7174
2700
5717
6132
4406
4955
1180
2856
4360
5476
1682
3845
2196
938
525
1488
6499
2906
4962
6248
3603
7091
6579
3426
1906
1721
371
4051
1368
4530
6770
3521
6370
4324
2213
4698
4826
6442
5354
6670
5194
4915
3149
5684
5608
6853
381
737
311
4021
242
4238
2589
1823
4705
756
560
2274
6855
4477
3808
6824
5788
348
3266
6793
2534
6098
3396
6989
4458
3457
1277
4911
338
4378
4836
6047
4074
4720
2669
140
2698
808
3626
5365
6588
5324
6150
6459
7260
691
6472
7349
1703
39
2644
1247
5530
6550
1090
1463
3380
5355
4826
2385
2095
4947
4917
2775
5673
600
5674
7158
5610
4893
1483
5573
3707
1154
5143
4980
3493
4887
5192
6632
5028
6705
389
150
6124
7245
2534
833
3709
2674
3081
242
7223
245
617
2263
1772
1084
510
1248
1087
2817
2523
1662
1307
5977
2852
7333
2024
5442
7376
1062
2343
217
44
6318
6335
6060
1831
5242
4125
3676
6653
7073
5502
2231
379
1467
2183
5277
4753
4564
5703
3805
5882
1841
6187
6379
7237
3650
3584
1358
6757
3542
3947
4592
3164
4228
829
3421
7317
6140
2507
4910
3048
5889
4760
906
4183
2825
413
6972
7006
6412
5415
3380
301
3765
1564
5583
5318
4324
197
3030
2734
761
2588
5490
3624
3758
5281
4068
2513
4157
395
2964
3784
4832
1773
2864
4794
1555
3719
4227
66
4950
6939
4275
587
3972
4337
4964
862
1830
6319
5703
591
2167
4167
5628
2873
5746
7203
3848
4246
2357
138
2358
5274
1986
5857
7361
7267
6605
3641
2295
5177
3264
2672
329
2972
2868
2399
1480
438
2951
4622
1004
3825
119
272
1868
2075
4799
5891
1125
6516
6621
5216
92
3553
4709
2615
1295
5842
1132
1617
1836
1551
2985
2704
4787
3888
565
1397
2433
4963
2873
2574
1353
6187
6203
4074
4323
6997
6601
3560
3060
1864
573
552
2406
3123
4063
6869
368
3295
3452
1726
6702
6079
5549
5816
3859
4880
6292
1176
6148
1682
3859
2839
1983
3749
1148
5094
1296
4473
6208
1956
312
1648
7177
6095
4259
2134
4158
1606
3796
6107
6841
7246
5549
3767
2841
4749
5936
2603
1781
6224
2454
1030
3262
3293
2994
1327
5613
2907
1901
7345
913
7126
5510
3430
4360
2568
1437
6975
6604
4251
4606
201
6694
2817
2948
4565
455
5897
1296
249
616
6780
545
3369
3152
6388
188
5322
204
4414
6497
5394
3058
4418
3984
5250
4367
3056
5531
4734
6420
5018
4526
2937
1240
4376
129
5886
2069
4170
1887
1586
4164
4216
5334
797
7339
1152
1895
4361
2026
4110
1907
3628
2161
2332
5961
1022
250
2490
1376
3194
3734
2244
4097
5468
4575
3647
3487
5245
5110
4222
2285
1399
3870
521
1096
655
5953
2489
3103
6452
5234
484
481
4238
1569
1076
2843
4816
3148
3291
1661
5337
1102
6977
3107
4081
470
5025
5689
1824
1814
975
3071
7355
2293
7031
4945
4574
3616
6135
6483
6547
5957
5679
2253
6246
1578
4954
7310
1288
2830
4998
2967
945
2261
1849
6182
4700
1150
3359
1520
2229
4697
4859
7049
5790
3039
6625
6672
1425
2767
2975
1967
4059
4775
4748
1369
1702
5428
2126
2010
6176
2647
2812
876
4243
1445
3288
984
2825
2970
6132
5837
1241
4023
5032
4493
729
1373
4028
4228
4775
230
1243
6324
4095
2979
3322
2515
5955
3712
4573
7348
3362
1540
2196
4073
2434
4864
6683
3065
989
2788
5572
2530
3248
3820
6425
5869
5023
3190
2111
6347
3005
1282
6008
2245
4663
3030
5170
3320
2504
4248
6653
3324
3445
821
995
1754
4404
517
832
5259
6559
201
2544
7128
3077
2181
3525
4533
4704
3260
2766
3311
219
1433
2042
183
0
3616
6020
5608
7183
5910
5519
6132
5969
5993
4809
2175
7287
7332
664
1541
6407
3508
2092
1363
4261
5829
126
16
2529
4120
2639
2010
2225
5801
7106
896
1857
5876
6651
407
998
269
2423
6611
5251
46
7033
5635
4164
2521
2876
1488
6778
1823
2139
1867
4865
3732
2287
4606
2364
805
3195
2502
1902
3077
5634
3279
5138
6439
4119
285
1594
468
3577
1550
3170
2397
6655
4768
3503
3701
1642
5262
3679
3663
5090
2483
3546
418
6431
6364
5939
1720
4985
3616
5131
873
6147
3510
5960
3269
3897
4417
79
298
5994
4491
1618
1321
6300
1229
4048
6266
1467
4859
2102
5619
1681
697
1887
3391
2880
4405
446
5505
1471
4156
364
4993
6522
4201
4217
1025
5613
4017
7360
6412
5428
997
1911
1948
5808
7061
4010
2146
4428
2846
6751
1644
5190
2608
3159
6303
4857
622
1547
512
5041
7326
1573
2273
1389
5880
3247
1364
1950
3731
2339
6939
6948
6397
2702
6379
1050
165
5042
2232
4367
6547
6231
5670
1340
7091
801
1263
5610
3806
2804
7192
2468
686
6522
6665
1546
4756
7106
6274
5657
3049
282
5820
3887
351
7326
1149
4543
5034
4208
792
3478
5279
3813
5373
3465
4583
1482
5741
4463
6617
168
6581
1991
7356
3838
5982
371
2341
4676
618
741
3077
3766
3378
2459
3253
955
199
2402
7074
1228
4626
7135
917
4729
1424
6181
3001
6694
3011
4024
2416
3664
4753
4535
4523
4462
4251
3094
2922
1859
4697
5426
1
1646
409
2069
5269
722
4581
1988
6138
277
3003
6244
201
1267
6996
6193
5159
7204
1324
4585
6106
7294
3442
5448
5469
1754
6164
1829
3603
6534
4342
5578
5559
256
5481
5698
1123
5966
1294
6452
5310
5745
1101
2231
5452
3364
1972
6029
6362
3701
3324
6166
4556
2704
888
2789
3536
4790
1609
1178
5832
3390
1043
1942
3332
5042
6710
1968
4625
927
5523
6175
1562
3102
5290
4382
2650
6311
7301
1716
6202
922
1148
5691
3673
290
7081
5798
90
3989
522
3944
7174
17
7258
6573
4648
3265
5788
3937
4134
3549
4664
424
4314
3448
1816
104
33
5609
4591
3398
1191
97
5566
3456
974
558
6795
5632
6765
2552
6311
5978
4341
3421
639
145
1747
2105
2964
1755
6791
2309
296
1476
4614
6341
4589
1676
3379
6736
5777
7076
3069
1786
5292
6789
3969
4522
5931
6967
5834
5251
2737
3258
5164
3022
5471
402
2100
3877
6961
4872
774
2278
5220
6622
6273
855
844
3636
1188
3362
5760
4230
1044
887
521
2394
7241
3445
2268
5050
7029
3726
7259
2727
3839
7058
174
881
3069
2199
1582
955
7111
1880
7244
6771
2681
5900
742
3491
1779
4154
636
7339
3015
3074
2264
923
1391
655
971
1894
1002
1553
2116
1093
6955
5135
5748
2325
137
7113
6149
6823
1549
1788
2855
4330
7364
7306
433
3613
3204
4277
1656
7084
3912
6788
5524
6364
3849
13
3323
5638
5949
7119
7362
6763
6383
984
7248
471
6811
1372
1998
3702
4708
1900
1318
4560
6067
1825
6839
1013
2780
3430
5733
396
7197
97
2834
5997
5495
5502
6574
1399
3490
5585
421
5123
1307
4150
2895
103
2761
716
4883
6323
61
6302
1065
7181
3975
3915
4178
1753
4618
3413
2243
1440
6272
160
2823
4483
1056
7182
6118
4112
1353
1147
3447
588
4840
1307
3880
6792
193
6756
5921
5673
5847
3566
1319
968
6322
3618
2704
4800
359
3870
7325
5775
4695
1819
1820
2244
2576
3290
5943
4530
37
5605
4517
2790
5069
6197
4392
4750
4044
5645
2241
7050
7186
7102
1565
3297
3573
4495
904
3518
6942
5430
4492
7130
11
2796
3099
2813
6248
7013
4331
96
4316
5790
4772
6337
5399
3927
303
4598
202
391
3198
5325
5263
3244
4291
4678
4768
1598
1211
1747
2955
2819
2940
3056
3100
4448
4770
5490
979
891
7103
1803
3072
288
683
2849
4973
6294
213
1384
311
6130
844
562
469
3616
4752
7040
1223
6675
6423
5255
6499
2200
4228
3970
5546
1391
4128
1940
417
940
2990
2902
7091
6433
422
5414
7143
201
717
2143
4323
6482
399
4981
1625
7292
1621
213
3838
5217
6477
6878
3637
3858
3013
4027
1413
6124
4702
733
3951
3181
2234
2342
5583
6201
4049
5296
4098
576
3631
3048
4870
4466
5159
3734
5234
4130
2069
2633
6224
2170
7030
6484
4018
5039
1115
900
4577
1848
4478
911
45
3849
4912
1111
1981
3010
5924
5835
3470
1295
3173
5338
4912
6219
308
3004
5313
2665
4245
4571
3011
3152
433
2485
2037
1326
1093
729
4446
6136
5701
4952
221
388
6652
3704
5369
5938
5219
3771
4053
7227
1981
5454
3405
4153
1043
5661
6069
3241
1269
6360
7353
1515
3926
2589
1186
3251
1696
269
6207
1693
3380
3729
2625
6674
2985
1117
5651
3079
5015
3892
5717
1183
5716
4695
2448
732
5307
6164
4878
3503
3605
1351
1836
3037
2085
7336
138
7179
1923
5016
6582
1362
5214
2519
4697
1068
5220
6503
7267
4587
1475
2422
2850
607
5065
2074
3359
3408
2224
5705
253
3246
1360
977
4222
660
4886
5906
3464
1493
4080
5683
5
3989
4799
2172
2816
3069
2084
1434
1953
646
5887
3321
5851
4892
1545
6694
2904
3604
2810
1089
7005
3086
1979
461
5496
6545
174
6600
7205
2921
40
7058
2697
5384
4719
6178
2514
2857
1370
2897
872
3898
1003
6210
3532
2496
2656
5076
192
4333
3805
5718
875
5336
33
568
6347
3036
15
5824
2928
2291
4462
3304
2231
1441
4790
936
3368
5913
1318
6848
5382
5541
1195
1355
4398
1125
5873
3303
4135
4399
6565
2105
1545
2174
6036
4430
2621
6265
4427
747
2153
6844
7256
4858
3277
1656
3293
2905
1425
3908
6784
4133
1089
2792
2219
5177
1188
5771
3281
776
7286
1302
1891
3994
274
6190
6525
730
335
5631
6089
1145
4233
4675
2115
3523
5412
1175
5610
5171
742
6546
1371
4561
6979
703
744
5640
4075
2616
440
3123
4115
2801
1709
5277
5376
4644
2023
6408
4676
336
1401
4971
6735
6892
4806
3136
6596
4240
6039
2377
646
1736
5332
1758
1878
5766
4368
7201
2442
2710
3821
4815
4774
3461
4705
6982
4515
3298
2516
1017
5746
758
4807
1399
3152
4112
7335
2776
7153
4124
1239
5662
1961
496
6638
4380
6839
6616
297
2050
225
6644
1577
1540
6801
3494
5954
6501
5891
910
3225
4661
5536
3078
6748
2370
1383
3925
2603
2468
1739
1347
4314
4780
3272
6904
3222
6039
4702
3914
5910
1132
7333
6451
1436
2211
3283
3224
2804
6639
1137
799
4813
6979
7217
5391
3734
2409
2496
1589
7281
6979
5413
5833
3588
4274
1422
1032
1628
3581
5719
5184
3399
2956
4153
3622
2889
7156
3104
3775
2956
6602
3441
4362
765
3227
155
2835
3223
1774
2700
4224
2247
826
4953
3557
3637
4780
2548
1490
6279
3677
6518
1998
2197
2472
4833
5305
3957
2354
739
1846
5408
6671
4906
233
4713
2778
280
4912
7142
115
2343
2957
7342
6264
2517
7193
6486
5082
3705
6072
5356
2717
4955
6824
3110
6646
