2347
1026
1657
2030
4913
1320
5451
2260
1242
3267
1023
3491
6518
4772
5692
2597
2609
5636
297
1239
6728
3742
474
6783
2834
4133
6606
1377
5514
469
4110
2907
6857
3023
2438
5223
3496
1521
2931
555
1705
853
6486
5119
3886
3778
4195
2479
1388
5912
3742
2552
6727
5921
5075
687
3589
2148
3740
113
6565
5518
4413
2433
1289
4128
6520
4297
6077
5320
2311
5556
833
2753
555
3073
1013
6074
5539
2688
2131
3640
3726
4722
1601
1371
6342
1986
6494
2046
6526
6847
2749
5919
639
1730
3009
3319
3039
5374
4167
4011
5842
4383
6008
6027
3818
6691
5830
124
5743
5712
1796
2702
4965
1011
1484
4409
4747
5926
1425
5833
2276
5082
73
4812
1359
4064
4103
6525
3711
5033
190
4108
4873
4501
396
4435
592
5952
5694
4369
6544
2969
329
542
2339
756
5893
2822
1949
6827
3170
1007
5878
398
613
693
2030
3439
2269
1305
2228
1569
6171
6478
4000
5601
551
2541
3732
3740
3856
2308
2074
1420
2688
2926
5760
2297
1482
3622
3461
6704
2265
5809
4428
1583
3906
4603
2679
2824
1677
2646
6166
596
5173
2813
5322
4377
554
4976
1641
6783
4813
622
5604
3868
3699
4812
6497
2286
258
569
2550
2818
4473
3514
3727
5045
5363
209
1447
6203
4244
1267
2122
4037
780
5510
4544
4882
6221
6397
878
1001
3052
61
6651
758
243
4478
6693
3628
6410
6692
498
2145
5240
3844
89
155
701
4987
1330
3867
5578
3173
4591
5092
553
844
5338
2846
4136
5096
3188
6382
3673
6579
5799
1037
3824
510
203
1633
2321
4834
4935
3739
936
6045
196
2319
3759
6082
3616
3493
6163
6392
3381
3468
1176
5343
3367
6717
1631
3505
4424
1338
2049
3331
1171
3339
5538
1544
3613
6466
5519
1248
5985
1323
4475
174
6675
2492
5665
3964
3880
2804
1799
3711
1080
2923
2199
1096
4
1114
3566
815
1615
3861
1471
5298
188
1892
2357
5666
3479
1816
2681
1348
2841
2839
4467
4503
3226
6722
1612
2932
6411
4080
4450
5208
1100
4624
6112
4030
2268
3202
4660
875
619
1263
484
1250
1298
1569
841
5954
5207
6873
3259
1384
1239
6567
4257
3124
6413
21
4512
6095
5516
2383
3320
3969
6722
367
2251
5209
4357
5676
6347
1361
798
4392
4599
2389
6716
14
5482
3157
2695
819
4271
6159
2427
5836
1345
2480
6009
6178
2063
5707
6548
4778
5421
6363
1860
6564
4251
153
4280
5773
3050
1381
4707
4044
4344
203
5339
1210
5763
151
317
6204
2764
374
4824
5486
1931
1504
2956
6447
460
5382
4539
4960
2176
2150
800
4247
3540
791
4272
3496
472
4939
1258
2179
1356
2610
5186
849
6406
4112
4371
538
2027
1416
723
3852
6803
1624
5280
2877
4404
3159
396
4622
4679
2881
593
3232
5539
1961
5879
106
3118
842
4860
4277
4350
6148
3303
6492
733
2203
1220
3527
2802
513
3027
4438
4745
3512
4116
6160
5301
2899
332
2859
6352
5758
6363
5595
5755
2318
5782
130
2281
4315
5723
542
4531
96
5580
1143
5162
1157
1688
13
3024
5253
3562
3949
5896
4479
4680
1536
1574
336
1199
969
2840
5267
3246
6568
6209
4415
297
6541
279
5858
1381
5042
3678
5031
5913
4697
1723
5870
2963
510
2858
2005
4581
5285
618
355
5232
2453
2712
1597
2828
316
4560
3221
2410
1795
724
6318
4399
2694
2453
2511
6800
114
187
5711
111
5866
261
2554
2554
2308
4279
2552
2163
4525
6214
2786
808
2832
1166
4938
3908
4961
3954
339
4740
4408
3704
582
6104
2550
4987
2209
1398
4544
1171
1978
4474
5188
2548
2733
3479
2806
2144
6886
414
5838
915
513
989
5851
6053
4908
223
6299
4219
619
1531
3012
5202
6347
5742
5641
5489
6457
530
3053
2369
716
5626
5972
6232
4270
4692
2715
4700
5855
2595
3475
4670
6635
1865
3779
544
5642
4280
1255
2143
3559
94
2425
1793
1370
47
5930
1914
4923
4153
1730
826
231
4914
4377
3365
422
6784
2757
47
6232
2109
2533
5987
1158
1214
413
5811
6724
2048
5301
1461
2472
5555
3964
2242
4658
3048
2413
1624
2571
569
3705
213
93
4119
548
2395
5481
943
4211
4870
2388
5017
5819
4239
144
1387
335
2819
2314
3431
6564
5363
2386
5265
853
3708
299
5264
5059
4198
4301
520
1171
3187
4165
6280
2384
6297
1087
6521
6317
2740
6459
767
6358
4872
3978
404
174
2459
1533
1860
720
676
4804
1289
5833
3451
5189
6568
500
4635
780
4920
801
526
4739
3370
4239
3921
2631
1759
630
3526
2458
2887
6533
6275
6196
5658
2467
548
6324
812
4043
259
6340
949
454
800
5553
5884
3155
1464
897
5903
3405
2509
3444
2157
1217
465
4146
895
276
2035
1056
3200
2645
1255
5621
1119
3132
6441
4068
503
1134
2554
1660
4383
3509
6426
2666
2056
657
1378
1128
1348
3593
825
4367
3588
1487
5387
6804
6895
506
2955
5105
5862
2810
5066
6331
2417
4715
86
3431
3796
6667
4803
3269
434
1419
2054
3076
2423
5209
4919
4289
5255
4979
4473
1380
5784
5564
4825
3977
2726
5108
623
2301
6463
2979
4403
4552
6666
4214
4292
6111
5560
98
5591
4482
5677
6022
2703
4864
6085
2991
1324
2020
5177
4921
5990
3916
5105
777
5208
5353
5532
5214
3210
4017
6189
3204
5889
461
200
6291
258
4463
5567
3158
3678
3597
4743
4304
757
357
404
1817
397
1124
5384
3877
4322
4898
1303
1950
6180
4399
465
6020
2861
288
5168
3310
5146
461
1226
25
5449
980
4644
1748
2321
5556
5717
4763
2709
6035
2166
5409
1774
6350
3886
5781
2976
4278
161
1002
2717
4800
2273
6886
2675
2762
3278
3721
532
3746
2077
3623
1628
2396
6632
6859
6734
2012
3752
3713
2142
5194
1395
2743
3007
4450
6094
4792
2509
2720
5439
2993
347
4628
1077
572
4224
3804
4761
6592
6532
5958
2371
6255
2163
4105
826
2280
3185
2021
1205
6036
4581
4343
1089
4468
1412
3435
3879
4261
6748
5745
3171
2820
222
1047
4163
6282
657
5621
2717
5143
1219
5074
2498
2272
6759
1243
4644
2947
2996
2690
5558
4706
1985
2553
1186
5075
432
5507
1732
5718
2054
4920
6631
3799
1038
1444
21
3956
922
4381
532
3267
1691
3294
2444
2201
1815
332
1599
4014
146
2977
301
569
6402
4564
3158
2405
5241
1656
1006
1086
2362
857
3572
561
5111
92
846
2126
6533
2952
4680
1244
461
505
6679
4248
4152
2406
3982
2140
6806
3360
4181
1203
5473
3417
6351
1257
2937
4031
3286
1553
5360
2864
3549
3839
3252
4812
1170
4844
4880
5251
5589
2677
5957
5637
5018
2092
2109
3832
4331
4667
6030
6680
3658
5227
1141
2503
4627
2572
1182
1612
1009
478
6765
4558
3487
5508
6183
6873
4517
3755
3399
5497
1449
1927
2718
748
5665
909
4874
3706
3703
3779
6804
1697
1141
772
1171
3402
5918
378
5694
358
6522
6863
6156
2954
2078
3261
4482
3282
2856
4081
3385
674
794
4385
5266
1871
5801
4435
420
3725
4053
3621
6014
2422
5024
6596
1014
6714
38
1570
5318
6195
6112
3583
4873
2792
829
5761
4834
6849
4553
1231
6210
466
5356
5372
3864
4766
4284
6701
3534
5152
5447
2913
3878
1764
5397
1162
5223
1748
4588
24
2414
2961
5302
5962
1785
2241
3473
2005
535
2384
5270
6509
575
6374
3037
4639
799
2588
12
6273
5953
5167
4842
2738
2393
1447
967
438
6497
547
4139
6669
2514
1928
5805
4496
6540
2272
4393
4216
553
876
5982
764
3451
4477
6586
5311
465
2422
1043
5434
6728
6483
3257
3545
2639
1191
1598
4
6040
2811
2189
2741
4750
1526
234
4757
4564
3729
6367
5275
1516
5500
1933
2202
2418
6828
5622
3288
3800
6872
6367
2904
5620
503
1682
501
1848
5616
6758
3183
1217
432
3859
5179
3002
6198
6498
2317
2240
4996
897
4546
6040
2467
5703
3396
189
4361
2591
525
5033
4574
1003
3439
2195
231
3614
2954
6492
3225
3543
3777
3871
6759
1169
2968
5557
419
5987
240
3509
3334
543
2848
2313
2284
6116
2147
1336
978
3666
1270
2448
2256
3780
259
5276
2167
616
5734
183
2535
6457
6713
2286
1863
2986
5223
5961
5118
327
2602
233
4106
131
2945
75
2376
5821
701
5389
1522
6459
2812
1982
6185
504
1568
3528
5636
2737
3466
728
5390
3409
5083
1523
5056
5467
5369
561
3687
6801
6415
1616
3508
786
4406
57
6607
2196
3608
4050
2266
5545
134
3304
4942
5513
2499
1414
5069
5837
4649
2413
1550
4778
4743
5021
1507
67
2449
2388
1853
2997
3491
4824
5417
3283
6743
3061
1257
5143
3446
1527
6273
5261
3414
2789
4099
5457
4694
6615
1870
5139
1992
4080
5927
2640
6689
857
3787
5044
3392
4551
5642
176
1018
552
2464
2108
219
397
4661
5489
3437
1327
4199
4770
3381
3404
124
4066
2018
2785
3623
3268
4622
1891
5908
2307
5653
450
4196
3227
2569
5802
1896
3556
1797
3741
4249
5018
3378
3971
756
586
4267
2578
672
4793
4141
3441
273
3755
3063
1523
1089
2996
6633
5584
2198
1091
479
5829
4251
4027
2233
6122
1792
1771
5166
4721
5924
4433
913
6073
5622
1283
6510
4201
2561
6718
1090
2427
1033
5804
3217
614
4699
1374
6465
6008
6065
5472
4764
4901
986
78
6504
2377
761
955
5838
3468
1346
5068
5132
3260
6895
4206
1701
867
777
6753
2235
3220
3677
6134
237
3757
682
6235
4235
459
1377
2195
4214
6662
363
801
6757
6240
1601
5598
601
537
482
256
222
1008
1874
6153
6411
1201
316
2181
4285
326
793
5703
3933
2541
1184
6167
1382
6745
5181
6206
1798
6441
6206
5163
3644
6586
1898
59
1808
756
6020
4892
2824
3589
1749
5074
5734
6226
6766
3303
2471
5615
4257
3105
3410
5129
3187
6825
6075
1198
6726
3191
556
5465
1741
3441
598
5609
3245
3615
4513
990
1721
1789
2633
5427
3610
5319
5797
194
932
6218
6402
1505
2588
5523
3925
569
3954
4942
3666
758
496
3641
64
2847
2494
3555
4211
6704
6058
5128
1997
5638
5644
3991
4926
2370
3898
2179
4963
4966
5357
1463
3889
937
951
597
1180
3534
4330
6794
3490
6121
2951
5908
6071
2274
2216
4385
1606
3718
1344
6532
2061
1568
1649
5854
5158
3657
4472
2230
2302
4633
4317
2826
2765
3479
4534
1463
1196
3923
6865
1712
832
6746
55
3972
4699
2154
3580
562
5807
4777
3477
4093
3175
1597
832
1789
34
5450
4130
2085
1029
716
4209
1614
3521
3011
1381
2613
490
449
1206
1541
4587
1887
2707
5514
2261
4604
4793
5614
5355
5027
1051
6533
1973
6392
1738
5153
6158
4080
878
5894
3684
1878
5564
2420
1834
5889
3335
3816
2748
4731
6598
6361
6123
4614
2208
1257
5586
3555
4739
1303
246
5198
3167
4335
1989
4366
5194
5677
1400
3990
6669
5403
5635
2863
4866
2664
5103
2909
6402
3994
6072
4781
2494
2831
2197
2729
2478
2580
2500
5508
5442
4279
6787
6284
641
3115
5641
6702
3040
3730
5739
3301
3891
5847
5150
2628
2615
5138
1605
4774
2120
1657
5420
2500
667
2164
5993
5970
805
41
2308
5938
5650
3543
4075
4902
5680
2266
3515
3073
1957
3820
633
6581
1056
6326
957
6772
4732
361
428
22
1802
5704
3870
4443
472
3276
5562
2790
6712
411
2091
1309
5936
2402
1185
3800
2945
5918
2489
4533
2855
5674
2654
6579
1863
2952
3020
4304
3980
5185
6083
6811
1775
2111
4381
2627
1654
6406
677
2449
84
1779
5703
5042
779
6541
4782
4118
6476
3433
6798
209
1376
6021
6807
1237
5441
1277
3203
1251
5991
3996
4566
2815
2693
5914
904
6379
3992
4159
3057
471
6073
2023
2514
2680
6416
5604
589
380
209
6454
2453
4114
716
4453
120
3528
1586
6746
746
4357
3966
1160
2962
4368
3562
3813
481
1147
6134
1330
5787
2804
1823
1140
5934
3676
357
5562
3643
1789
5452
3836
5016
2755
5941
4013
5392
6531
1902
373
4585
2683
5656
5049
3419
2823
2327
3169
3667
3304
4876
5649
5611
6860
3254
5599
3781
5753
6292
5908
5499
3823
4544
354
5426
2325
277
4638
644
1256
2860
5812
4332
6336
1537
4837
6616
5216
5868
6117
3129
5425
3878
6489
4276
3799
3969
5451
3322
3256
5093
2794
4806
4453
1339
1457
4438
1722
6768
4532
3171
378
5657
682
703
1289
2417
3450
1650
4487
1013
6493
1109
4767
2325
6129
4402
3144
193
6108
3540
1323
4806
3231
5812
4186
3119
5526
1694
6017
6532
2470
6622
1360
6821
1695
5390
961
1669
1708
6304
6108
1205
1969
4822
77
3468
1903
1746
5509
106
4686
2145
2093
5169
6492
1264
3027
2712
3886
4585
3199
2719
4493
5408
3796
2452
5279
6349
1069
2760
4709
6803
4767
1357
5729
6032
5563
2332
3556
2743
2764
1320
117
4712
6583
4585
313
2302
1953
4676
6828
4575
3451
5128
2749
3434
428
2830
4415
2681
875
2362
3047
3738
3464
2829
6337
79
1070
1767
4847
4342
4006
4406
70
2532
6155
1382
6117
503
718
3957
3287
2096
5826
2223
1497
347
1893
5062
5673
1964
5786
1691
3498
2230
206
1205
4025
6618
4869
5711
406
5819
3208
2054
2692
5623
3257
2841
1829
2339
771
6064
3297
876
639
2853
682
3116
3604
6269
6543
643
6835
3592
1019
1018
6475
5364
1878
2659
1645
1156
1982
6541
1240
3686
6702
5212
4588
1681
4104
4669
4692
1301
2858
366
2562
5825
5964
1132
1127
6739
2732
2962
4801
3940
6514
5627
6273
3767
4043
5169
4129
5844
2
2589
2127
1211
5582
6363
2352
350
552
2033
2801
2972
44
6100
1748
5279
454
1336
2127
5320
4644
1662
6285
6448
2123
5372
1365
2455
4124
528
4430
4929
216
2058
177
1772
835
2508
6786
401
2931
3977
4594
1016
4105
5037
4984
2775
877
3207
256
1544
643
1165
2913
442
577
2630
4196
6317
3869
2656
3614
5786
5653
2545
2070
4787
2702
591
1517
4969
2189
978
2930
3274
4719
2593
5135
370
6237
5590
5725
3982
2429
2725
2536
488
4477
5557
476
4460
1730
6481
184
4863
5064
917
5717
1034
4017
5271
2049
6846
4255
6654
3555
3414
484
3373
5328
3759
4289
1293
4920
779
2507
4456
775
877
1223
324
6730
1154
5408
1475
1793
925
5834
2334
4220
2186
1642
914
6127
300
205
6381
187
1204
771
4103
3163
6606
4190
4499
1916
1867
6472
7
5553
5174
5334
1735
1494
2977
2837
399
1788
2735
4975
634
4362
3475
3855
4407
1883
1952
1211
6630
5480
5432
1052
256
2265
1308
3140
6816
3232
4525
2227
4135
5319
1582
5523
3127
3320
3631
2307
4891
4406
4473
5366
5867
1594
6572
2914
1034
5864
6677
4708
4922
3688
2429
4343
5068
613
3264
6802
833
322
4399
6786
814
3864
3897
4493
1100
4304
3616
4397
2444
413
2912
6172
4961
4453
4190
5926
6772
1322
279
3469
1349
3176
3648
4881
2599
6220
850
481
4270
3316
1815
2480
6590
5532
2999
953
6469
137
3926
3627
4898
1260
4002
2021
489
1468
4389
2895
2991
1217
3398
2577
6614
777
681
4509
5853
2181
4658
6004
34
6863
4478
1822
5786
1968
1277
6195
5067
2061
3043
5905
3585
796
1246
4465
3842
961
1433
966
4880
5758
863
6761
2337
4581
2488
5686
4775
1368
6461
5780
5406
3479
5744
5322
4697
1911
2930
5847
2145
4574
3256
2547
4046
4388
3001
6163
6369
3489
1526
1949
5427
1857
4797
1829
983
6441
4316
1730
1955
5354
5314
4801
357
4692
668
5358
2009
826
3622
748
2436
110
2337
4850
2031
569
40
5395
733
6556
1603
4654
4624
1236
6524
2865
3243
2648
4331
2812
6826
4478
6073
1023
3328
86
4456
489
5249
4023
5797
1074
4423
1703
4982
1908
1033
6210
2940
1291
5463
6434
5658
2540
1171
3942
1305
6828
6158
1980
427
837
460
3193
1467
3797
6334
2605
5374
3778
5456
2637
5352
2203
3602
2226
6406
1475
5013
2763
2169
4433
4487
1115
625
5979
6712
3260
447
5603
2528
6412
6372
439
598
790
106
5824
4704
1393
4047
5979
1832
322
226
3129
2271
2739
4974
1942
4545
1821
5109
249
3804
1598
4892
1683
5420
6728
3282
6165
6420
6799
4364
6799
486
6678
6517
3351
877
502
2602
2696
768
3258
5635
513
1092
6570
5310
2805
4602
3915
6818
4856
3343
2521
669
4952
5305
1165
1466
4347
4322
2491
2665
3090
4010
4728
5309
63
6038
6143
5865
6579
3544
1937
4484
4382
545
5635
1358
3633
3177
1074
4999
154
2955
2323
90
1183
6888
2400
4460
4357
2372
1598
1477
2231
4412
668
1660
1644
5166
4582
2374
6794
5868
5556
428
5017
1503
4642
2166
1680
1676
4305
2128
211
3436
3651
3264
1090
2082
1900
4867
5302
1203
1234
6314
2522
3914
4550
2853
4086
6858
4693
2986
2819
75
175
4139
6442
5237
467
3313
1084
1057
3848
2714
2818
5816
4558
6079
1955
437
4602
2807
5087
2213
2037
1072
3195
3934
2820
1904
6192
385
1969
553
2676
3367
97
3745
1040
2108
2570
84
3547
4694
5420
860
768
4272
885
4427
1265
6359
713
1101
3832
4130
3648
2321
3095
2494
3847
2009
3594
5208
1271
3746
6572
1767
2318
3119
3684
4632
4642
2071
747
681
204
1994
2501
3358
4270
6399
5296
6330
2094
736
6336
5177
363
1315
920
3032
521
4633
5790
6831
5185
39
5839
3311
3831
3724
2542
228
4589
606
6587
6453
4329
2968
4052
4798
1178
2657
196
6864
1967
1452
3760
275
4858
5375
6592
6746
2557
763
4126
2065
6328
2294
1990
6763
659
4640
4290
392
3729
1900
5020
5513
6470
2579
3874
5964
881
4299
2178
839
6111
3393
2452
787
137
3465
5289
5699
644
5648
663
227
256
4012
247
4051
4998
6464
6647
5609
5447
2762
6324
5827
6423
5938
5239
4606
403
6390
36
3893
1563
2840
4783
4554
6679
769
1221
4006
5641
2862
5332
5404
1729
836
1520
4691
3081
4607
2237
1235
2923
5792
5740
4302
3989
321
5726
5211
6492
3597
4184
5788
5893
3004
5594
2076
738
5462
1836
6081
89
1055
722
6700
3902
3908
975
4624
6847
469
3414
417
5926
6734
5417
1
4903
181
504
4589
2935
2270
2789
6618
157
5105
2941
5332
6385
897
3900
4955
2427
414
2517
1792
817
5530
1622
4244
1001
5754
2783
4236
114
1000
614
3346
2114
1924
6016
6108
5858
2611
3139
917
4118
3868
791
6098
5579
1474
846
6076
5671
5380
5544
3428
2876
1939
2952
2388
5358
5715
1239
4939
799
4141
2211
4144
5057
4901
3431
6657
1867
1933
814
2643
3820
1932
4149
4807
3661
4421
5391
315
4358
3456
448
3731
4441
6043
5962
4424
4586
2475
72
3391
1367
4754
5536
5199
6032
6817
1057
1204
2176
1135
6874
4263
4660
497
3951
638
5916
817
6482
6754
6343
3086
4109
1290
6118
4490
6446
3336
3490
5462
3019
811
6093
4271
6141
4107
2068
3462
1150
5824
3231
2291
5424
957
1281
5923
5452
6816
1502
6728
4602
1988
2358
3522
2378
5964
793
523
3694
2516
5278
6888
4484
788
6121
6140
3691
1795
1596
5239
6829
1333
5749
2555
1318
192
1991
1527
1441
2497
3948
1776
1517
6541
2244
3056
5340
6526
6080
1363
5724
709
4580
350
3058
2733
3966
1800
165
2025
3817
4980
6523
2044
4730
2844
1210
6710
563
4528
3134
4088
1430
5522
3311
4973
2513
4893
5615
6308
2752
4634
1234
1901
3214
1235
830
2847
6798
3629
954
2740
4666
4169
4047
765
2982
5742
4895
4114
5120
6178
2290
222
1856
5493
4682
2392
5612
2441
1082
784
5349
2452
6751
4325
4016
3988
6504
3481
2595
1541
2592
5392
3268
1871
6494
4031
4293
5101
173
4140
4747
3157
3834
5962
5478
2515
1124
2382
2453
94
2470
5429
1103
5652
5575
4546
5345
3083
5175
5568
4058
4220
1110
6061
3058
2845
2752
2919
4883
5292
4688
3028
867
1850
925
4717
6267
1330
5815
2663
2896
818
5606
1641
349
1312
6095
374
5205
2514
6448
2744
279
1440
637
5135
3336
2560
2156
1764
5120
1200
5213
2022
2377
136
6541
3074
3425
635
2133
4827
4858
3204
4520
2144
3357
778
6077
3151
2877
2440
850
6640
3762
3516
1027
4706
3623
5778
6399
987
384
2057
2266
1014
3532
4751
3256
550
4582
562
3593
5718
2103
4356
6466
3119
6094
6803
3791
3119
6224
6478
2079
5656
2051
1855
6826
4414
1010
757
6481
6283
5014
2219
285
4272
5820
1132
1386
3456
308
298
4655
5064
2030
2395
4612
1186
2447
1794
4604
6660
5955
1235
304
2221
6882
3682
1460
2748
3669
4672
5774
5525
404
5645
6721
6016
6830
3970
4688
4941
6401
5673
4855
5005
3679
3607
1931
6348
3902
1049
1864
5916
3268
2411
5252
1271
5963
672
4475
2122
3445
6692
3461
6724
2716
1065
1330
1878
3521
2093
5554
2640
1982
5585
6206
5762
1902
5759
2411
117
465
1726
2343
6285
1694
3754
3493
4669
1438
2691
946
3637
5609
6332
3306
2501
5863
1485
2916
5046
3502
426
4676
438
431
4331
1711
3253
1228
6548
5764
6899
2133
942
4477
293
71
6185
5120
4951
1650
4457
2625
5613
746
716
3499
1927
6846
2850
392
1160
6151
2003
1457
1126
6261
4643
5169
207
301
2420
6325
2523
3082
6205
3822
2694
1375
5955
2656
6495
1797
163
1577
878
3659
2256
5510
6811
2359
3691
4952
4492
4767
526
2974
5637
945
2652
530
5420
2576
5034
3331
3067
6481
626
587
995
2578
6012
3783
6782
5617
4157
3888
2673
3653
4257
3639
3313
2511
2870
4618
2402
3892
1883
5466
6331
4342
1591
4489
4909
1729
3138
1977
6599
6527
4763
2251
5055
3309
1768
4682
6275
1671
1687
4176
1480
3319
2362
476
4656
5358
6265
5389
6606
6410
5732
2650
6575
51
3700
4083
660
613
5380
3393
2434
3123
6490
4602
5028
5996
3480
6644
2035
2924
2312
5860
168
4785
799
6587
6456
2739
1305
2365
6717
1045
1675
866
4213
1424
2935
4174
774
591
3097
4112
2277
1560
916
2556
1153
309
5039
3451
2669
4450
2677
5892
1738
6788
2312
284
5770
1548
2938
6334
3581
6558
4339
1317
4678
1828
1224
803
1304
175
3984
2013
279
3246
2612
6209
4194
4939
3373
5520
198
5630
4042
1596
3808
659
1022
153
2934
3748
811
520
3251
5753
533
4712
4498
5025
1862
3507
1692
6618
6838
6630
3481
2740
5636
1501
3054
3567
2307
3482
4265
1920
4431
8
2504
3563
5508
6772
887
2806
2930
4647
660
4985
180
2127
1488
3681
4386
3805
2448
4171
2229
2108
2011
6580
4782
1677
4555
3243
1380
642
5468
6216
4140
3793
900
6063
4290
5945
1285
0
5157
2928
4350
4378
6416
6402
2745
149
4968
5873
4678
755
3559
686
5724
2624
3463
1955
5104
6067
3824
856
1223
6473
3208
49
6170
1103
5697
3765
5194
2824
429
1046
4794
4428
6669
3720
3924
1198
2228
423
5856
3889
4288
6829
6804
3630
2979
1145
6733
1157
2599
3379
2811
3005
4960
5342
3296
5984
3172
1548
3075
2663
1337
4637
4661
4548
3551
4861
821
1194
4433
1356
1384
3270
3590
3285
5648
3296
3049
5326
3666
1828
5502
5380
4592
3907
5196
6375
3640
933
583
38
907
5545
2275
3937
1133
1714
4831
2643
234
6070
4069
3742
1724
5633
2947
2545
363
2991
307
6206
2411
3473
4812
4715
6373
210
1056
5188
4620
2419
4958
4994
1283
5479
5425
6106
3780
4517
1368
4192
1016
4142
2678
4975
5626
754
5506
763
5447
5955
1791
3062
1936
3038
9
6035
5826
5039
2491
4557
590
3581
6870
3301
2714
427
2468
2152
2296
1785
731
1932
1242
978
5841
3229
4512
4574
6883
5944
6081
6868
5650
2112
4605
2083
4862
3501
5616
4471
1898
1902
641
5827
206
6499
6341
1341
628
5976
1143
6727
474
685
4134
2689
405
2914
5057
1720
3127
3499
167
3314
3351
5654
3566
5187
5650
4873
4179
6504
4125
6200
5332
6270
38
5891
2219
2799
1669
2393
6231
6166
6459
5153
4564
6897
824
1178
1688
3204
3721
3546
3965
6352
1340
5639
4839
2546
3713
1254
1410
5483
5368
3870
3177
4561
3279
2174
1646
4460
2358
6894
430
2846
1866
4388
2321
864
5588
2295
3775
3519
5965
4681
566
4968
1123
1315
5352
2909
667
1877
5550
6188
315
3847
5883
3225
3416
1643
562
3991
924
2653
4983
1268
5605
2796
2836
5552
6402
2866
2469
4605
2780
874
3391
213
3333
418
5089
5363
4453
738
6086
5167
1061
289
442
2749
5413
379
2024
3750
2103
6218
2193
2811
5534
399
2698
3031
2682
756
3278
1512
3340
5547
4547
4654
4522
260
6727
1548
1122
2548
3446
4140
4827
3816
902
5541
5578
4794
2448
2331
4519
591
6518
768
1760
1909
1455
5439
771
6576
4998
3990
3947
5044
5891
5060
6698
473
4040
2677
5814
6376
1556
754
4005
1030
3770
5590
2940
1716
869
3820
2631
3709
3233
4382
4395
6404
4514
4330
4294
2817
2385
2023
109
4203
1970
3356
3620
2158
3729
3729
4357
1478
606
5691
4147
3084
5448
5707
2798
2688
6667
3635
6104
557
4558
894
6560
4314
4427
6765
3220
2129
5166
1790
3468
6418
133
112
6065
4382
6846
6565
4812
6773
3148
4794
4640
2211
2543
6677
3876
151
2483
4093
1391
818
4896
6318
5078
1347
787
2860
2162
1392
367
2819
3350
4609
5927
5445
4017
4432
3920
5244
3494
1666
5035
3338
1518
6458
1583
2307
4271
796
1021
2234
6829
5312
5037
621
6873
3600
2838
3699
2259
3984
559
219
6086
4654
1697
5267
4504
2322
5973
5819
2588
1049
2834
2116
4211
3485
5692
6114
2817
6284
5784
3814
3729
3347
332
4448
6766
5545
1699
5793
6105
6855
1710
3805
4769
3923
3830
6790
3205
5496
5071
845
788
3321
1462
5985
2284
2172
3958
521
929
1155
6561
3449
2753
4623
965
6350
6560
2290
3775
6772
2690
3735
4300
294
2145
5644
5959
6062
4890
132
3276
3006
1428
4323
6358
3059
1116
3483
2237
296
3200
2048
275
6899
679
1513
1616
6128
2375
3930
3409
2031
228
5594
801
213
3164
6502
1400
2038
3653
4671
4461
2507
3491
4542
1491
1211
1057
4586
5585
4592
2512
4308
5187
6879
2085
6899
953
5868
2039
1234
3122
5013
4100
4295
5530
1062
4678
4689
4904
6216
6851
4566
6315
727
2622
6335
2585
5849
381
1034
4078
924
380
6851
6428
819
1591
5439
4628
189
865
241
6809
548
1485
1402
2169
1086
2701
3073
2439
2002
507
204
3496
5302
4388
5010
2731
973
3233
4262
157
2460
2136
3221
6267
2757
3235
1276
2201
2892
1676
513
6107
3826
1500
5419
6019
4408
4519
5413
3586
6306
3363
4277
462
1909
4961
6403
3086
2614
1289
2930
4660
6149
5960
6157
4923
4923
3151
3034
704
1460
2688
4439
4779
1964
2978
6847
2908
4233
6299
6714
6789
5354
3845
1305
1719
832
3969
5385
5733
4958
3584
1682
5192
5050
1045
695
549
5411
6832
5313
5
5918
6569
4510
1770
6538
3160
5257
6572
6100
2762
1459
967
5943
6774
1308
5245
5229
3877
1117
1540
2196
5959
6118
3521
760
1402
6289
5716
2890
2594
3865
1740
1297
6428
5380
2616
3676
85
3344
5127
5741
994
6294
2029
6846
450
3787
3107
2931
5860
6162
6336
3015
5902
210
4215
4586
5415
5357
73
6148
6685
4315
4013
5689
860
434
2339
1522
1964
4702
3526
2269
869
4377
5090
5021
5676
648
3576
6887
6206
4021
5729
3917
4721
3795
4099
4317
1877
5499
3400
6137
3680
2261
2456
3331
3077
1891
454
4640
4828
6754
2619
660
2287
4332
3919
2025
1397
41
1310
5011
6363
1066
486
3068
112
1267
1355
2148
1719
2249
1640
5241
2880
1093
4658
4166
6156
6468
2027
1402
5562
3725
5011
5992
1286
5896
4555
470
6798
5941
3516
1250
3008
881
5312
4529
3514
224
5256
4991
5241
2541
233
1944
245
2162
6197
6827
5052
785
5122
4888
4090
1921
2663
1871
6088
6217
6007
4031
6296
5236
1426
6857
2404
2025
6046
328
545
1333
479
2555
6660
5299
208
1182
4679
1520
4298
765
5101
4258
1517
505
6059
691
1533
4185
2776
790
6466
3570
254
3618
3283
1655
3
1003
5301
1457
4431
4902
1546
5439
5326
165
3797
1382
806
6536
6805
3292
4879
4858
3401
1735
3843
2848
3927
6777
442
1585
653
1690
4247
3127
3757
1241
2862
3874
3253
3144
1068
6148
6663
1416
6557
6329
2343
94
4281
712
3659
5261
635
4906
2544
5496
4352
623
4019
107
5471
2283
2875
6846
6470
1492
3439
1326
2320
2455
6356
1025
3842
4497
3624
6421
4885
1963
3791
3312
4121
1722
6046
2519
1756
6461
386
1617
6199
5872
5755
1672
5890
3707
2469
2423
4424
4884
6561
6530
729
170
6897
4280
1043
2575
2867
6326
5412
4549
4024
6470
2094
1208
3108
1851
6690
1268
6070
4951
6520
2591
2861
2691
1771
5267
3115
6794
2097
4507
3935
6102
1853
3078
4846
3264
5568
2656
5490
3284
3152
3744
2510
5350
4384
960
3271
6232
154
3799
4481
3980
6618
3801
2131
5808
1927
4360
2412
5237
5196
513
1737
2546
6821
4572
5495
5675
3525
5234
5123
1738
3816
2391
1827
3501
3074
833
628
1778
3059
1325
2614
4821
4502
6100
4487
4876
25
6349
6052
3601
3307
3746
5151
780
5288
1484
6357
4723
6490
5248
268
5369
6725
2104
3772
1079
3153
6360
4852
6026
201
3663
1790
4926
4176
6410
2699
4902
585
4831
6892
1338
2332
2014
145
3086
6262
6821
6764
478
5046
2051
6583
2592
785
5536
12
888
5230
2495
2853
2171
6036
5809
6212
470
1768
3709
5290
6743
3303
6794
2364
1108
6404
1181
2879
4412
5784
4020
3579
2102
1923
2509
579
6763
5586
5219
313
3144
5970
1860
1725
2858
1513
1750
5473
2895
4390
4019
1195
418
5716
653
251
3407
3954
6344
4529
4304
4321
2501
3103
460
5747
6695
79
3511
5104
6420
3267
2851
1772
3525
6775
6042
1699
1851
4832
2780
3153
6439
2664
2032
3807
3489
901
5439
1028
4690
4247
6585
2421
2415
4699
872
3662
4258
989
483
5969
1692
5395
4089
4622
3616
1198
6267
2150
284
3822
4384
6126
114
1300
6656
5448
6602
2696
3339
3164
3175
2597
3120
5268
5891
1399
5926
4966
5617
6256
3748
4723
4070
4184
5961
5405
648
5748
6850
679
4976
6651
5153
413
218
1762
5714
4911
71
4649
1997
2535
2627
4659
4483
4711
3313
6453
6006
5441
260
3612
5909
4705
427
4427
1517
3817
2793
5976
1519
4125
4200
4394
3893
2950
1625
4092
2347
1753
2293
342
3583
1177
4790
173
6214
4889
2352
4382
6812
1820
5063
1401
2414
3640
5463
2124
6879
4050
4656
3833
6436
4068
2380
2591
1633
5141
365
609
5318
3645
3508
1111
723
641
1528
1652
6296
5222
1085
3697
1712
6195
3034
2538
2624
3258
4506
2046
1224
992
471
2889
4915
232
6143
4655
1378
6797
596
4825
1184
1815
259
1479
6727
2909
126
5114
2209
2162
3860
503
6313
3310
1074
2649
4402
65
3263
6557
5409
802
2496
3167
5396
1906
3694
4222
3106
1883
3209
5232
231
3376
2399
5591
1160
379
3147
912
754
3506
5300
5335
5937
5189
3974
1449
341
1100
1667
3006
3616
1053
610
6287
1862
2133
1476
139
1418
5655
1037
2558
2326
4327
6824
2391
4738
3352
535
4170
6058
3505
106
1971
6706
6459
189
4394
336
4476
5865
5369
3462
2089
4968
6176
1989
5625
6447
286
5630
6593
650
3047
6159
2296
2893
1214
1537
4348
1838
1057
657
4256
1801
4167
130
6257
4029
2880
2016
972
4922
2001
1219
5353
4841
3100
306
1258
5909
4869
4549
3108
2258
5507
3662
5939
2547
4092
4141
2182
2204
3783
2732
5373
5263
5748
6659
219
1369
6611
1964
2112
3210
4767
2891
4695
42
690
756
109
398
413
1809
917
5803
170
87
4041
2154
5166
10
6656
1517
1326
2859
5054
5906
1589
5922
3768
5222
6807
3488
384
3512
4862
4629
3273
600
4810
1819
2117
3375
5792
1797
1548
3351
4896
5643
77
4337
923
6876
2848
2842
4680
6888
3726
3858
1919
2919
1526
5166
1048
2889
3653
5598
2611
6323
5704
5576
2464
3632
5807
520
614
5612
6321
4377
221
5282
4108
5253
2908
5418
506
4473
5383
3686
3110
4064
14
3158
6479
5935
5138
2830
2302
5389
2509
892
4660
2545
4832
1715
5381
3389
2626
1592
5544
2397
5641
2563
2412
53
5665
6002
468
3428
377
1138
2557
2764
2209
2907
4268
4219
1622
4995
6239
532
2401
6811
1844
3810
566
2698
1513
4121
3441
3707
2704
2103
1912
3818
6283
3471
2685
2158
2201
5750
6636
4766
2227
2426
4800
4706
4273
4156
3066
1857
4968
6805
3886
1229
5686
4113
1206
5964
1662
849
1619
5478
3766
1832
2074
1472
6208
1457
1757
2931
340
6267
970
4681
3936
6153
1720
478
2629
3965
935
2535
4618
896
5825
3163
1500
6018
4540
3922
1569
2232
3686
2461
650
2038
3188
2944
291
351
6104
858
5198
983
3769
2528
513
4870
1397
3761
3945
4898
845
2
4012
2363
2117
1495
2066
511
3960
2822
4968
763
5809
6148
4792
3215
248
5078
6121
1186
1434
1457
4158
4811
6103
5962
4813
552
5586
1230
286
4948
5900
6093
4907
2496
4175
2302
1286
2466
2502
1079
4369
3470
6078
1851
3319
2410
1467
3511
3757
1734
5577
1573
5402
5
5478
6540
5536
4104
3896
5584
4717
1061
65
853
4257
4584
1631
624
1543
6809
4079
5086
6168
437
3177
2282
6709
279
2233
1586
3911
3727
6526
2214
5756
6851
6581
5769
2926
4026
6378
6052
4865
759
70
749
344
190
3524
2169
3092
5282
2689
4918
6571
5503
2207
6285
4668
2802
2423
3540
124
2284
4875
4544
2045
5012
6083
6241
3596
2974
2309
3883
1388
3229
4448
4153
2999
3587
3338
613
922
588
3437
6240
1808
5613
3528
5552
4032
2776
2307
3880
6319
1214
6164
2326
3445
2360
214
61
4945
4215
5336
459
4516
663
652
6806
3883
5858
4210
1871
2973
6211
3675
4563
1186
670
4683
6694
4667
3875
4355
2238
232
4600
901
6214
4144
5339
5741
4956
609
721
3332
1013
6083
1509
3356
4355
535
2525
6032
6145
236
267
2992
923
4262
343
4456
5093
195
837
3877
31
715
2331
1160
5151
1173
2746
5560
303
145
6426
2296
2305
5049
1023
5954
1193
979
6878
291
4002
3164
649
338
2097
6675
3936
4249
4071
5653
1817
2526
5634
5573
719
2756
4960
1714
5803
5275
5257
3504
1784
2957
2994
5172
4101
5608
4407
5615
33
140
1997
5906
1739
3242
4072
6573
3052
2115
4177
6081
3711
779
1452
585
3091
3983
4247
5001
2488
3346
814
978
168
1247
942
1286
2900
5972
957
1595
3696
1906
6155
6007
6607
6421
89
5792
4984
5416
3292
1819
2755
5975
1320
6091
193
4941
2138
1894
5412
3620
4035
3639
3925
4861
6692
3200
619
3960
2376
2508
2309
5493
2445
1230
4548
3957
711
1568
228
4000
3710
5695
5993
2389
1195
5112
4194
2315
2090
1487
6859
575
4327
1472
6152
1539
6227
6014
6246
3274
3691
4925
4680
1903
789
3190
6450
4404
2566
18
1591
238
280
1680
5870
5667
6572
706
5973
1205
6331
1646
369
1822
6555
5416
5745
5334
641
2184
6073
352
211
6823
922
1113
6880
118
4417
3940
5599
37
3966
3343
2330
1123
4185
2991
4059
4739
3596
2502
6169
4929
5878
4585
1658
5871
3299
5710
188
5661
988
1800
6859
5161
6231
274
3306
2887
2818
699
1650
5086
1501
4830
5695
1700
2329
3043
801
3299
2767
614
4732
1693
6059
5112
2696
4666
6155
2510
1618
3047
5367
6561
5643
6839
4119
6052
5947
1905
995
5195
117
3019
1335
476
2481
1366
5996
5018
6877
1968
1744
4838
4032
2921
6866
6415
5446
1924
685
5270
5253
4340
5087
2018
1940
2249
6849
55
2331
6883
86
1246
902
3974
2273
321
2235
6887
4241
4687
6107
6552
3797
5234
3761
4948
2585
4531
32
4353
6860
4452
5882
6317
1727
5473
1813
3463
5466
3952
3697
1615
2310
3922
4233
1547
3343
6500
5292
5897
89
3892
2304
459
3311
3745
2850
4489
6527
4058
4100
2233
5445
653
6053
2677
5054
1065
2335
2834
6073
1702
2487
1339
2827
6285
3053
6216
5676
6137
4494
3133
4650
3852
708
6767
6717
664
5669
4137
3380
1773
5292
5677
296
5163
6526
2025
1694
1914
5461
1541
3420
5262
2135
5596
6197
886
1458
5419
2877
1065
4715
2847
1554
6243
3161
686
6560
3762
6340
5456
1320
5636
1152
1876
5720
2478
5528
5098
2783
3963
1135
1737
6820
1844
4535
4781
3276
5172
4657
5919
2562
4891
1380
186
1067
4405
965
723
260
844
5889
3585
2812
2543
571
1398
4738
4609
1789
74
2747
6686
570
224
6348
4227
4153
5604
709
3161
5397
3221
4650
6720
4978
2348
6567
3013
2364
3934
3404
6421
4154
3750
2818
2287
1241
3883
6274
1717
4196
3877
6235
1390
4449
1328
5550
5895
1526
4959
1386
3780
6194
1739
5498
388
111
1923
5249
4421
1333
1720
4633
2222
6400
4577
1716
2070
1971
6272
4835
785
3636
713
4412
5491
1785
2913
4883
1373
3102
5975
4789
2465
569
3611
2162
3422
5560
1896
1502
5916
6036
3120
1398
710
5675
3715
1257
3965
3436
6724
6606
3394
2531
5840
2053
2681
1493
2373
6334
4437
2017
5940
1065
288
725
940
5349
3127
4208
6438
6696
914
2270
3618
781
5986
3523
1016
4589
637
3768
3752
3366
772
6543
2339
4262
4176
6882
2598
3456
818
1403
6678
5102
6372
6695
3723
2224
4358
13
4607
5208
5459
2606
6198
1620
4058
6840
6471
3268
596
2692
118
2965
5326
2417
154
2727
6000
5511
635
3037
1893
300
3904
1541
4203
834
3583
5386
3248
1606
2245
1255
2895
553
2101
255
2096
3746
1553
2238
1027
299
6088
4264
3640
4650
1841
456
5837
348
380
1229
2497
5144
1403
5872
780
1279
4332
4189
3872
859
2625
752
2370
162
86
1832
1839
5497
5062
4204
6455
1610
5845
66
3131
4700
1287
965
4639
6018
3642
4919
699
1095
4967
1589
6539
3929
1358
3011
2854
2675
795
4795
2888
1913
1793
8
6601
6096
2482
5153
5622
4344
2710
597
4107
3428
3477
3211
2546
6896
2544
4011
5086
3356
6656
4846
148
2328
826
5252
6468
1640
1582
3812
4762
1555
775
6598
4426
461
4093
140
1902
554
6826
3746
4367
1857
739
1001
458
4106
1174
3339
4647
6041
3434
6765
4251
3709
1111
2269
1476
2208
3792
487
2902
5339
1347
2092
2592
5846
4834
3971
1129
2083
4653
4605
579
4793
4145
5107
2820
313
133
4305
3849
5104
8
61
4540
6219
641
1666
3618
340
5095
2405
3265
5190
4933
1371
2564
5005
3339
2885
4081
3987
6363
445
4848
1287
1618
5385
1806
4021
1247
2782
4729
1430
511
418
83
2678
1884
4155
5031
5324
2892
2456
4179
4571
5781
1863
3640
6356
6102
4139
2500
3715
5061
5426
3642
2318
4324
347
3929
444
1811
1405
4898
4068
2123
5921
677
4071
1321
3403
5226
4712
6398
146
432
5659
3452
6071
4608
464
1123
5751
76
5174
498
30
4068
2892
6745
3809
585
6168
2474
6583
5053
1772
1588
1288
4044
454
2183
3059
148
1772
6851
5130
545
4636
2997
5612
3135
205
2056
5595
1880
485
850
5343
5163
2911
4290
2084
4483
1065
1118
3620
1058
6271
6829
6045
6017
6853
3122
1954
177
2168
2905
5556
5092
341
1156
5509
674
1683
4247
237
5095
1287
4817
2374
738
6301
2858
2586
3001
6490
377
1135
6424
1737
2907
5439
3972
1443
6687
3189
5620
4156
2285
3812
4722
4323
5194
2903
4892
3610
649
4995
3159
6724
616
6386
1862
3396
3919
1449
5228
2499
1146
2537
1207
281
2718
1978
2881
4685
2941
4412
313
1087
2531
1099
1520
5320
3642
5038
2338
6378
5634
2228
4791
4029
4042
4588
6726
4325
5795
1540
4949
1789
3026
2038
3372
309
186
3742
3781
1477
4432
3098
3837
2819
2803
3871
5112
984
3204
3622
5511
1182
4810
545
4143
